ARM GAS  C:\Users\roob\AppData\Local\Temp\ccsFXI6k.s 			page 1


   1              		.syntax unified
   2              		.cpu cortex-m4
   3              		.fpu softvfp
   4              		.eabi_attribute 20, 1
   5              		.eabi_attribute 21, 1
   6              		.eabi_attribute 23, 3
   7              		.eabi_attribute 24, 1
   8              		.eabi_attribute 25, 1
   9              		.eabi_attribute 26, 1
  10              		.eabi_attribute 30, 2
  11              		.eabi_attribute 34, 1
  12              		.eabi_attribute 18, 4
  13              		.thumb
  14              		.file	"chheap.c"
  15              		.text
  16              	.Ltext0:
  17              		.cfi_sections	.debug_frame
  18              		.section	.text._heap_init,"ax",%progbits
  19              		.align	2
  20              		.p2align 4,,15
  21              		.global	_heap_init
  22              		.thumb
  23              		.thumb_func
  24              		.type	_heap_init, %function
  25              	_heap_init:
  26              	.LFB7:
  27              		.file 1 "../../os/kernel/src/chheap.c"
  28              		.loc 1 75 0
  29              		.cfi_startproc
  30              		@ args = 0, pretend = 0, frame = 0
  31              		@ frame_needed = 0, uses_anonymous_args = 0
  32              		@ link register save eliminated.
  33              		.loc 1 76 0
  34 0000 40F20003 		movw	r3, #:lower16:.LANCHOR0
  35 0004 C0F20003 		movt	r3, #:upper16:.LANCHOR0
  36 0008 40F20001 		movw	r1, #:lower16:chCoreAlloc
  37              		.loc 1 77 0
  38 000c 0022     		movs	r2, #0
  39              		.loc 1 76 0
  40 000e C0F20001 		movt	r1, #:upper16:chCoreAlloc
  41              		.loc 1 80 0
  42 0012 03F11000 		add	r0, r3, #16
  43              		.loc 1 76 0
  44 0016 1960     		str	r1, [r3, #0]
  45              		.loc 1 77 0
  46 0018 9A60     		str	r2, [r3, #8]
  47              		.loc 1 78 0
  48 001a DA60     		str	r2, [r3, #12]
  49              		.loc 1 84 0
  50              		.loc 1 80 0
  51 001c FFF7FEBF 		b	chMtxInit
  52              	.LVL0:
  53              		.cfi_endproc
  54              	.LFE7:
  55              		.size	_heap_init, .-_heap_init
  56              		.section	.text.chHeapInit,"ax",%progbits
  57              		.align	2
ARM GAS  C:\Users\roob\AppData\Local\Temp\ccsFXI6k.s 			page 2


  58              		.p2align 4,,15
  59              		.global	chHeapInit
  60              		.thumb
  61              		.thumb_func
  62              		.type	chHeapInit, %function
  63              	chHeapInit:
  64              	.LFB8:
  65              		.loc 1 99 0
  66              		.cfi_startproc
  67              		@ args = 0, pretend = 0, frame = 0
  68              		@ frame_needed = 0, uses_anonymous_args = 0
  69              		@ link register save eliminated.
  70              	.LVL1:
  71              		.loc 1 104 0
  72 0000 0023     		movs	r3, #0
  73 0002 0360     		str	r3, [r0, #0]
  74              	.LVL2:
  75              		.loc 1 105 0
  76 0004 8160     		str	r1, [r0, #8]
  77              		.loc 1 106 0
  78 0006 C360     		str	r3, [r0, #12]
  79              		.loc 1 108 0
  80 0008 083A     		subs	r2, r2, #8
  81              	.LVL3:
  82              		.loc 1 110 0
  83 000a 1030     		adds	r0, r0, #16
  84              	.LVL4:
  85              		.loc 1 107 0
  86 000c 0B60     		str	r3, [r1, #0]
  87              		.loc 1 108 0
  88 000e 4A60     		str	r2, [r1, #4]
  89              		.loc 1 114 0
  90              		.loc 1 110 0
  91 0010 FFF7FEBF 		b	chMtxInit
  92              	.LVL5:
  93              		.cfi_endproc
  94              	.LFE8:
  95              		.size	chHeapInit, .-chHeapInit
  96 0014 AFF30080 		.section	.text.chHeapAlloc,"ax",%progbits
  96      AFF30080 
  96      AFF30080 
  97              		.align	2
  98              		.p2align 4,,15
  99              		.global	chHeapAlloc
 100              		.thumb
 101              		.thumb_func
 102              		.type	chHeapAlloc, %function
 103              	chHeapAlloc:
 104              	.LFB9:
 105              		.loc 1 132 0
 106              		.cfi_startproc
 107              		@ args = 0, pretend = 0, frame = 0
 108              		@ frame_needed = 0, uses_anonymous_args = 0
 109              	.LVL6:
 110 0000 F8B5     		push	{r3, r4, r5, r6, r7, lr}
 111              	.LCFI0:
 112              		.cfi_def_cfa_offset 24
ARM GAS  C:\Users\roob\AppData\Local\Temp\ccsFXI6k.s 			page 3


 113              		.cfi_offset 3, -24
 114              		.cfi_offset 4, -20
 115              		.cfi_offset 5, -16
 116              		.cfi_offset 6, -12
 117              		.cfi_offset 7, -8
 118              		.cfi_offset 14, -4
 119              		.loc 1 136 0
 120 0002 204E     		ldr	r6, .L20
 121 0004 0028     		cmp	r0, #0
 122 0006 18BF     		it	ne
 123 0008 0646     		movne	r6, r0
 124              		.loc 1 138 0
 125 000a 0731     		adds	r1, r1, #7
 126              	.LVL7:
 127              		.loc 1 140 0
 128 000c 06F11000 		add	r0, r6, #16
 129              	.LVL8:
 130              		.loc 1 138 0
 131 0010 21F00705 		bic	r5, r1, #7
 132              	.LVL9:
 133              		.loc 1 139 0
 134 0014 06F10804 		add	r4, r6, #8
 135              	.LVL10:
 136              		.loc 1 140 0
 137 0018 FFF7FEFF 		bl	chMtxLock
 138              	.LVL11:
 139              		.loc 1 142 0
 140 001c 00E0     		b	.L5
 141              	.LVL12:
 142              	.L13:
 143              		.loc 1 144 0
 144 001e 1C46     		mov	r4, r3
 145              	.LVL13:
 146              	.L5:
 147              		.loc 1 142 0 discriminator 1
 148 0020 2368     		ldr	r3, [r4, #0]
 149              	.LVL14:
 150 0022 FBB1     		cbz	r3, .L18
 151              		.loc 1 144 0
 152 0024 5A68     		ldr	r2, [r3, #4]
 153 0026 9542     		cmp	r5, r2
 154 0028 F9D8     		bhi	.L13
 155              		.loc 1 145 0
 156 002a 05F10801 		add	r1, r5, #8
 157 002e 9142     		cmp	r1, r2
 158 0030 15D8     		bhi	.L19
 159              		.loc 1 155 0
 160 0032 4FF6F870 		movw	r0, #65528
 161 0036 CFF6FF70 		movt	r0, 65535
 162 003a 401B     		subs	r0, r0, r5
 163              		.loc 1 153 0
 164 003c 03EB010E 		add	lr, r3, r1
 165              	.LVL15:
 166              		.loc 1 155 0
 167 0040 8218     		adds	r2, r0, r2
 168              		.loc 1 154 0
 169 0042 1868     		ldr	r0, [r3, #0]
ARM GAS  C:\Users\roob\AppData\Local\Temp\ccsFXI6k.s 			page 4


 170              		.loc 1 155 0
 171 0044 CEF80420 		str	r2, [lr, #4]
 172              		.loc 1 154 0
 173 0048 5850     		str	r0, [r3, r1]
 174              		.loc 1 157 0
 175 004a 5D60     		str	r5, [r3, #4]
 176              		.loc 1 156 0
 177 004c C4F800E0 		str	lr, [r4, #0]
 178              	.LVL16:
 179              	.L7:
 180              		.loc 1 159 0
 181 0050 1C46     		mov	r4, r3
 182              	.LVL17:
 183 0052 44F8086B 		str	r6, [r4], #8
 184              		.loc 1 161 0
 185 0056 FFF7FEFF 		bl	chMtxUnlock
 186              	.LVL18:
 187              	.L8:
 188              		.loc 1 181 0
 189 005a 2046     		mov	r0, r4
 190 005c F8BD     		pop	{r3, r4, r5, r6, r7, pc}
 191              	.LVL19:
 192              	.L19:
 193              		.loc 1 149 0
 194 005e 1968     		ldr	r1, [r3, #0]
 195 0060 2160     		str	r1, [r4, #0]
 196 0062 F5E7     		b	.L7
 197              	.L18:
 198              		.loc 1 167 0
 199 0064 FFF7FEFF 		bl	chMtxUnlock
 200              	.LVL20:
 201              		.loc 1 171 0
 202 0068 3268     		ldr	r2, [r6, #0]
 203 006a 4AB1     		cbz	r2, .L11
 204              		.loc 1 172 0
 205 006c 05F10800 		add	r0, r5, #8
 206 0070 9047     		blx	r2
 207              	.LVL21:
 208              		.loc 1 173 0
 209 0072 28B1     		cbz	r0, .L11
 210              		.loc 1 177 0
 211 0074 00F10804 		add	r4, r0, #8
 212              	.LVL22:
 213              		.loc 1 174 0
 214 0078 0660     		str	r6, [r0, #0]
 215              		.loc 1 175 0
 216 007a 4560     		str	r5, [r0, #4]
 217              	.LVL23:
 218              		.loc 1 181 0
 219 007c 2046     		mov	r0, r4
 220 007e F8BD     		pop	{r3, r4, r5, r6, r7, pc}
 221              	.LVL24:
 222              	.L11:
 223              		.loc 1 180 0
 224 0080 0024     		movs	r4, #0
 225              	.LVL25:
 226 0082 EAE7     		b	.L8
ARM GAS  C:\Users\roob\AppData\Local\Temp\ccsFXI6k.s 			page 5


 227              	.L21:
 228              		.align	2
 229              	.L20:
 230 0084 00000000 		.word	.LANCHOR0
 231              		.cfi_endproc
 232              	.LFE9:
 233              		.size	chHeapAlloc, .-chHeapAlloc
 234 0088 AFF30080 		.section	.text.chHeapFree,"ax",%progbits
 234      AFF30080 
 235              		.align	2
 236              		.p2align 4,,15
 237              		.global	chHeapFree
 238              		.thumb
 239              		.thumb_func
 240              		.type	chHeapFree, %function
 241              	chHeapFree:
 242              	.LFB10:
 243              		.loc 1 194 0
 244              		.cfi_startproc
 245              		@ args = 0, pretend = 0, frame = 0
 246              		@ frame_needed = 0, uses_anonymous_args = 0
 247              	.LVL26:
 248 0000 70B5     		push	{r4, r5, r6, lr}
 249              	.LCFI1:
 250              		.cfi_def_cfa_offset 16
 251              		.cfi_offset 4, -16
 252              		.cfi_offset 5, -12
 253              		.cfi_offset 6, -8
 254              		.cfi_offset 14, -4
 255              		.loc 1 194 0
 256 0002 0646     		mov	r6, r0
 257              		.loc 1 200 0
 258 0004 A0F10804 		sub	r4, r0, #8
 259              	.LVL27:
 260              		.loc 1 201 0
 261 0008 50F8080C 		ldr	r0, [r0, #-8]
 262              	.LVL28:
 263              		.loc 1 202 0
 264 000c 00F10805 		add	r5, r0, #8
 265              	.LVL29:
 266              		.loc 1 203 0
 267 0010 1030     		adds	r0, r0, #16
 268              	.LVL30:
 269 0012 FFF7FEFF 		bl	chMtxLock
 270              	.LVL31:
 271              		.loc 1 202 0
 272 0016 2B46     		mov	r3, r5
 273              	.LVL32:
 274              	.L29:
 275              		.loc 1 210 0
 276 0018 AB42     		cmp	r3, r5
 277              		.loc 1 211 0
 278 001a 1A68     		ldr	r2, [r3, #0]
 279              		.loc 1 210 0
 280 001c 01D0     		beq	.L23
 281              		.loc 1 210 0 is_stmt 0 discriminator 2
 282 001e A342     		cmp	r3, r4
ARM GAS  C:\Users\roob\AppData\Local\Temp\ccsFXI6k.s 			page 6


 283 0020 02D2     		bcs	.L26
 284              	.L23:
 285              		.loc 1 210 0 discriminator 1
 286 0022 1AB1     		cbz	r2, .L25
 287              		.loc 1 211 0 is_stmt 1
 288 0024 9442     		cmp	r4, r2
 289 0026 01D3     		bcc	.L25
 290              	.L26:
 291              	.LVL33:
 292              		.loc 1 228 0
 293 0028 1346     		mov	r3, r2
 294              		.loc 1 229 0
 295 002a F5E7     		b	.L29
 296              	.LVL34:
 297              	.L25:
 298              		.loc 1 216 0
 299 002c 56F8041C 		ldr	r1, [r6, #-4]
 300              		.loc 1 213 0
 301 0030 46F8082C 		str	r2, [r6, #-8]
 302              		.loc 1 214 0
 303 0034 1C60     		str	r4, [r3, #0]
 304              		.loc 1 216 0
 305 0036 01F10802 		add	r2, r1, #8
 306 003a 56F8085C 		ldr	r5, [r6, #-8]
 307              	.LVL35:
 308 003e A018     		adds	r0, r4, r2
 309 0040 A842     		cmp	r0, r5
 310 0042 09D0     		beq	.L33
 311              		.loc 1 221 0
 312 0044 5A68     		ldr	r2, [r3, #4]
 313 0046 02F10800 		add	r0, r2, #8
 314 004a 1918     		adds	r1, r3, r0
 315 004c 8C42     		cmp	r4, r1
 316 004e 11D0     		beq	.L34
 317              	.L28:
 318              		.loc 1 233 0
 319 0050 BDE87040 		pop	{r4, r5, r6, lr}
 320              		.loc 1 231 0
 321 0054 FFF7FEBF 		b	chMtxUnlock
 322              	.LVL36:
 323              	.L33:
 324              		.loc 1 218 0
 325 0058 4068     		ldr	r0, [r0, #4]
 326              		.loc 1 219 0
 327 005a A258     		ldr	r2, [r4, r2]
 328              		.loc 1 218 0
 329 005c 0918     		adds	r1, r1, r0
 330 005e 0831     		adds	r1, r1, #8
 331 0060 46F8041C 		str	r1, [r6, #-4]
 332              		.loc 1 219 0
 333 0064 46F8082C 		str	r2, [r6, #-8]
 334              		.loc 1 221 0
 335 0068 5A68     		ldr	r2, [r3, #4]
 336 006a 02F10800 		add	r0, r2, #8
 337 006e 1918     		adds	r1, r3, r0
 338 0070 8C42     		cmp	r4, r1
 339 0072 EDD1     		bne	.L28
ARM GAS  C:\Users\roob\AppData\Local\Temp\ccsFXI6k.s 			page 7


 340              	.L34:
 341              		.loc 1 223 0
 342 0074 56F8040C 		ldr	r0, [r6, #-4]
 343              		.loc 1 224 0
 344 0078 56F8081C 		ldr	r1, [r6, #-8]
 345              		.loc 1 223 0
 346 007c 1218     		adds	r2, r2, r0
 347 007e 0832     		adds	r2, r2, #8
 348              		.loc 1 224 0
 349 0080 83E80600 		stmia	r3, {r1, r2}
 350 0084 E4E7     		b	.L28
 351              		.cfi_endproc
 352              	.LFE10:
 353              		.size	chHeapFree, .-chHeapFree
 354 0086 00BFAFF3 		.section	.text.chHeapStatus,"ax",%progbits
 354      0080AFF3 
 354      0080
 355              		.align	2
 356              		.p2align 4,,15
 357              		.global	chHeapStatus
 358              		.thumb
 359              		.thumb_func
 360              		.type	chHeapStatus, %function
 361              	chHeapStatus:
 362              	.LFB11:
 363              		.loc 1 250 0
 364              		.cfi_startproc
 365              		@ args = 0, pretend = 0, frame = 0
 366              		@ frame_needed = 0, uses_anonymous_args = 0
 367              	.LVL37:
 368 0000 38B5     		push	{r3, r4, r5, lr}
 369              	.LCFI2:
 370              		.cfi_def_cfa_offset 16
 371              		.cfi_offset 3, -16
 372              		.cfi_offset 4, -12
 373              		.cfi_offset 5, -8
 374              		.cfi_offset 14, -4
 375              		.loc 1 255 0
 376 0002 0E4C     		ldr	r4, .L46
 377 0004 0028     		cmp	r0, #0
 378 0006 18BF     		it	ne
 379 0008 0446     		movne	r4, r0
 380              		.loc 1 257 0
 381 000a 04F11000 		add	r0, r4, #16
 382              	.LVL38:
 383              		.loc 1 250 0
 384 000e 0D46     		mov	r5, r1
 385              		.loc 1 257 0
 386 0010 FFF7FEFF 		bl	chMtxLock
 387              	.LVL39:
 388              		.loc 1 260 0
 389 0014 A368     		ldr	r3, [r4, #8]
 390 0016 6BB1     		cbz	r3, .L41
 391 0018 0022     		movs	r2, #0
 392 001a 1446     		mov	r4, r2
 393              	.LVL40:
 394              	.L38:
ARM GAS  C:\Users\roob\AppData\Local\Temp\ccsFXI6k.s 			page 8


 395              		.loc 1 261 0 discriminator 2
 396 001c 5868     		ldr	r0, [r3, #4]
 397              		.loc 1 260 0 discriminator 2
 398 001e 1B68     		ldr	r3, [r3, #0]
 399              		.loc 1 261 0 discriminator 2
 400 0020 1218     		adds	r2, r2, r0
 401              	.LVL41:
 402              		.loc 1 260 0 discriminator 2
 403 0022 0134     		adds	r4, r4, #1
 404              	.LVL42:
 405 0024 002B     		cmp	r3, #0
 406 0026 F9D1     		bne	.L38
 407              	.LVL43:
 408              	.L37:
 409              		.loc 1 262 0
 410 0028 05B1     		cbz	r5, .L39
 411              		.loc 1 263 0
 412 002a 2A60     		str	r2, [r5, #0]
 413              	.L39:
 414              		.loc 1 265 0
 415 002c FFF7FEFF 		bl	chMtxUnlock
 416              	.LVL44:
 417              		.loc 1 267 0
 418 0030 2046     		mov	r0, r4
 419 0032 38BD     		pop	{r3, r4, r5, pc}
 420              	.LVL45:
 421              	.L41:
 422              		.loc 1 259 0
 423 0034 1A46     		mov	r2, r3
 424              		.loc 1 260 0
 425 0036 1C46     		mov	r4, r3
 426 0038 F6E7     		b	.L37
 427              	.L47:
 428 003a 00BF     		.align	2
 429              	.L46:
 430 003c 00000000 		.word	.LANCHOR0
 431              		.cfi_endproc
 432              	.LFE11:
 433              		.size	chHeapStatus, .-chHeapStatus
 434              		.section	.bss.default_heap,"aw",%nobits
 435              		.align	3
 436              		.set	.LANCHOR0,. + 0
 437              		.type	default_heap, %object
 438              		.size	default_heap, 32
 439              	default_heap:
 440 0000 00000000 		.space	32
 440      00000000 
 440      00000000 
 440      00000000 
 440      00000000 
 441              		.text
 442              	.Letext0:
 443              		.file 2 "c:\\chibistudio\\tools\\gnu tools arm embedded\\4.7 2013q1\\bin\\../lib/gcc/arm-none-eabi
 444              		.file 3 "c:\\chibistudio\\tools\\gnu tools arm embedded\\4.7 2013q1\\bin\\../lib/gcc/arm-none-eabi
 445              		.file 4 "../../os/ports/GCC/ARMCMx/chtypes.h"
 446              		.file 5 "../../os/kernel/include/chlists.h"
 447              		.file 6 "../../os/kernel/include/chthreads.h"
ARM GAS  C:\Users\roob\AppData\Local\Temp\ccsFXI6k.s 			page 9


 448              		.file 7 "../../os/ports/GCC/ARMCMx/chcore_v7m.h"
 449              		.file 8 "../../os/kernel/include/chmtx.h"
 450              		.file 9 "../../os/kernel/include/chmemcore.h"
 451              		.file 10 "../../os/kernel/include/chheap.h"
 452              		.section	.debug_info,"",%progbits
 453              	.Ldebug_info0:
 454 0000 35070000 		.4byte	0x735
 455 0004 0200     		.2byte	0x2
 456 0006 00000000 		.4byte	.Ldebug_abbrev0
 457 000a 04       		.byte	0x4
 458 000b 01       		.uleb128 0x1
 459 000c C5010000 		.4byte	.LASF79
 460 0010 01       		.byte	0x1
 461 0011 C8000000 		.4byte	.LASF80
 462 0015 67020000 		.4byte	.LASF81
 463 0019 00000000 		.4byte	.Ldebug_ranges0+0
 464 001d 00000000 		.4byte	0
 465 0021 00000000 		.4byte	0
 466 0025 00000000 		.4byte	.Ldebug_line0
 467 0029 02       		.uleb128 0x2
 468 002a 04       		.byte	0x4
 469 002b 05       		.byte	0x5
 470 002c 696E7400 		.ascii	"int\000"
 471 0030 03       		.uleb128 0x3
 472 0031 06000000 		.4byte	.LASF2
 473 0035 02       		.byte	0x2
 474 0036 D5       		.byte	0xd5
 475 0037 3B000000 		.4byte	0x3b
 476 003b 04       		.uleb128 0x4
 477 003c 04       		.byte	0x4
 478 003d 07       		.byte	0x7
 479 003e 05010000 		.4byte	.LASF0
 480 0042 04       		.uleb128 0x4
 481 0043 01       		.byte	0x1
 482 0044 06       		.byte	0x6
 483 0045 88000000 		.4byte	.LASF1
 484 0049 03       		.uleb128 0x3
 485 004a 4B030000 		.4byte	.LASF3
 486 004e 03       		.byte	0x3
 487 004f 2A       		.byte	0x2a
 488 0050 54000000 		.4byte	0x54
 489 0054 04       		.uleb128 0x4
 490 0055 01       		.byte	0x1
 491 0056 08       		.byte	0x8
 492 0057 1C020000 		.4byte	.LASF4
 493 005b 04       		.uleb128 0x4
 494 005c 02       		.byte	0x2
 495 005d 05       		.byte	0x5
 496 005e 3F020000 		.4byte	.LASF5
 497 0062 04       		.uleb128 0x4
 498 0063 02       		.byte	0x2
 499 0064 07       		.byte	0x7
 500 0065 31010000 		.4byte	.LASF6
 501 0069 03       		.uleb128 0x3
 502 006a 14020000 		.4byte	.LASF7
 503 006e 03       		.byte	0x3
 504 006f 4F       		.byte	0x4f
ARM GAS  C:\Users\roob\AppData\Local\Temp\ccsFXI6k.s 			page 10


 505 0070 74000000 		.4byte	0x74
 506 0074 04       		.uleb128 0x4
 507 0075 04       		.byte	0x4
 508 0076 05       		.byte	0x5
 509 0077 BF000000 		.4byte	.LASF8
 510 007b 03       		.uleb128 0x3
 511 007c D8020000 		.4byte	.LASF9
 512 0080 03       		.byte	0x3
 513 0081 50       		.byte	0x50
 514 0082 86000000 		.4byte	0x86
 515 0086 04       		.uleb128 0x4
 516 0087 04       		.byte	0x4
 517 0088 07       		.byte	0x7
 518 0089 12010000 		.4byte	.LASF10
 519 008d 04       		.uleb128 0x4
 520 008e 08       		.byte	0x8
 521 008f 05       		.byte	0x5
 522 0090 7A000000 		.4byte	.LASF11
 523 0094 03       		.uleb128 0x3
 524 0095 14000000 		.4byte	.LASF12
 525 0099 03       		.byte	0x3
 526 009a 78       		.byte	0x78
 527 009b 9F000000 		.4byte	0x9f
 528 009f 04       		.uleb128 0x4
 529 00a0 08       		.byte	0x8
 530 00a1 07       		.byte	0x7
 531 00a2 2A000000 		.4byte	.LASF13
 532 00a6 04       		.uleb128 0x4
 533 00a7 01       		.byte	0x1
 534 00a8 02       		.byte	0x2
 535 00a9 0E020000 		.4byte	.LASF14
 536 00ad 03       		.uleb128 0x3
 537 00ae 4A010000 		.4byte	.LASF15
 538 00b2 04       		.byte	0x4
 539 00b3 2C       		.byte	0x2c
 540 00b4 49000000 		.4byte	0x49
 541 00b8 03       		.uleb128 0x3
 542 00b9 E5000000 		.4byte	.LASF16
 543 00bd 04       		.byte	0x4
 544 00be 2D       		.byte	0x2d
 545 00bf 49000000 		.4byte	0x49
 546 00c3 03       		.uleb128 0x3
 547 00c4 AE010000 		.4byte	.LASF17
 548 00c8 04       		.byte	0x4
 549 00c9 2E       		.byte	0x2e
 550 00ca 49000000 		.4byte	0x49
 551 00ce 03       		.uleb128 0x3
 552 00cf B5000000 		.4byte	.LASF18
 553 00d3 04       		.byte	0x4
 554 00d4 2F       		.byte	0x2f
 555 00d5 49000000 		.4byte	0x49
 556 00d9 03       		.uleb128 0x3
 557 00da BD010000 		.4byte	.LASF19
 558 00de 04       		.byte	0x4
 559 00df 30       		.byte	0x30
 560 00e0 7B000000 		.4byte	0x7b
 561 00e4 03       		.uleb128 0x3
ARM GAS  C:\Users\roob\AppData\Local\Temp\ccsFXI6k.s 			page 11


 562 00e5 44010000 		.4byte	.LASF20
 563 00e9 04       		.byte	0x4
 564 00ea 31       		.byte	0x31
 565 00eb 69000000 		.4byte	0x69
 566 00ef 03       		.uleb128 0x3
 567 00f0 5E010000 		.4byte	.LASF21
 568 00f4 04       		.byte	0x4
 569 00f5 33       		.byte	0x33
 570 00f6 7B000000 		.4byte	0x7b
 571 00fa 03       		.uleb128 0x3
 572 00fb 0C030000 		.4byte	.LASF22
 573 00ff 04       		.byte	0x4
 574 0100 35       		.byte	0x35
 575 0101 7B000000 		.4byte	0x7b
 576 0105 03       		.uleb128 0x3
 577 0106 BA020000 		.4byte	.LASF23
 578 010a 05       		.byte	0x5
 579 010b 2A       		.byte	0x2a
 580 010c 10010000 		.4byte	0x110
 581 0110 05       		.uleb128 0x5
 582 0111 BA020000 		.4byte	.LASF23
 583 0115 48       		.byte	0x48
 584 0116 06       		.byte	0x6
 585 0117 5E       		.byte	0x5e
 586 0118 35020000 		.4byte	0x235
 587 011c 06       		.uleb128 0x6
 588 011d AB020000 		.4byte	.LASF24
 589 0121 06       		.byte	0x6
 590 0122 5F       		.byte	0x5f
 591 0123 5A020000 		.4byte	0x25a
 592 0127 02       		.byte	0x2
 593 0128 23       		.byte	0x23
 594 0129 00       		.uleb128 0
 595 012a 06       		.uleb128 0x6
 596 012b B6010000 		.4byte	.LASF25
 597 012f 06       		.byte	0x6
 598 0130 61       		.byte	0x61
 599 0131 5A020000 		.4byte	0x25a
 600 0135 02       		.byte	0x2
 601 0136 23       		.byte	0x23
 602 0137 04       		.uleb128 0x4
 603 0138 06       		.uleb128 0x6
 604 0139 73000000 		.4byte	.LASF26
 605 013d 06       		.byte	0x6
 606 013e 63       		.byte	0x63
 607 013f D9000000 		.4byte	0xd9
 608 0143 02       		.byte	0x2
 609 0144 23       		.byte	0x23
 610 0145 08       		.uleb128 0x8
 611 0146 06       		.uleb128 0x6
 612 0147 7A030000 		.4byte	.LASF27
 613 014b 06       		.byte	0x6
 614 014c 64       		.byte	0x64
 615 014d 33030000 		.4byte	0x333
 616 0151 02       		.byte	0x2
 617 0152 23       		.byte	0x23
 618 0153 0C       		.uleb128 0xc
ARM GAS  C:\Users\roob\AppData\Local\Temp\ccsFXI6k.s 			page 12


 619 0154 06       		.uleb128 0x6
 620 0155 EE000000 		.4byte	.LASF28
 621 0159 06       		.byte	0x6
 622 015a 66       		.byte	0x66
 623 015b 5A020000 		.4byte	0x25a
 624 015f 02       		.byte	0x2
 625 0160 23       		.byte	0x23
 626 0161 10       		.uleb128 0x10
 627 0162 06       		.uleb128 0x6
 628 0163 8E010000 		.4byte	.LASF29
 629 0167 06       		.byte	0x6
 630 0168 67       		.byte	0x67
 631 0169 5A020000 		.4byte	0x25a
 632 016d 02       		.byte	0x2
 633 016e 23       		.byte	0x23
 634 016f 14       		.uleb128 0x14
 635 0170 06       		.uleb128 0x6
 636 0171 60030000 		.4byte	.LASF30
 637 0175 06       		.byte	0x6
 638 0176 6E       		.byte	0x6e
 639 0177 B1040000 		.4byte	0x4b1
 640 017b 02       		.byte	0x2
 641 017c 23       		.byte	0x23
 642 017d 18       		.uleb128 0x18
 643 017e 06       		.uleb128 0x6
 644 017f 49020000 		.4byte	.LASF31
 645 0183 06       		.byte	0x6
 646 0184 79       		.byte	0x79
 647 0185 B8000000 		.4byte	0xb8
 648 0189 02       		.byte	0x2
 649 018a 23       		.byte	0x23
 650 018b 1C       		.uleb128 0x1c
 651 018c 06       		.uleb128 0x6
 652 018d B2020000 		.4byte	.LASF32
 653 0191 06       		.byte	0x6
 654 0192 7D       		.byte	0x7d
 655 0193 AD000000 		.4byte	0xad
 656 0197 02       		.byte	0x2
 657 0198 23       		.byte	0x23
 658 0199 1D       		.uleb128 0x1d
 659 019a 06       		.uleb128 0x6
 660 019b 44030000 		.4byte	.LASF33
 661 019f 06       		.byte	0x6
 662 01a0 82       		.byte	0x82
 663 01a1 C3000000 		.4byte	0xc3
 664 01a5 02       		.byte	0x2
 665 01a6 23       		.byte	0x23
 666 01a7 1E       		.uleb128 0x1e
 667 01a8 06       		.uleb128 0x6
 668 01a9 51020000 		.4byte	.LASF34
 669 01ad 06       		.byte	0x6
 670 01ae 88       		.byte	0x88
 671 01af CE000000 		.4byte	0xce
 672 01b3 02       		.byte	0x2
 673 01b4 23       		.byte	0x23
 674 01b5 1F       		.uleb128 0x1f
 675 01b6 06       		.uleb128 0x6
ARM GAS  C:\Users\roob\AppData\Local\Temp\ccsFXI6k.s 			page 13


 676 01b7 21030000 		.4byte	.LASF35
 677 01bb 06       		.byte	0x6
 678 01bc 8F       		.byte	0x8f
 679 01bd 5D030000 		.4byte	0x35d
 680 01c1 02       		.byte	0x2
 681 01c2 23       		.byte	0x23
 682 01c3 20       		.uleb128 0x20
 683 01c4 07       		.uleb128 0x7
 684 01c5 705F7500 		.ascii	"p_u\000"
 685 01c9 06       		.byte	0x6
 686 01ca B4       		.byte	0xb4
 687 01cb 7C040000 		.4byte	0x47c
 688 01cf 02       		.byte	0x2
 689 01d0 23       		.byte	0x23
 690 01d1 24       		.uleb128 0x24
 691 01d2 06       		.uleb128 0x6
 692 01d3 80030000 		.4byte	.LASF36
 693 01d7 06       		.byte	0x6
 694 01d8 B9       		.byte	0xb9
 695 01d9 82020000 		.4byte	0x282
 696 01dd 02       		.byte	0x2
 697 01de 23       		.byte	0x23
 698 01df 28       		.uleb128 0x28
 699 01e0 06       		.uleb128 0x6
 700 01e1 2F030000 		.4byte	.LASF37
 701 01e5 06       		.byte	0x6
 702 01e6 BF       		.byte	0xbf
 703 01e7 60020000 		.4byte	0x260
 704 01eb 02       		.byte	0x2
 705 01ec 23       		.byte	0x23
 706 01ed 2C       		.uleb128 0x2c
 707 01ee 06       		.uleb128 0x6
 708 01ef 00000000 		.4byte	.LASF38
 709 01f3 06       		.byte	0x6
 710 01f4 C3       		.byte	0xc3
 711 01f5 E4000000 		.4byte	0xe4
 712 01f9 02       		.byte	0x2
 713 01fa 23       		.byte	0x23
 714 01fb 34       		.uleb128 0x34
 715 01fc 06       		.uleb128 0x6
 716 01fd CD020000 		.4byte	.LASF39
 717 0201 06       		.byte	0x6
 718 0202 C9       		.byte	0xc9
 719 0203 EF000000 		.4byte	0xef
 720 0207 02       		.byte	0x2
 721 0208 23       		.byte	0x23
 722 0209 38       		.uleb128 0x38
 723 020a 06       		.uleb128 0x6
 724 020b 35020000 		.4byte	.LASF40
 725 020f 06       		.byte	0x6
 726 0210 D0       		.byte	0xd0
 727 0211 C3040000 		.4byte	0x4c3
 728 0215 02       		.byte	0x2
 729 0216 23       		.byte	0x23
 730 0217 3C       		.uleb128 0x3c
 731 0218 06       		.uleb128 0x6
 732 0219 16030000 		.4byte	.LASF41
ARM GAS  C:\Users\roob\AppData\Local\Temp\ccsFXI6k.s 			page 14


 733 021d 06       		.byte	0x6
 734 021e D4       		.byte	0xd4
 735 021f D9000000 		.4byte	0xd9
 736 0223 02       		.byte	0x2
 737 0224 23       		.byte	0x23
 738 0225 40       		.uleb128 0x40
 739 0226 06       		.uleb128 0x6
 740 0227 9A000000 		.4byte	.LASF42
 741 022b 06       		.byte	0x6
 742 022c DA       		.byte	0xda
 743 022d 98020000 		.4byte	0x298
 744 0231 02       		.byte	0x2
 745 0232 23       		.byte	0x23
 746 0233 44       		.uleb128 0x44
 747 0234 00       		.byte	0
 748 0235 08       		.uleb128 0x8
 749 0236 08       		.byte	0x8
 750 0237 05       		.byte	0x5
 751 0238 61       		.byte	0x61
 752 0239 5A020000 		.4byte	0x25a
 753 023d 06       		.uleb128 0x6
 754 023e AB020000 		.4byte	.LASF24
 755 0242 05       		.byte	0x5
 756 0243 62       		.byte	0x62
 757 0244 5A020000 		.4byte	0x25a
 758 0248 02       		.byte	0x2
 759 0249 23       		.byte	0x23
 760 024a 00       		.uleb128 0
 761 024b 06       		.uleb128 0x6
 762 024c B6010000 		.4byte	.LASF25
 763 0250 05       		.byte	0x5
 764 0251 64       		.byte	0x64
 765 0252 5A020000 		.4byte	0x25a
 766 0256 02       		.byte	0x2
 767 0257 23       		.byte	0x23
 768 0258 04       		.uleb128 0x4
 769 0259 00       		.byte	0
 770 025a 09       		.uleb128 0x9
 771 025b 04       		.byte	0x4
 772 025c 05010000 		.4byte	0x105
 773 0260 03       		.uleb128 0x3
 774 0261 96010000 		.4byte	.LASF43
 775 0265 05       		.byte	0x5
 776 0266 66       		.byte	0x66
 777 0267 35020000 		.4byte	0x235
 778 026b 08       		.uleb128 0x8
 779 026c 04       		.byte	0x4
 780 026d 05       		.byte	0x5
 781 026e 6B       		.byte	0x6b
 782 026f 82020000 		.4byte	0x282
 783 0273 06       		.uleb128 0x6
 784 0274 AB020000 		.4byte	.LASF24
 785 0278 05       		.byte	0x5
 786 0279 6D       		.byte	0x6d
 787 027a 5A020000 		.4byte	0x25a
 788 027e 02       		.byte	0x2
 789 027f 23       		.byte	0x23
ARM GAS  C:\Users\roob\AppData\Local\Temp\ccsFXI6k.s 			page 15


 790 0280 00       		.uleb128 0
 791 0281 00       		.byte	0
 792 0282 03       		.uleb128 0x3
 793 0283 52010000 		.4byte	.LASF44
 794 0287 05       		.byte	0x5
 795 0288 70       		.byte	0x70
 796 0289 6B020000 		.4byte	0x26b
 797 028d 03       		.uleb128 0x3
 798 028e F6000000 		.4byte	.LASF45
 799 0292 07       		.byte	0x7
 800 0293 E5       		.byte	0xe5
 801 0294 98020000 		.4byte	0x298
 802 0298 0A       		.uleb128 0xa
 803 0299 04       		.byte	0x4
 804 029a 03       		.uleb128 0x3
 805 029b 70010000 		.4byte	.LASF46
 806 029f 07       		.byte	0x7
 807 02a0 EB       		.byte	0xeb
 808 02a1 94000000 		.4byte	0x94
 809 02a5 0B       		.uleb128 0xb
 810 02a6 28030000 		.4byte	.LASF47
 811 02aa 24       		.byte	0x24
 812 02ab 07       		.byte	0x7
 813 02ac 0C01     		.2byte	0x10c
 814 02ae 33030000 		.4byte	0x333
 815 02b2 0C       		.uleb128 0xc
 816 02b3 723400   		.ascii	"r4\000"
 817 02b6 07       		.byte	0x7
 818 02b7 1F01     		.2byte	0x11f
 819 02b9 8D020000 		.4byte	0x28d
 820 02bd 02       		.byte	0x2
 821 02be 23       		.byte	0x23
 822 02bf 00       		.uleb128 0
 823 02c0 0C       		.uleb128 0xc
 824 02c1 723500   		.ascii	"r5\000"
 825 02c4 07       		.byte	0x7
 826 02c5 2001     		.2byte	0x120
 827 02c7 8D020000 		.4byte	0x28d
 828 02cb 02       		.byte	0x2
 829 02cc 23       		.byte	0x23
 830 02cd 04       		.uleb128 0x4
 831 02ce 0C       		.uleb128 0xc
 832 02cf 723600   		.ascii	"r6\000"
 833 02d2 07       		.byte	0x7
 834 02d3 2101     		.2byte	0x121
 835 02d5 8D020000 		.4byte	0x28d
 836 02d9 02       		.byte	0x2
 837 02da 23       		.byte	0x23
 838 02db 08       		.uleb128 0x8
 839 02dc 0C       		.uleb128 0xc
 840 02dd 723700   		.ascii	"r7\000"
 841 02e0 07       		.byte	0x7
 842 02e1 2201     		.2byte	0x122
 843 02e3 8D020000 		.4byte	0x28d
 844 02e7 02       		.byte	0x2
 845 02e8 23       		.byte	0x23
 846 02e9 0C       		.uleb128 0xc
ARM GAS  C:\Users\roob\AppData\Local\Temp\ccsFXI6k.s 			page 16


 847 02ea 0C       		.uleb128 0xc
 848 02eb 723800   		.ascii	"r8\000"
 849 02ee 07       		.byte	0x7
 850 02ef 2301     		.2byte	0x123
 851 02f1 8D020000 		.4byte	0x28d
 852 02f5 02       		.byte	0x2
 853 02f6 23       		.byte	0x23
 854 02f7 10       		.uleb128 0x10
 855 02f8 0C       		.uleb128 0xc
 856 02f9 723900   		.ascii	"r9\000"
 857 02fc 07       		.byte	0x7
 858 02fd 2401     		.2byte	0x124
 859 02ff 8D020000 		.4byte	0x28d
 860 0303 02       		.byte	0x2
 861 0304 23       		.byte	0x23
 862 0305 14       		.uleb128 0x14
 863 0306 0C       		.uleb128 0xc
 864 0307 72313000 		.ascii	"r10\000"
 865 030b 07       		.byte	0x7
 866 030c 2501     		.2byte	0x125
 867 030e 8D020000 		.4byte	0x28d
 868 0312 02       		.byte	0x2
 869 0313 23       		.byte	0x23
 870 0314 18       		.uleb128 0x18
 871 0315 0C       		.uleb128 0xc
 872 0316 72313100 		.ascii	"r11\000"
 873 031a 07       		.byte	0x7
 874 031b 2601     		.2byte	0x126
 875 031d 8D020000 		.4byte	0x28d
 876 0321 02       		.byte	0x2
 877 0322 23       		.byte	0x23
 878 0323 1C       		.uleb128 0x1c
 879 0324 0C       		.uleb128 0xc
 880 0325 6C7200   		.ascii	"lr\000"
 881 0328 07       		.byte	0x7
 882 0329 2701     		.2byte	0x127
 883 032b 8D020000 		.4byte	0x28d
 884 032f 02       		.byte	0x2
 885 0330 23       		.byte	0x23
 886 0331 20       		.uleb128 0x20
 887 0332 00       		.byte	0
 888 0333 0B       		.uleb128 0xb
 889 0334 24010000 		.4byte	.LASF48
 890 0338 04       		.byte	0x4
 891 0339 07       		.byte	0x7
 892 033a 3101     		.2byte	0x131
 893 033c 50030000 		.4byte	0x350
 894 0340 0C       		.uleb128 0xc
 895 0341 72313300 		.ascii	"r13\000"
 896 0345 07       		.byte	0x7
 897 0346 3201     		.2byte	0x132
 898 0348 50030000 		.4byte	0x350
 899 034c 02       		.byte	0x2
 900 034d 23       		.byte	0x23
 901 034e 00       		.uleb128 0
 902 034f 00       		.byte	0
 903 0350 09       		.uleb128 0x9
ARM GAS  C:\Users\roob\AppData\Local\Temp\ccsFXI6k.s 			page 17


 904 0351 04       		.byte	0x4
 905 0352 A5020000 		.4byte	0x2a5
 906 0356 04       		.uleb128 0x4
 907 0357 04       		.byte	0x4
 908 0358 07       		.byte	0x7
 909 0359 7B010000 		.4byte	.LASF49
 910 035d 0D       		.uleb128 0xd
 911 035e FA000000 		.4byte	0xfa
 912 0362 05       		.uleb128 0x5
 913 0363 6A010000 		.4byte	.LASF50
 914 0367 10       		.byte	0x10
 915 0368 08       		.byte	0x8
 916 0369 2C       		.byte	0x2c
 917 036a 99030000 		.4byte	0x399
 918 036e 06       		.uleb128 0x6
 919 036f A2000000 		.4byte	.LASF51
 920 0373 08       		.byte	0x8
 921 0374 2D       		.byte	0x2d
 922 0375 60020000 		.4byte	0x260
 923 0379 02       		.byte	0x2
 924 037a 23       		.byte	0x23
 925 037b 00       		.uleb128 0
 926 037c 06       		.uleb128 0x6
 927 037d 72030000 		.4byte	.LASF52
 928 0381 08       		.byte	0x8
 929 0382 2F       		.byte	0x2f
 930 0383 5A020000 		.4byte	0x25a
 931 0387 02       		.byte	0x2
 932 0388 23       		.byte	0x23
 933 0389 08       		.uleb128 0x8
 934 038a 06       		.uleb128 0x6
 935 038b 05030000 		.4byte	.LASF53
 936 038f 08       		.byte	0x8
 937 0390 31       		.byte	0x31
 938 0391 99030000 		.4byte	0x399
 939 0395 02       		.byte	0x2
 940 0396 23       		.byte	0x23
 941 0397 0C       		.uleb128 0xc
 942 0398 00       		.byte	0
 943 0399 09       		.uleb128 0x9
 944 039a 04       		.byte	0x4
 945 039b 62030000 		.4byte	0x362
 946 039f 03       		.uleb128 0x3
 947 03a0 6A010000 		.4byte	.LASF50
 948 03a4 08       		.byte	0x8
 949 03a5 33       		.byte	0x33
 950 03a6 62030000 		.4byte	0x362
 951 03aa 03       		.uleb128 0x3
 952 03ab 1D000000 		.4byte	.LASF54
 953 03af 09       		.byte	0x9
 954 03b0 2C       		.byte	0x2c
 955 03b1 B5030000 		.4byte	0x3b5
 956 03b5 09       		.uleb128 0x9
 957 03b6 04       		.byte	0x4
 958 03b7 BB030000 		.4byte	0x3bb
 959 03bb 0E       		.uleb128 0xe
 960 03bc 01       		.byte	0x1
ARM GAS  C:\Users\roob\AppData\Local\Temp\ccsFXI6k.s 			page 18


 961 03bd 98020000 		.4byte	0x298
 962 03c1 CB030000 		.4byte	0x3cb
 963 03c5 0F       		.uleb128 0xf
 964 03c6 30000000 		.4byte	0x30
 965 03ca 00       		.byte	0
 966 03cb 03       		.uleb128 0x3
 967 03cc A3010000 		.4byte	.LASF55
 968 03d0 0A       		.byte	0xa
 969 03d1 34       		.byte	0x34
 970 03d2 D6030000 		.4byte	0x3d6
 971 03d6 05       		.uleb128 0x5
 972 03d7 8A030000 		.4byte	.LASF56
 973 03db 20       		.byte	0x20
 974 03dc 0A       		.byte	0xa
 975 03dd 47       		.byte	0x47
 976 03de 0D040000 		.4byte	0x40d
 977 03e2 06       		.uleb128 0x6
 978 03e3 2A020000 		.4byte	.LASF57
 979 03e7 0A       		.byte	0xa
 980 03e8 48       		.byte	0x48
 981 03e9 AA030000 		.4byte	0x3aa
 982 03ed 02       		.byte	0x2
 983 03ee 23       		.byte	0x23
 984 03ef 00       		.uleb128 0
 985 03f0 06       		.uleb128 0x6
 986 03f1 4A000000 		.4byte	.LASF58
 987 03f5 0A       		.byte	0xa
 988 03f6 4A       		.byte	0x4a
 989 03f7 2C040000 		.4byte	0x42c
 990 03fb 02       		.byte	0x2
 991 03fc 23       		.byte	0x23
 992 03fd 08       		.uleb128 0x8
 993 03fe 06       		.uleb128 0x6
 994 03ff 94000000 		.4byte	.LASF59
 995 0403 0A       		.byte	0xa
 996 0404 4C       		.byte	0x4c
 997 0405 9F030000 		.4byte	0x39f
 998 0409 02       		.byte	0x2
 999 040a 23       		.byte	0x23
 1000 040b 10       		.uleb128 0x10
 1001 040c 00       		.byte	0
 1002 040d 10       		.uleb128 0x10
 1003 040e 04       		.byte	0x4
 1004 040f 0A       		.byte	0xa
 1005 0410 3C       		.byte	0x3c
 1006 0411 2C040000 		.4byte	0x42c
 1007 0415 11       		.uleb128 0x11
 1008 0416 6E000000 		.4byte	.LASF60
 1009 041a 0A       		.byte	0xa
 1010 041b 3D       		.byte	0x3d
 1011 041c 4D040000 		.4byte	0x44d
 1012 0420 11       		.uleb128 0x11
 1013 0421 E1020000 		.4byte	.LASF61
 1014 0425 0A       		.byte	0xa
 1015 0426 3E       		.byte	0x3e
 1016 0427 53040000 		.4byte	0x453
 1017 042b 00       		.byte	0
ARM GAS  C:\Users\roob\AppData\Local\Temp\ccsFXI6k.s 			page 19


 1018 042c 12       		.uleb128 0x12
 1019 042d 5B020000 		.4byte	.LASF82
 1020 0431 08       		.byte	0x8
 1021 0432 0A       		.byte	0xa
 1022 0433 39       		.byte	0x39
 1023 0434 4D040000 		.4byte	0x44d
 1024 0438 11       		.uleb128 0x11
 1025 0439 FF000000 		.4byte	.LASF62
 1026 043d 0A       		.byte	0xa
 1027 043e 3A       		.byte	0x3a
 1028 043f 9A020000 		.4byte	0x29a
 1029 0443 13       		.uleb128 0x13
 1030 0444 6800     		.ascii	"h\000"
 1031 0446 0A       		.byte	0xa
 1032 0447 41       		.byte	0x41
 1033 0448 59040000 		.4byte	0x459
 1034 044c 00       		.byte	0
 1035 044d 09       		.uleb128 0x9
 1036 044e 04       		.byte	0x4
 1037 044f 2C040000 		.4byte	0x42c
 1038 0453 09       		.uleb128 0x9
 1039 0454 04       		.byte	0x4
 1040 0455 CB030000 		.4byte	0x3cb
 1041 0459 08       		.uleb128 0x8
 1042 045a 08       		.byte	0x8
 1043 045b 0A       		.byte	0xa
 1044 045c 3B       		.byte	0x3b
 1045 045d 7C040000 		.4byte	0x47c
 1046 0461 07       		.uleb128 0x7
 1047 0462 7500     		.ascii	"u\000"
 1048 0464 0A       		.byte	0xa
 1049 0465 3F       		.byte	0x3f
 1050 0466 0D040000 		.4byte	0x40d
 1051 046a 02       		.byte	0x2
 1052 046b 23       		.byte	0x23
 1053 046c 00       		.uleb128 0
 1054 046d 06       		.uleb128 0x6
 1055 046e 2C010000 		.4byte	.LASF63
 1056 0472 0A       		.byte	0xa
 1057 0473 40       		.byte	0x40
 1058 0474 30000000 		.4byte	0x30
 1059 0478 02       		.byte	0x2
 1060 0479 23       		.byte	0x23
 1061 047a 04       		.uleb128 0x4
 1062 047b 00       		.byte	0
 1063 047c 10       		.uleb128 0x10
 1064 047d 04       		.byte	0x4
 1065 047e 06       		.byte	0x6
 1066 047f 96       		.byte	0x96
 1067 0480 B1040000 		.4byte	0x4b1
 1068 0484 11       		.uleb128 0x11
 1069 0485 0D000000 		.4byte	.LASF64
 1070 0489 06       		.byte	0x6
 1071 048a 9D       		.byte	0x9d
 1072 048b E4000000 		.4byte	0xe4
 1073 048f 11       		.uleb128 0x11
 1074 0490 41000000 		.4byte	.LASF65
ARM GAS  C:\Users\roob\AppData\Local\Temp\ccsFXI6k.s 			page 20


 1075 0494 06       		.byte	0x6
 1076 0495 A4       		.byte	0xa4
 1077 0496 E4000000 		.4byte	0xe4
 1078 049a 11       		.uleb128 0x11
 1079 049b 53030000 		.4byte	.LASF66
 1080 049f 06       		.byte	0x6
 1081 04a0 AB       		.byte	0xab
 1082 04a1 98020000 		.4byte	0x298
 1083 04a5 11       		.uleb128 0x11
 1084 04a6 A4020000 		.4byte	.LASF67
 1085 04aa 06       		.byte	0x6
 1086 04ab B2       		.byte	0xb2
 1087 04ac EF000000 		.4byte	0xef
 1088 04b0 00       		.byte	0
 1089 04b1 09       		.uleb128 0x9
 1090 04b2 04       		.byte	0x4
 1091 04b3 B7040000 		.4byte	0x4b7
 1092 04b7 14       		.uleb128 0x14
 1093 04b8 BC040000 		.4byte	0x4bc
 1094 04bc 04       		.uleb128 0x4
 1095 04bd 01       		.byte	0x1
 1096 04be 08       		.byte	0x8
 1097 04bf F3020000 		.4byte	.LASF68
 1098 04c3 09       		.uleb128 0x9
 1099 04c4 04       		.byte	0x4
 1100 04c5 9F030000 		.4byte	0x39f
 1101 04c9 15       		.uleb128 0x15
 1102 04ca 01       		.byte	0x1
 1103 04cb 67030000 		.4byte	.LASF69
 1104 04cf 01       		.byte	0x1
 1105 04d0 4B       		.byte	0x4b
 1106 04d1 01       		.byte	0x1
 1107 04d2 00000000 		.4byte	.LFB7
 1108 04d6 20000000 		.4byte	.LFE7
 1109 04da 02       		.byte	0x2
 1110 04db 7D       		.byte	0x7d
 1111 04dc 00       		.sleb128 0
 1112 04dd 01       		.byte	0x1
 1113 04de F7040000 		.4byte	0x4f7
 1114 04e2 16       		.uleb128 0x16
 1115 04e3 20000000 		.4byte	.LVL0
 1116 04e7 01       		.byte	0x1
 1117 04e8 02070000 		.4byte	0x702
 1118 04ec 17       		.uleb128 0x17
 1119 04ed 01       		.byte	0x1
 1120 04ee 50       		.byte	0x50
 1121 04ef 05       		.byte	0x5
 1122 04f0 03       		.byte	0x3
 1123 04f1 10000000 		.4byte	.LANCHOR0+16
 1124 04f5 00       		.byte	0
 1125 04f6 00       		.byte	0
 1126 04f7 15       		.uleb128 0x15
 1127 04f8 01       		.byte	0x1
 1128 04f9 63000000 		.4byte	.LASF70
 1129 04fd 01       		.byte	0x1
 1130 04fe 63       		.byte	0x63
 1131 04ff 01       		.byte	0x1
ARM GAS  C:\Users\roob\AppData\Local\Temp\ccsFXI6k.s 			page 21


 1132 0500 00000000 		.4byte	.LFB8
 1133 0504 14000000 		.4byte	.LFE8
 1134 0508 02       		.byte	0x2
 1135 0509 7D       		.byte	0x7d
 1136 050a 00       		.sleb128 0
 1137 050b 01       		.byte	0x1
 1138 050c 60050000 		.4byte	0x560
 1139 0510 18       		.uleb128 0x18
 1140 0511 51000000 		.4byte	.LASF71
 1141 0515 01       		.byte	0x1
 1142 0516 63       		.byte	0x63
 1143 0517 53040000 		.4byte	0x453
 1144 051b 00000000 		.4byte	.LLST0
 1145 051f 19       		.uleb128 0x19
 1146 0520 62756600 		.ascii	"buf\000"
 1147 0524 01       		.byte	0x1
 1148 0525 63       		.byte	0x63
 1149 0526 98020000 		.4byte	0x298
 1150 052a 2E000000 		.4byte	.LLST1
 1151 052e 18       		.uleb128 0x18
 1152 052f 2C010000 		.4byte	.LASF63
 1153 0533 01       		.byte	0x1
 1154 0534 63       		.byte	0x63
 1155 0535 30000000 		.4byte	0x30
 1156 0539 4F000000 		.4byte	.LLST2
 1157 053d 1A       		.uleb128 0x1a
 1158 053e 687000   		.ascii	"hp\000"
 1159 0541 01       		.byte	0x1
 1160 0542 64       		.byte	0x64
 1161 0543 4D040000 		.4byte	0x44d
 1162 0547 7D000000 		.4byte	.LLST3
 1163 054b 16       		.uleb128 0x16
 1164 054c 14000000 		.4byte	.LVL5
 1165 0550 01       		.byte	0x1
 1166 0551 02070000 		.4byte	0x702
 1167 0555 17       		.uleb128 0x17
 1168 0556 01       		.byte	0x1
 1169 0557 50       		.byte	0x50
 1170 0558 05       		.byte	0x5
 1171 0559 F3       		.byte	0xf3
 1172 055a 01       		.uleb128 0x1
 1173 055b 50       		.byte	0x50
 1174 055c 23       		.byte	0x23
 1175 055d 10       		.uleb128 0x10
 1176 055e 00       		.byte	0
 1177 055f 00       		.byte	0
 1178 0560 1B       		.uleb128 0x1b
 1179 0561 01       		.byte	0x1
 1180 0562 C1020000 		.4byte	.LASF73
 1181 0566 01       		.byte	0x1
 1182 0567 84       		.byte	0x84
 1183 0568 01       		.byte	0x1
 1184 0569 98020000 		.4byte	0x298
 1185 056d 00000000 		.4byte	.LFB9
 1186 0571 88000000 		.4byte	.LFE9
 1187 0575 9E000000 		.4byte	.LLST4
 1188 0579 01       		.byte	0x1
ARM GAS  C:\Users\roob\AppData\Local\Temp\ccsFXI6k.s 			page 22


 1189 057a F9050000 		.4byte	0x5f9
 1190 057e 18       		.uleb128 0x18
 1191 057f 51000000 		.4byte	.LASF71
 1192 0583 01       		.byte	0x1
 1193 0584 84       		.byte	0x84
 1194 0585 53040000 		.4byte	0x453
 1195 0589 BE000000 		.4byte	.LLST5
 1196 058d 18       		.uleb128 0x18
 1197 058e 2C010000 		.4byte	.LASF63
 1198 0592 01       		.byte	0x1
 1199 0593 84       		.byte	0x84
 1200 0594 30000000 		.4byte	0x30
 1201 0598 DF000000 		.4byte	.LLST6
 1202 059c 1A       		.uleb128 0x1a
 1203 059d 717000   		.ascii	"qp\000"
 1204 05a0 01       		.byte	0x1
 1205 05a1 85       		.byte	0x85
 1206 05a2 4D040000 		.4byte	0x44d
 1207 05a6 0A010000 		.4byte	.LLST7
 1208 05aa 1A       		.uleb128 0x1a
 1209 05ab 687000   		.ascii	"hp\000"
 1210 05ae 01       		.byte	0x1
 1211 05af 85       		.byte	0x85
 1212 05b0 4D040000 		.4byte	0x44d
 1213 05b4 33010000 		.4byte	.LLST8
 1214 05b8 1A       		.uleb128 0x1a
 1215 05b9 667000   		.ascii	"fp\000"
 1216 05bc 01       		.byte	0x1
 1217 05bd 85       		.byte	0x85
 1218 05be 4D040000 		.4byte	0x44d
 1219 05c2 7F010000 		.4byte	.LLST9
 1220 05c6 1C       		.uleb128 0x1c
 1221 05c7 1C000000 		.4byte	.LVL11
 1222 05cb 16070000 		.4byte	0x716
 1223 05cf DA050000 		.4byte	0x5da
 1224 05d3 17       		.uleb128 0x17
 1225 05d4 01       		.byte	0x1
 1226 05d5 50       		.byte	0x50
 1227 05d6 02       		.byte	0x2
 1228 05d7 76       		.byte	0x76
 1229 05d8 10       		.sleb128 16
 1230 05d9 00       		.byte	0
 1231 05da 1D       		.uleb128 0x1d
 1232 05db 5A000000 		.4byte	.LVL18
 1233 05df 2A070000 		.4byte	0x72a
 1234 05e3 1D       		.uleb128 0x1d
 1235 05e4 68000000 		.4byte	.LVL20
 1236 05e8 2A070000 		.4byte	0x72a
 1237 05ec 1E       		.uleb128 0x1e
 1238 05ed 72000000 		.4byte	.LVL21
 1239 05f1 17       		.uleb128 0x17
 1240 05f2 01       		.byte	0x1
 1241 05f3 50       		.byte	0x50
 1242 05f4 02       		.byte	0x2
 1243 05f5 75       		.byte	0x75
 1244 05f6 08       		.sleb128 8
 1245 05f7 00       		.byte	0
ARM GAS  C:\Users\roob\AppData\Local\Temp\ccsFXI6k.s 			page 23


 1246 05f8 00       		.byte	0
 1247 05f9 1F       		.uleb128 0x1f
 1248 05fa 01       		.byte	0x1
 1249 05fb AA000000 		.4byte	.LASF72
 1250 05ff 01       		.byte	0x1
 1251 0600 C2       		.byte	0xc2
 1252 0601 01       		.byte	0x1
 1253 0602 00000000 		.4byte	.LFB10
 1254 0606 86000000 		.4byte	.LFE10
 1255 060a 92010000 		.4byte	.LLST10
 1256 060e 01       		.byte	0x1
 1257 060f 68060000 		.4byte	0x668
 1258 0613 19       		.uleb128 0x19
 1259 0614 7000     		.ascii	"p\000"
 1260 0616 01       		.byte	0x1
 1261 0617 C2       		.byte	0xc2
 1262 0618 98020000 		.4byte	0x298
 1263 061c B2010000 		.4byte	.LLST11
 1264 0620 1A       		.uleb128 0x1a
 1265 0621 717000   		.ascii	"qp\000"
 1266 0624 01       		.byte	0x1
 1267 0625 C3       		.byte	0xc3
 1268 0626 4D040000 		.4byte	0x44d
 1269 062a D0010000 		.4byte	.LLST12
 1270 062e 20       		.uleb128 0x20
 1271 062f 687000   		.ascii	"hp\000"
 1272 0632 01       		.byte	0x1
 1273 0633 C3       		.byte	0xc3
 1274 0634 4D040000 		.4byte	0x44d
 1275 0638 01       		.byte	0x1
 1276 0639 54       		.byte	0x54
 1277 063a 21       		.uleb128 0x21
 1278 063b 51000000 		.4byte	.LASF71
 1279 063f 01       		.byte	0x1
 1280 0640 C4       		.byte	0xc4
 1281 0641 53040000 		.4byte	0x453
 1282 0645 0F020000 		.4byte	.LLST13
 1283 0649 1C       		.uleb128 0x1c
 1284 064a 16000000 		.4byte	.LVL31
 1285 064e 16070000 		.4byte	0x716
 1286 0652 5D060000 		.4byte	0x65d
 1287 0656 17       		.uleb128 0x17
 1288 0657 01       		.byte	0x1
 1289 0658 50       		.byte	0x50
 1290 0659 02       		.byte	0x2
 1291 065a 75       		.byte	0x75
 1292 065b 08       		.sleb128 8
 1293 065c 00       		.byte	0
 1294 065d 22       		.uleb128 0x22
 1295 065e 58000000 		.4byte	.LVL36
 1296 0662 01       		.byte	0x1
 1297 0663 2A070000 		.4byte	0x72a
 1298 0667 00       		.byte	0
 1299 0668 1B       		.uleb128 0x1b
 1300 0669 01       		.byte	0x1
 1301 066a F8020000 		.4byte	.LASF74
 1302 066e 01       		.byte	0x1
ARM GAS  C:\Users\roob\AppData\Local\Temp\ccsFXI6k.s 			page 24


 1303 066f FA       		.byte	0xfa
 1304 0670 01       		.byte	0x1
 1305 0671 30000000 		.4byte	0x30
 1306 0675 00000000 		.4byte	.LFB11
 1307 0679 40000000 		.4byte	.LFE11
 1308 067d 3B020000 		.4byte	.LLST14
 1309 0681 01       		.byte	0x1
 1310 0682 EB060000 		.4byte	0x6eb
 1311 0686 18       		.uleb128 0x18
 1312 0687 51000000 		.4byte	.LASF71
 1313 068b 01       		.byte	0x1
 1314 068c FA       		.byte	0xfa
 1315 068d 53040000 		.4byte	0x453
 1316 0691 5B020000 		.4byte	.LLST15
 1317 0695 18       		.uleb128 0x18
 1318 0696 5A030000 		.4byte	.LASF75
 1319 069a 01       		.byte	0x1
 1320 069b FA       		.byte	0xfa
 1321 069c EB060000 		.4byte	0x6eb
 1322 06a0 7C020000 		.4byte	.LLST16
 1323 06a4 1A       		.uleb128 0x1a
 1324 06a5 717000   		.ascii	"qp\000"
 1325 06a8 01       		.byte	0x1
 1326 06a9 FB       		.byte	0xfb
 1327 06aa 4D040000 		.4byte	0x44d
 1328 06ae 9A020000 		.4byte	.LLST17
 1329 06b2 1A       		.uleb128 0x1a
 1330 06b3 6E00     		.ascii	"n\000"
 1331 06b5 01       		.byte	0x1
 1332 06b6 FC       		.byte	0xfc
 1333 06b7 30000000 		.4byte	0x30
 1334 06bb C2020000 		.4byte	.LLST18
 1335 06bf 1A       		.uleb128 0x1a
 1336 06c0 737A00   		.ascii	"sz\000"
 1337 06c3 01       		.byte	0x1
 1338 06c4 FC       		.byte	0xfc
 1339 06c5 30000000 		.4byte	0x30
 1340 06c9 ED020000 		.4byte	.LLST19
 1341 06cd 1C       		.uleb128 0x1c
 1342 06ce 14000000 		.4byte	.LVL39
 1343 06d2 16070000 		.4byte	0x716
 1344 06d6 E1060000 		.4byte	0x6e1
 1345 06da 17       		.uleb128 0x17
 1346 06db 01       		.byte	0x1
 1347 06dc 50       		.byte	0x50
 1348 06dd 02       		.byte	0x2
 1349 06de 74       		.byte	0x74
 1350 06df 10       		.sleb128 16
 1351 06e0 00       		.byte	0
 1352 06e1 1D       		.uleb128 0x1d
 1353 06e2 30000000 		.4byte	.LVL44
 1354 06e6 2A070000 		.4byte	0x72a
 1355 06ea 00       		.byte	0
 1356 06eb 09       		.uleb128 0x9
 1357 06ec 04       		.byte	0x4
 1358 06ed 30000000 		.4byte	0x30
 1359 06f1 23       		.uleb128 0x23
ARM GAS  C:\Users\roob\AppData\Local\Temp\ccsFXI6k.s 			page 25


 1360 06f2 E6020000 		.4byte	.LASF76
 1361 06f6 01       		.byte	0x1
 1362 06f7 44       		.byte	0x44
 1363 06f8 CB030000 		.4byte	0x3cb
 1364 06fc 05       		.byte	0x5
 1365 06fd 03       		.byte	0x3
 1366 06fe 00000000 		.4byte	default_heap
 1367 0702 24       		.uleb128 0x24
 1368 0703 01       		.byte	0x1
 1369 0704 3A030000 		.4byte	.LASF77
 1370 0708 08       		.byte	0x8
 1371 0709 38       		.byte	0x38
 1372 070a 01       		.byte	0x1
 1373 070b 01       		.byte	0x1
 1374 070c 16070000 		.4byte	0x716
 1375 0710 0F       		.uleb128 0xf
 1376 0711 C3040000 		.4byte	0x4c3
 1377 0715 00       		.byte	0
 1378 0716 24       		.uleb128 0x24
 1379 0717 01       		.byte	0x1
 1380 0718 84010000 		.4byte	.LASF78
 1381 071c 08       		.byte	0x8
 1382 071d 39       		.byte	0x39
 1383 071e 01       		.byte	0x1
 1384 071f 01       		.byte	0x1
 1385 0720 2A070000 		.4byte	0x72a
 1386 0724 0F       		.uleb128 0xf
 1387 0725 C3040000 		.4byte	0x4c3
 1388 0729 00       		.byte	0
 1389 072a 25       		.uleb128 0x25
 1390 072b 01       		.byte	0x1
 1391 072c 57000000 		.4byte	.LASF83
 1392 0730 08       		.byte	0x8
 1393 0731 3D       		.byte	0x3d
 1394 0732 01       		.byte	0x1
 1395 0733 C3040000 		.4byte	0x4c3
 1396 0737 01       		.byte	0x1
 1397 0738 00       		.byte	0
 1398              		.section	.debug_abbrev,"",%progbits
 1399              	.Ldebug_abbrev0:
 1400 0000 01       		.uleb128 0x1
 1401 0001 11       		.uleb128 0x11
 1402 0002 01       		.byte	0x1
 1403 0003 25       		.uleb128 0x25
 1404 0004 0E       		.uleb128 0xe
 1405 0005 13       		.uleb128 0x13
 1406 0006 0B       		.uleb128 0xb
 1407 0007 03       		.uleb128 0x3
 1408 0008 0E       		.uleb128 0xe
 1409 0009 1B       		.uleb128 0x1b
 1410 000a 0E       		.uleb128 0xe
 1411 000b 55       		.uleb128 0x55
 1412 000c 06       		.uleb128 0x6
 1413 000d 11       		.uleb128 0x11
 1414 000e 01       		.uleb128 0x1
 1415 000f 52       		.uleb128 0x52
 1416 0010 01       		.uleb128 0x1
ARM GAS  C:\Users\roob\AppData\Local\Temp\ccsFXI6k.s 			page 26


 1417 0011 10       		.uleb128 0x10
 1418 0012 06       		.uleb128 0x6
 1419 0013 00       		.byte	0
 1420 0014 00       		.byte	0
 1421 0015 02       		.uleb128 0x2
 1422 0016 24       		.uleb128 0x24
 1423 0017 00       		.byte	0
 1424 0018 0B       		.uleb128 0xb
 1425 0019 0B       		.uleb128 0xb
 1426 001a 3E       		.uleb128 0x3e
 1427 001b 0B       		.uleb128 0xb
 1428 001c 03       		.uleb128 0x3
 1429 001d 08       		.uleb128 0x8
 1430 001e 00       		.byte	0
 1431 001f 00       		.byte	0
 1432 0020 03       		.uleb128 0x3
 1433 0021 16       		.uleb128 0x16
 1434 0022 00       		.byte	0
 1435 0023 03       		.uleb128 0x3
 1436 0024 0E       		.uleb128 0xe
 1437 0025 3A       		.uleb128 0x3a
 1438 0026 0B       		.uleb128 0xb
 1439 0027 3B       		.uleb128 0x3b
 1440 0028 0B       		.uleb128 0xb
 1441 0029 49       		.uleb128 0x49
 1442 002a 13       		.uleb128 0x13
 1443 002b 00       		.byte	0
 1444 002c 00       		.byte	0
 1445 002d 04       		.uleb128 0x4
 1446 002e 24       		.uleb128 0x24
 1447 002f 00       		.byte	0
 1448 0030 0B       		.uleb128 0xb
 1449 0031 0B       		.uleb128 0xb
 1450 0032 3E       		.uleb128 0x3e
 1451 0033 0B       		.uleb128 0xb
 1452 0034 03       		.uleb128 0x3
 1453 0035 0E       		.uleb128 0xe
 1454 0036 00       		.byte	0
 1455 0037 00       		.byte	0
 1456 0038 05       		.uleb128 0x5
 1457 0039 13       		.uleb128 0x13
 1458 003a 01       		.byte	0x1
 1459 003b 03       		.uleb128 0x3
 1460 003c 0E       		.uleb128 0xe
 1461 003d 0B       		.uleb128 0xb
 1462 003e 0B       		.uleb128 0xb
 1463 003f 3A       		.uleb128 0x3a
 1464 0040 0B       		.uleb128 0xb
 1465 0041 3B       		.uleb128 0x3b
 1466 0042 0B       		.uleb128 0xb
 1467 0043 01       		.uleb128 0x1
 1468 0044 13       		.uleb128 0x13
 1469 0045 00       		.byte	0
 1470 0046 00       		.byte	0
 1471 0047 06       		.uleb128 0x6
 1472 0048 0D       		.uleb128 0xd
 1473 0049 00       		.byte	0
ARM GAS  C:\Users\roob\AppData\Local\Temp\ccsFXI6k.s 			page 27


 1474 004a 03       		.uleb128 0x3
 1475 004b 0E       		.uleb128 0xe
 1476 004c 3A       		.uleb128 0x3a
 1477 004d 0B       		.uleb128 0xb
 1478 004e 3B       		.uleb128 0x3b
 1479 004f 0B       		.uleb128 0xb
 1480 0050 49       		.uleb128 0x49
 1481 0051 13       		.uleb128 0x13
 1482 0052 38       		.uleb128 0x38
 1483 0053 0A       		.uleb128 0xa
 1484 0054 00       		.byte	0
 1485 0055 00       		.byte	0
 1486 0056 07       		.uleb128 0x7
 1487 0057 0D       		.uleb128 0xd
 1488 0058 00       		.byte	0
 1489 0059 03       		.uleb128 0x3
 1490 005a 08       		.uleb128 0x8
 1491 005b 3A       		.uleb128 0x3a
 1492 005c 0B       		.uleb128 0xb
 1493 005d 3B       		.uleb128 0x3b
 1494 005e 0B       		.uleb128 0xb
 1495 005f 49       		.uleb128 0x49
 1496 0060 13       		.uleb128 0x13
 1497 0061 38       		.uleb128 0x38
 1498 0062 0A       		.uleb128 0xa
 1499 0063 00       		.byte	0
 1500 0064 00       		.byte	0
 1501 0065 08       		.uleb128 0x8
 1502 0066 13       		.uleb128 0x13
 1503 0067 01       		.byte	0x1
 1504 0068 0B       		.uleb128 0xb
 1505 0069 0B       		.uleb128 0xb
 1506 006a 3A       		.uleb128 0x3a
 1507 006b 0B       		.uleb128 0xb
 1508 006c 3B       		.uleb128 0x3b
 1509 006d 0B       		.uleb128 0xb
 1510 006e 01       		.uleb128 0x1
 1511 006f 13       		.uleb128 0x13
 1512 0070 00       		.byte	0
 1513 0071 00       		.byte	0
 1514 0072 09       		.uleb128 0x9
 1515 0073 0F       		.uleb128 0xf
 1516 0074 00       		.byte	0
 1517 0075 0B       		.uleb128 0xb
 1518 0076 0B       		.uleb128 0xb
 1519 0077 49       		.uleb128 0x49
 1520 0078 13       		.uleb128 0x13
 1521 0079 00       		.byte	0
 1522 007a 00       		.byte	0
 1523 007b 0A       		.uleb128 0xa
 1524 007c 0F       		.uleb128 0xf
 1525 007d 00       		.byte	0
 1526 007e 0B       		.uleb128 0xb
 1527 007f 0B       		.uleb128 0xb
 1528 0080 00       		.byte	0
 1529 0081 00       		.byte	0
 1530 0082 0B       		.uleb128 0xb
ARM GAS  C:\Users\roob\AppData\Local\Temp\ccsFXI6k.s 			page 28


 1531 0083 13       		.uleb128 0x13
 1532 0084 01       		.byte	0x1
 1533 0085 03       		.uleb128 0x3
 1534 0086 0E       		.uleb128 0xe
 1535 0087 0B       		.uleb128 0xb
 1536 0088 0B       		.uleb128 0xb
 1537 0089 3A       		.uleb128 0x3a
 1538 008a 0B       		.uleb128 0xb
 1539 008b 3B       		.uleb128 0x3b
 1540 008c 05       		.uleb128 0x5
 1541 008d 01       		.uleb128 0x1
 1542 008e 13       		.uleb128 0x13
 1543 008f 00       		.byte	0
 1544 0090 00       		.byte	0
 1545 0091 0C       		.uleb128 0xc
 1546 0092 0D       		.uleb128 0xd
 1547 0093 00       		.byte	0
 1548 0094 03       		.uleb128 0x3
 1549 0095 08       		.uleb128 0x8
 1550 0096 3A       		.uleb128 0x3a
 1551 0097 0B       		.uleb128 0xb
 1552 0098 3B       		.uleb128 0x3b
 1553 0099 05       		.uleb128 0x5
 1554 009a 49       		.uleb128 0x49
 1555 009b 13       		.uleb128 0x13
 1556 009c 38       		.uleb128 0x38
 1557 009d 0A       		.uleb128 0xa
 1558 009e 00       		.byte	0
 1559 009f 00       		.byte	0
 1560 00a0 0D       		.uleb128 0xd
 1561 00a1 35       		.uleb128 0x35
 1562 00a2 00       		.byte	0
 1563 00a3 49       		.uleb128 0x49
 1564 00a4 13       		.uleb128 0x13
 1565 00a5 00       		.byte	0
 1566 00a6 00       		.byte	0
 1567 00a7 0E       		.uleb128 0xe
 1568 00a8 15       		.uleb128 0x15
 1569 00a9 01       		.byte	0x1
 1570 00aa 27       		.uleb128 0x27
 1571 00ab 0C       		.uleb128 0xc
 1572 00ac 49       		.uleb128 0x49
 1573 00ad 13       		.uleb128 0x13
 1574 00ae 01       		.uleb128 0x1
 1575 00af 13       		.uleb128 0x13
 1576 00b0 00       		.byte	0
 1577 00b1 00       		.byte	0
 1578 00b2 0F       		.uleb128 0xf
 1579 00b3 05       		.uleb128 0x5
 1580 00b4 00       		.byte	0
 1581 00b5 49       		.uleb128 0x49
 1582 00b6 13       		.uleb128 0x13
 1583 00b7 00       		.byte	0
 1584 00b8 00       		.byte	0
 1585 00b9 10       		.uleb128 0x10
 1586 00ba 17       		.uleb128 0x17
 1587 00bb 01       		.byte	0x1
ARM GAS  C:\Users\roob\AppData\Local\Temp\ccsFXI6k.s 			page 29


 1588 00bc 0B       		.uleb128 0xb
 1589 00bd 0B       		.uleb128 0xb
 1590 00be 3A       		.uleb128 0x3a
 1591 00bf 0B       		.uleb128 0xb
 1592 00c0 3B       		.uleb128 0x3b
 1593 00c1 0B       		.uleb128 0xb
 1594 00c2 01       		.uleb128 0x1
 1595 00c3 13       		.uleb128 0x13
 1596 00c4 00       		.byte	0
 1597 00c5 00       		.byte	0
 1598 00c6 11       		.uleb128 0x11
 1599 00c7 0D       		.uleb128 0xd
 1600 00c8 00       		.byte	0
 1601 00c9 03       		.uleb128 0x3
 1602 00ca 0E       		.uleb128 0xe
 1603 00cb 3A       		.uleb128 0x3a
 1604 00cc 0B       		.uleb128 0xb
 1605 00cd 3B       		.uleb128 0x3b
 1606 00ce 0B       		.uleb128 0xb
 1607 00cf 49       		.uleb128 0x49
 1608 00d0 13       		.uleb128 0x13
 1609 00d1 00       		.byte	0
 1610 00d2 00       		.byte	0
 1611 00d3 12       		.uleb128 0x12
 1612 00d4 17       		.uleb128 0x17
 1613 00d5 01       		.byte	0x1
 1614 00d6 03       		.uleb128 0x3
 1615 00d7 0E       		.uleb128 0xe
 1616 00d8 0B       		.uleb128 0xb
 1617 00d9 0B       		.uleb128 0xb
 1618 00da 3A       		.uleb128 0x3a
 1619 00db 0B       		.uleb128 0xb
 1620 00dc 3B       		.uleb128 0x3b
 1621 00dd 0B       		.uleb128 0xb
 1622 00de 01       		.uleb128 0x1
 1623 00df 13       		.uleb128 0x13
 1624 00e0 00       		.byte	0
 1625 00e1 00       		.byte	0
 1626 00e2 13       		.uleb128 0x13
 1627 00e3 0D       		.uleb128 0xd
 1628 00e4 00       		.byte	0
 1629 00e5 03       		.uleb128 0x3
 1630 00e6 08       		.uleb128 0x8
 1631 00e7 3A       		.uleb128 0x3a
 1632 00e8 0B       		.uleb128 0xb
 1633 00e9 3B       		.uleb128 0x3b
 1634 00ea 0B       		.uleb128 0xb
 1635 00eb 49       		.uleb128 0x49
 1636 00ec 13       		.uleb128 0x13
 1637 00ed 00       		.byte	0
 1638 00ee 00       		.byte	0
 1639 00ef 14       		.uleb128 0x14
 1640 00f0 26       		.uleb128 0x26
 1641 00f1 00       		.byte	0
 1642 00f2 49       		.uleb128 0x49
 1643 00f3 13       		.uleb128 0x13
 1644 00f4 00       		.byte	0
ARM GAS  C:\Users\roob\AppData\Local\Temp\ccsFXI6k.s 			page 30


 1645 00f5 00       		.byte	0
 1646 00f6 15       		.uleb128 0x15
 1647 00f7 2E       		.uleb128 0x2e
 1648 00f8 01       		.byte	0x1
 1649 00f9 3F       		.uleb128 0x3f
 1650 00fa 0C       		.uleb128 0xc
 1651 00fb 03       		.uleb128 0x3
 1652 00fc 0E       		.uleb128 0xe
 1653 00fd 3A       		.uleb128 0x3a
 1654 00fe 0B       		.uleb128 0xb
 1655 00ff 3B       		.uleb128 0x3b
 1656 0100 0B       		.uleb128 0xb
 1657 0101 27       		.uleb128 0x27
 1658 0102 0C       		.uleb128 0xc
 1659 0103 11       		.uleb128 0x11
 1660 0104 01       		.uleb128 0x1
 1661 0105 12       		.uleb128 0x12
 1662 0106 01       		.uleb128 0x1
 1663 0107 40       		.uleb128 0x40
 1664 0108 0A       		.uleb128 0xa
 1665 0109 9742     		.uleb128 0x2117
 1666 010b 0C       		.uleb128 0xc
 1667 010c 01       		.uleb128 0x1
 1668 010d 13       		.uleb128 0x13
 1669 010e 00       		.byte	0
 1670 010f 00       		.byte	0
 1671 0110 16       		.uleb128 0x16
 1672 0111 898201   		.uleb128 0x4109
 1673 0114 01       		.byte	0x1
 1674 0115 11       		.uleb128 0x11
 1675 0116 01       		.uleb128 0x1
 1676 0117 9542     		.uleb128 0x2115
 1677 0119 0C       		.uleb128 0xc
 1678 011a 31       		.uleb128 0x31
 1679 011b 13       		.uleb128 0x13
 1680 011c 00       		.byte	0
 1681 011d 00       		.byte	0
 1682 011e 17       		.uleb128 0x17
 1683 011f 8A8201   		.uleb128 0x410a
 1684 0122 00       		.byte	0
 1685 0123 02       		.uleb128 0x2
 1686 0124 0A       		.uleb128 0xa
 1687 0125 9142     		.uleb128 0x2111
 1688 0127 0A       		.uleb128 0xa
 1689 0128 00       		.byte	0
 1690 0129 00       		.byte	0
 1691 012a 18       		.uleb128 0x18
 1692 012b 05       		.uleb128 0x5
 1693 012c 00       		.byte	0
 1694 012d 03       		.uleb128 0x3
 1695 012e 0E       		.uleb128 0xe
 1696 012f 3A       		.uleb128 0x3a
 1697 0130 0B       		.uleb128 0xb
 1698 0131 3B       		.uleb128 0x3b
 1699 0132 0B       		.uleb128 0xb
 1700 0133 49       		.uleb128 0x49
 1701 0134 13       		.uleb128 0x13
ARM GAS  C:\Users\roob\AppData\Local\Temp\ccsFXI6k.s 			page 31


 1702 0135 02       		.uleb128 0x2
 1703 0136 06       		.uleb128 0x6
 1704 0137 00       		.byte	0
 1705 0138 00       		.byte	0
 1706 0139 19       		.uleb128 0x19
 1707 013a 05       		.uleb128 0x5
 1708 013b 00       		.byte	0
 1709 013c 03       		.uleb128 0x3
 1710 013d 08       		.uleb128 0x8
 1711 013e 3A       		.uleb128 0x3a
 1712 013f 0B       		.uleb128 0xb
 1713 0140 3B       		.uleb128 0x3b
 1714 0141 0B       		.uleb128 0xb
 1715 0142 49       		.uleb128 0x49
 1716 0143 13       		.uleb128 0x13
 1717 0144 02       		.uleb128 0x2
 1718 0145 06       		.uleb128 0x6
 1719 0146 00       		.byte	0
 1720 0147 00       		.byte	0
 1721 0148 1A       		.uleb128 0x1a
 1722 0149 34       		.uleb128 0x34
 1723 014a 00       		.byte	0
 1724 014b 03       		.uleb128 0x3
 1725 014c 08       		.uleb128 0x8
 1726 014d 3A       		.uleb128 0x3a
 1727 014e 0B       		.uleb128 0xb
 1728 014f 3B       		.uleb128 0x3b
 1729 0150 0B       		.uleb128 0xb
 1730 0151 49       		.uleb128 0x49
 1731 0152 13       		.uleb128 0x13
 1732 0153 02       		.uleb128 0x2
 1733 0154 06       		.uleb128 0x6
 1734 0155 00       		.byte	0
 1735 0156 00       		.byte	0
 1736 0157 1B       		.uleb128 0x1b
 1737 0158 2E       		.uleb128 0x2e
 1738 0159 01       		.byte	0x1
 1739 015a 3F       		.uleb128 0x3f
 1740 015b 0C       		.uleb128 0xc
 1741 015c 03       		.uleb128 0x3
 1742 015d 0E       		.uleb128 0xe
 1743 015e 3A       		.uleb128 0x3a
 1744 015f 0B       		.uleb128 0xb
 1745 0160 3B       		.uleb128 0x3b
 1746 0161 0B       		.uleb128 0xb
 1747 0162 27       		.uleb128 0x27
 1748 0163 0C       		.uleb128 0xc
 1749 0164 49       		.uleb128 0x49
 1750 0165 13       		.uleb128 0x13
 1751 0166 11       		.uleb128 0x11
 1752 0167 01       		.uleb128 0x1
 1753 0168 12       		.uleb128 0x12
 1754 0169 01       		.uleb128 0x1
 1755 016a 40       		.uleb128 0x40
 1756 016b 06       		.uleb128 0x6
 1757 016c 9742     		.uleb128 0x2117
 1758 016e 0C       		.uleb128 0xc
ARM GAS  C:\Users\roob\AppData\Local\Temp\ccsFXI6k.s 			page 32


 1759 016f 01       		.uleb128 0x1
 1760 0170 13       		.uleb128 0x13
 1761 0171 00       		.byte	0
 1762 0172 00       		.byte	0
 1763 0173 1C       		.uleb128 0x1c
 1764 0174 898201   		.uleb128 0x4109
 1765 0177 01       		.byte	0x1
 1766 0178 11       		.uleb128 0x11
 1767 0179 01       		.uleb128 0x1
 1768 017a 31       		.uleb128 0x31
 1769 017b 13       		.uleb128 0x13
 1770 017c 01       		.uleb128 0x1
 1771 017d 13       		.uleb128 0x13
 1772 017e 00       		.byte	0
 1773 017f 00       		.byte	0
 1774 0180 1D       		.uleb128 0x1d
 1775 0181 898201   		.uleb128 0x4109
 1776 0184 00       		.byte	0
 1777 0185 11       		.uleb128 0x11
 1778 0186 01       		.uleb128 0x1
 1779 0187 31       		.uleb128 0x31
 1780 0188 13       		.uleb128 0x13
 1781 0189 00       		.byte	0
 1782 018a 00       		.byte	0
 1783 018b 1E       		.uleb128 0x1e
 1784 018c 898201   		.uleb128 0x4109
 1785 018f 01       		.byte	0x1
 1786 0190 11       		.uleb128 0x11
 1787 0191 01       		.uleb128 0x1
 1788 0192 00       		.byte	0
 1789 0193 00       		.byte	0
 1790 0194 1F       		.uleb128 0x1f
 1791 0195 2E       		.uleb128 0x2e
 1792 0196 01       		.byte	0x1
 1793 0197 3F       		.uleb128 0x3f
 1794 0198 0C       		.uleb128 0xc
 1795 0199 03       		.uleb128 0x3
 1796 019a 0E       		.uleb128 0xe
 1797 019b 3A       		.uleb128 0x3a
 1798 019c 0B       		.uleb128 0xb
 1799 019d 3B       		.uleb128 0x3b
 1800 019e 0B       		.uleb128 0xb
 1801 019f 27       		.uleb128 0x27
 1802 01a0 0C       		.uleb128 0xc
 1803 01a1 11       		.uleb128 0x11
 1804 01a2 01       		.uleb128 0x1
 1805 01a3 12       		.uleb128 0x12
 1806 01a4 01       		.uleb128 0x1
 1807 01a5 40       		.uleb128 0x40
 1808 01a6 06       		.uleb128 0x6
 1809 01a7 9742     		.uleb128 0x2117
 1810 01a9 0C       		.uleb128 0xc
 1811 01aa 01       		.uleb128 0x1
 1812 01ab 13       		.uleb128 0x13
 1813 01ac 00       		.byte	0
 1814 01ad 00       		.byte	0
 1815 01ae 20       		.uleb128 0x20
ARM GAS  C:\Users\roob\AppData\Local\Temp\ccsFXI6k.s 			page 33


 1816 01af 34       		.uleb128 0x34
 1817 01b0 00       		.byte	0
 1818 01b1 03       		.uleb128 0x3
 1819 01b2 08       		.uleb128 0x8
 1820 01b3 3A       		.uleb128 0x3a
 1821 01b4 0B       		.uleb128 0xb
 1822 01b5 3B       		.uleb128 0x3b
 1823 01b6 0B       		.uleb128 0xb
 1824 01b7 49       		.uleb128 0x49
 1825 01b8 13       		.uleb128 0x13
 1826 01b9 02       		.uleb128 0x2
 1827 01ba 0A       		.uleb128 0xa
 1828 01bb 00       		.byte	0
 1829 01bc 00       		.byte	0
 1830 01bd 21       		.uleb128 0x21
 1831 01be 34       		.uleb128 0x34
 1832 01bf 00       		.byte	0
 1833 01c0 03       		.uleb128 0x3
 1834 01c1 0E       		.uleb128 0xe
 1835 01c2 3A       		.uleb128 0x3a
 1836 01c3 0B       		.uleb128 0xb
 1837 01c4 3B       		.uleb128 0x3b
 1838 01c5 0B       		.uleb128 0xb
 1839 01c6 49       		.uleb128 0x49
 1840 01c7 13       		.uleb128 0x13
 1841 01c8 02       		.uleb128 0x2
 1842 01c9 06       		.uleb128 0x6
 1843 01ca 00       		.byte	0
 1844 01cb 00       		.byte	0
 1845 01cc 22       		.uleb128 0x22
 1846 01cd 898201   		.uleb128 0x4109
 1847 01d0 00       		.byte	0
 1848 01d1 11       		.uleb128 0x11
 1849 01d2 01       		.uleb128 0x1
 1850 01d3 9542     		.uleb128 0x2115
 1851 01d5 0C       		.uleb128 0xc
 1852 01d6 31       		.uleb128 0x31
 1853 01d7 13       		.uleb128 0x13
 1854 01d8 00       		.byte	0
 1855 01d9 00       		.byte	0
 1856 01da 23       		.uleb128 0x23
 1857 01db 34       		.uleb128 0x34
 1858 01dc 00       		.byte	0
 1859 01dd 03       		.uleb128 0x3
 1860 01de 0E       		.uleb128 0xe
 1861 01df 3A       		.uleb128 0x3a
 1862 01e0 0B       		.uleb128 0xb
 1863 01e1 3B       		.uleb128 0x3b
 1864 01e2 0B       		.uleb128 0xb
 1865 01e3 49       		.uleb128 0x49
 1866 01e4 13       		.uleb128 0x13
 1867 01e5 02       		.uleb128 0x2
 1868 01e6 0A       		.uleb128 0xa
 1869 01e7 00       		.byte	0
 1870 01e8 00       		.byte	0
 1871 01e9 24       		.uleb128 0x24
 1872 01ea 2E       		.uleb128 0x2e
ARM GAS  C:\Users\roob\AppData\Local\Temp\ccsFXI6k.s 			page 34


 1873 01eb 01       		.byte	0x1
 1874 01ec 3F       		.uleb128 0x3f
 1875 01ed 0C       		.uleb128 0xc
 1876 01ee 03       		.uleb128 0x3
 1877 01ef 0E       		.uleb128 0xe
 1878 01f0 3A       		.uleb128 0x3a
 1879 01f1 0B       		.uleb128 0xb
 1880 01f2 3B       		.uleb128 0x3b
 1881 01f3 0B       		.uleb128 0xb
 1882 01f4 27       		.uleb128 0x27
 1883 01f5 0C       		.uleb128 0xc
 1884 01f6 3C       		.uleb128 0x3c
 1885 01f7 0C       		.uleb128 0xc
 1886 01f8 01       		.uleb128 0x1
 1887 01f9 13       		.uleb128 0x13
 1888 01fa 00       		.byte	0
 1889 01fb 00       		.byte	0
 1890 01fc 25       		.uleb128 0x25
 1891 01fd 2E       		.uleb128 0x2e
 1892 01fe 00       		.byte	0
 1893 01ff 3F       		.uleb128 0x3f
 1894 0200 0C       		.uleb128 0xc
 1895 0201 03       		.uleb128 0x3
 1896 0202 0E       		.uleb128 0xe
 1897 0203 3A       		.uleb128 0x3a
 1898 0204 0B       		.uleb128 0xb
 1899 0205 3B       		.uleb128 0x3b
 1900 0206 0B       		.uleb128 0xb
 1901 0207 27       		.uleb128 0x27
 1902 0208 0C       		.uleb128 0xc
 1903 0209 49       		.uleb128 0x49
 1904 020a 13       		.uleb128 0x13
 1905 020b 3C       		.uleb128 0x3c
 1906 020c 0C       		.uleb128 0xc
 1907 020d 00       		.byte	0
 1908 020e 00       		.byte	0
 1909 020f 00       		.byte	0
 1910              		.section	.debug_loc,"",%progbits
 1911              	.Ldebug_loc0:
 1912              	.LLST0:
 1913 0000 00000000 		.4byte	.LVL1
 1914 0004 0C000000 		.4byte	.LVL4
 1915 0008 0100     		.2byte	0x1
 1916 000a 50       		.byte	0x50
 1917 000b 0C000000 		.4byte	.LVL4
 1918 000f 13000000 		.4byte	.LVL5-1
 1919 0013 0300     		.2byte	0x3
 1920 0015 70       		.byte	0x70
 1921 0016 70       		.sleb128 -16
 1922 0017 9F       		.byte	0x9f
 1923 0018 13000000 		.4byte	.LVL5-1
 1924 001c 14000000 		.4byte	.LFE8
 1925 0020 0400     		.2byte	0x4
 1926 0022 F3       		.byte	0xf3
 1927 0023 01       		.uleb128 0x1
 1928 0024 50       		.byte	0x50
 1929 0025 9F       		.byte	0x9f
ARM GAS  C:\Users\roob\AppData\Local\Temp\ccsFXI6k.s 			page 35


 1930 0026 00000000 		.4byte	0
 1931 002a 00000000 		.4byte	0
 1932              	.LLST1:
 1933 002e 00000000 		.4byte	.LVL1
 1934 0032 13000000 		.4byte	.LVL5-1
 1935 0036 0100     		.2byte	0x1
 1936 0038 51       		.byte	0x51
 1937 0039 13000000 		.4byte	.LVL5-1
 1938 003d 14000000 		.4byte	.LFE8
 1939 0041 0400     		.2byte	0x4
 1940 0043 F3       		.byte	0xf3
 1941 0044 01       		.uleb128 0x1
 1942 0045 51       		.byte	0x51
 1943 0046 9F       		.byte	0x9f
 1944 0047 00000000 		.4byte	0
 1945 004b 00000000 		.4byte	0
 1946              	.LLST2:
 1947 004f 00000000 		.4byte	.LVL1
 1948 0053 0A000000 		.4byte	.LVL3
 1949 0057 0100     		.2byte	0x1
 1950 0059 52       		.byte	0x52
 1951 005a 0A000000 		.4byte	.LVL3
 1952 005e 13000000 		.4byte	.LVL5-1
 1953 0062 0300     		.2byte	0x3
 1954 0064 72       		.byte	0x72
 1955 0065 08       		.sleb128 8
 1956 0066 9F       		.byte	0x9f
 1957 0067 13000000 		.4byte	.LVL5-1
 1958 006b 14000000 		.4byte	.LFE8
 1959 006f 0400     		.2byte	0x4
 1960 0071 F3       		.byte	0xf3
 1961 0072 01       		.uleb128 0x1
 1962 0073 52       		.byte	0x52
 1963 0074 9F       		.byte	0x9f
 1964 0075 00000000 		.4byte	0
 1965 0079 00000000 		.4byte	0
 1966              	.LLST3:
 1967 007d 04000000 		.4byte	.LVL2
 1968 0081 13000000 		.4byte	.LVL5-1
 1969 0085 0100     		.2byte	0x1
 1970 0087 51       		.byte	0x51
 1971 0088 13000000 		.4byte	.LVL5-1
 1972 008c 14000000 		.4byte	.LFE8
 1973 0090 0400     		.2byte	0x4
 1974 0092 F3       		.byte	0xf3
 1975 0093 01       		.uleb128 0x1
 1976 0094 51       		.byte	0x51
 1977 0095 9F       		.byte	0x9f
 1978 0096 00000000 		.4byte	0
 1979 009a 00000000 		.4byte	0
 1980              	.LLST4:
 1981 009e 00000000 		.4byte	.LFB9
 1982 00a2 02000000 		.4byte	.LCFI0
 1983 00a6 0200     		.2byte	0x2
 1984 00a8 7D       		.byte	0x7d
 1985 00a9 00       		.sleb128 0
 1986 00aa 02000000 		.4byte	.LCFI0
ARM GAS  C:\Users\roob\AppData\Local\Temp\ccsFXI6k.s 			page 36


 1987 00ae 88000000 		.4byte	.LFE9
 1988 00b2 0200     		.2byte	0x2
 1989 00b4 7D       		.byte	0x7d
 1990 00b5 18       		.sleb128 24
 1991 00b6 00000000 		.4byte	0
 1992 00ba 00000000 		.4byte	0
 1993              	.LLST5:
 1994 00be 00000000 		.4byte	.LVL6
 1995 00c2 10000000 		.4byte	.LVL8
 1996 00c6 0100     		.2byte	0x1
 1997 00c8 50       		.byte	0x50
 1998 00c9 10000000 		.4byte	.LVL8
 1999 00cd 88000000 		.4byte	.LFE9
 2000 00d1 0400     		.2byte	0x4
 2001 00d3 F3       		.byte	0xf3
 2002 00d4 01       		.uleb128 0x1
 2003 00d5 50       		.byte	0x50
 2004 00d6 9F       		.byte	0x9f
 2005 00d7 00000000 		.4byte	0
 2006 00db 00000000 		.4byte	0
 2007              	.LLST6:
 2008 00df 00000000 		.4byte	.LVL6
 2009 00e3 0C000000 		.4byte	.LVL7
 2010 00e7 0100     		.2byte	0x1
 2011 00e9 51       		.byte	0x51
 2012 00ea 0C000000 		.4byte	.LVL7
 2013 00ee 14000000 		.4byte	.LVL9
 2014 00f2 0300     		.2byte	0x3
 2015 00f4 71       		.byte	0x71
 2016 00f5 79       		.sleb128 -7
 2017 00f6 9F       		.byte	0x9f
 2018 00f7 14000000 		.4byte	.LVL9
 2019 00fb 88000000 		.4byte	.LFE9
 2020 00ff 0100     		.2byte	0x1
 2021 0101 55       		.byte	0x55
 2022 0102 00000000 		.4byte	0
 2023 0106 00000000 		.4byte	0
 2024              	.LLST7:
 2025 010a 18000000 		.4byte	.LVL10
 2026 010e 52000000 		.4byte	.LVL17
 2027 0112 0100     		.2byte	0x1
 2028 0114 54       		.byte	0x54
 2029 0115 5E000000 		.4byte	.LVL19
 2030 0119 78000000 		.4byte	.LVL22
 2031 011d 0100     		.2byte	0x1
 2032 011f 54       		.byte	0x54
 2033 0120 80000000 		.4byte	.LVL24
 2034 0124 82000000 		.4byte	.LVL25
 2035 0128 0100     		.2byte	0x1
 2036 012a 54       		.byte	0x54
 2037 012b 00000000 		.4byte	0
 2038 012f 00000000 		.4byte	0
 2039              	.LLST8:
 2040 0133 1E000000 		.4byte	.LVL12
 2041 0137 20000000 		.4byte	.LVL13
 2042 013b 0100     		.2byte	0x1
 2043 013d 53       		.byte	0x53
ARM GAS  C:\Users\roob\AppData\Local\Temp\ccsFXI6k.s 			page 37


 2044 013e 22000000 		.4byte	.LVL14
 2045 0142 59000000 		.4byte	.LVL18-1
 2046 0146 0100     		.2byte	0x1
 2047 0148 53       		.byte	0x53
 2048 0149 59000000 		.4byte	.LVL18-1
 2049 014d 5A000000 		.4byte	.LVL18
 2050 0151 0300     		.2byte	0x3
 2051 0153 74       		.byte	0x74
 2052 0154 78       		.sleb128 -8
 2053 0155 9F       		.byte	0x9f
 2054 0156 5E000000 		.4byte	.LVL19
 2055 015a 67000000 		.4byte	.LVL20-1
 2056 015e 0100     		.2byte	0x1
 2057 0160 53       		.byte	0x53
 2058 0161 72000000 		.4byte	.LVL21
 2059 0165 7C000000 		.4byte	.LVL23
 2060 0169 0100     		.2byte	0x1
 2061 016b 50       		.byte	0x50
 2062 016c 7C000000 		.4byte	.LVL23
 2063 0170 80000000 		.4byte	.LVL24
 2064 0174 0100     		.2byte	0x1
 2065 0176 54       		.byte	0x54
 2066 0177 00000000 		.4byte	0
 2067 017b 00000000 		.4byte	0
 2068              	.LLST9:
 2069 017f 40000000 		.4byte	.LVL15
 2070 0183 50000000 		.4byte	.LVL16
 2071 0187 0100     		.2byte	0x1
 2072 0189 5E       		.byte	0x5e
 2073 018a 00000000 		.4byte	0
 2074 018e 00000000 		.4byte	0
 2075              	.LLST10:
 2076 0192 00000000 		.4byte	.LFB10
 2077 0196 02000000 		.4byte	.LCFI1
 2078 019a 0200     		.2byte	0x2
 2079 019c 7D       		.byte	0x7d
 2080 019d 00       		.sleb128 0
 2081 019e 02000000 		.4byte	.LCFI1
 2082 01a2 86000000 		.4byte	.LFE10
 2083 01a6 0200     		.2byte	0x2
 2084 01a8 7D       		.byte	0x7d
 2085 01a9 10       		.sleb128 16
 2086 01aa 00000000 		.4byte	0
 2087 01ae 00000000 		.4byte	0
 2088              	.LLST11:
 2089 01b2 00000000 		.4byte	.LVL26
 2090 01b6 0C000000 		.4byte	.LVL28
 2091 01ba 0100     		.2byte	0x1
 2092 01bc 50       		.byte	0x50
 2093 01bd 0C000000 		.4byte	.LVL28
 2094 01c1 86000000 		.4byte	.LFE10
 2095 01c5 0100     		.2byte	0x1
 2096 01c7 56       		.byte	0x56
 2097 01c8 00000000 		.4byte	0
 2098 01cc 00000000 		.4byte	0
 2099              	.LLST12:
 2100 01d0 10000000 		.4byte	.LVL29
ARM GAS  C:\Users\roob\AppData\Local\Temp\ccsFXI6k.s 			page 38


 2101 01d4 18000000 		.4byte	.LVL32
 2102 01d8 0100     		.2byte	0x1
 2103 01da 55       		.byte	0x55
 2104 01db 18000000 		.4byte	.LVL32
 2105 01df 28000000 		.4byte	.LVL33
 2106 01e3 0100     		.2byte	0x1
 2107 01e5 53       		.byte	0x53
 2108 01e6 28000000 		.4byte	.LVL33
 2109 01ea 2C000000 		.4byte	.LVL34
 2110 01ee 0100     		.2byte	0x1
 2111 01f0 52       		.byte	0x52
 2112 01f1 2C000000 		.4byte	.LVL34
 2113 01f5 57000000 		.4byte	.LVL36-1
 2114 01f9 0100     		.2byte	0x1
 2115 01fb 53       		.byte	0x53
 2116 01fc 58000000 		.4byte	.LVL36
 2117 0200 86000000 		.4byte	.LFE10
 2118 0204 0100     		.2byte	0x1
 2119 0206 53       		.byte	0x53
 2120 0207 00000000 		.4byte	0
 2121 020b 00000000 		.4byte	0
 2122              	.LLST13:
 2123 020f 0C000000 		.4byte	.LVL28
 2124 0213 12000000 		.4byte	.LVL30
 2125 0217 0100     		.2byte	0x1
 2126 0219 50       		.byte	0x50
 2127 021a 12000000 		.4byte	.LVL30
 2128 021e 15000000 		.4byte	.LVL31-1
 2129 0222 0200     		.2byte	0x2
 2130 0224 74       		.byte	0x74
 2131 0225 00       		.sleb128 0
 2132 0226 15000000 		.4byte	.LVL31-1
 2133 022a 3E000000 		.4byte	.LVL35
 2134 022e 0300     		.2byte	0x3
 2135 0230 75       		.byte	0x75
 2136 0231 78       		.sleb128 -8
 2137 0232 9F       		.byte	0x9f
 2138 0233 00000000 		.4byte	0
 2139 0237 00000000 		.4byte	0
 2140              	.LLST14:
 2141 023b 00000000 		.4byte	.LFB11
 2142 023f 02000000 		.4byte	.LCFI2
 2143 0243 0200     		.2byte	0x2
 2144 0245 7D       		.byte	0x7d
 2145 0246 00       		.sleb128 0
 2146 0247 02000000 		.4byte	.LCFI2
 2147 024b 40000000 		.4byte	.LFE11
 2148 024f 0200     		.2byte	0x2
 2149 0251 7D       		.byte	0x7d
 2150 0252 10       		.sleb128 16
 2151 0253 00000000 		.4byte	0
 2152 0257 00000000 		.4byte	0
 2153              	.LLST15:
 2154 025b 00000000 		.4byte	.LVL37
 2155 025f 0E000000 		.4byte	.LVL38
 2156 0263 0100     		.2byte	0x1
 2157 0265 50       		.byte	0x50
ARM GAS  C:\Users\roob\AppData\Local\Temp\ccsFXI6k.s 			page 39


 2158 0266 0E000000 		.4byte	.LVL38
 2159 026a 40000000 		.4byte	.LFE11
 2160 026e 0400     		.2byte	0x4
 2161 0270 F3       		.byte	0xf3
 2162 0271 01       		.uleb128 0x1
 2163 0272 50       		.byte	0x50
 2164 0273 9F       		.byte	0x9f
 2165 0274 00000000 		.4byte	0
 2166 0278 00000000 		.4byte	0
 2167              	.LLST16:
 2168 027c 00000000 		.4byte	.LVL37
 2169 0280 13000000 		.4byte	.LVL39-1
 2170 0284 0100     		.2byte	0x1
 2171 0286 51       		.byte	0x51
 2172 0287 13000000 		.4byte	.LVL39-1
 2173 028b 40000000 		.4byte	.LFE11
 2174 028f 0100     		.2byte	0x1
 2175 0291 55       		.byte	0x55
 2176 0292 00000000 		.4byte	0
 2177 0296 00000000 		.4byte	0
 2178              	.LLST17:
 2179 029a 14000000 		.4byte	.LVL39
 2180 029e 1C000000 		.4byte	.LVL40
 2181 02a2 0600     		.2byte	0x6
 2182 02a4 F3       		.byte	0xf3
 2183 02a5 01       		.uleb128 0x1
 2184 02a6 50       		.byte	0x50
 2185 02a7 23       		.byte	0x23
 2186 02a8 08       		.uleb128 0x8
 2187 02a9 9F       		.byte	0x9f
 2188 02aa 34000000 		.4byte	.LVL45
 2189 02ae 40000000 		.4byte	.LFE11
 2190 02b2 0600     		.2byte	0x6
 2191 02b4 F3       		.byte	0xf3
 2192 02b5 01       		.uleb128 0x1
 2193 02b6 50       		.byte	0x50
 2194 02b7 23       		.byte	0x23
 2195 02b8 08       		.uleb128 0x8
 2196 02b9 9F       		.byte	0x9f
 2197 02ba 00000000 		.4byte	0
 2198 02be 00000000 		.4byte	0
 2199              	.LLST18:
 2200 02c2 14000000 		.4byte	.LVL39
 2201 02c6 1C000000 		.4byte	.LVL40
 2202 02ca 0200     		.2byte	0x2
 2203 02cc 30       		.byte	0x30
 2204 02cd 9F       		.byte	0x9f
 2205 02ce 24000000 		.4byte	.LVL42
 2206 02d2 28000000 		.4byte	.LVL43
 2207 02d6 0100     		.2byte	0x1
 2208 02d8 54       		.byte	0x54
 2209 02d9 34000000 		.4byte	.LVL45
 2210 02dd 40000000 		.4byte	.LFE11
 2211 02e1 0200     		.2byte	0x2
 2212 02e3 30       		.byte	0x30
 2213 02e4 9F       		.byte	0x9f
 2214 02e5 00000000 		.4byte	0
ARM GAS  C:\Users\roob\AppData\Local\Temp\ccsFXI6k.s 			page 40


 2215 02e9 00000000 		.4byte	0
 2216              	.LLST19:
 2217 02ed 14000000 		.4byte	.LVL39
 2218 02f1 1C000000 		.4byte	.LVL40
 2219 02f5 0200     		.2byte	0x2
 2220 02f7 30       		.byte	0x30
 2221 02f8 9F       		.byte	0x9f
 2222 02f9 22000000 		.4byte	.LVL41
 2223 02fd 28000000 		.4byte	.LVL43
 2224 0301 0100     		.2byte	0x1
 2225 0303 52       		.byte	0x52
 2226 0304 34000000 		.4byte	.LVL45
 2227 0308 40000000 		.4byte	.LFE11
 2228 030c 0200     		.2byte	0x2
 2229 030e 30       		.byte	0x30
 2230 030f 9F       		.byte	0x9f
 2231 0310 00000000 		.4byte	0
 2232 0314 00000000 		.4byte	0
 2233              		.section	.debug_aranges,"",%progbits
 2234 0000 3C000000 		.4byte	0x3c
 2235 0004 0200     		.2byte	0x2
 2236 0006 00000000 		.4byte	.Ldebug_info0
 2237 000a 04       		.byte	0x4
 2238 000b 00       		.byte	0
 2239 000c 0000     		.2byte	0
 2240 000e 0000     		.2byte	0
 2241 0010 00000000 		.4byte	.LFB7
 2242 0014 20000000 		.4byte	.LFE7-.LFB7
 2243 0018 00000000 		.4byte	.LFB8
 2244 001c 14000000 		.4byte	.LFE8-.LFB8
 2245 0020 00000000 		.4byte	.LFB9
 2246 0024 88000000 		.4byte	.LFE9-.LFB9
 2247 0028 00000000 		.4byte	.LFB10
 2248 002c 86000000 		.4byte	.LFE10-.LFB10
 2249 0030 00000000 		.4byte	.LFB11
 2250 0034 40000000 		.4byte	.LFE11-.LFB11
 2251 0038 00000000 		.4byte	0
 2252 003c 00000000 		.4byte	0
 2253              		.section	.debug_ranges,"",%progbits
 2254              	.Ldebug_ranges0:
 2255 0000 00000000 		.4byte	.LFB7
 2256 0004 20000000 		.4byte	.LFE7
 2257 0008 00000000 		.4byte	.LFB8
 2258 000c 14000000 		.4byte	.LFE8
 2259 0010 00000000 		.4byte	.LFB9
 2260 0014 88000000 		.4byte	.LFE9
 2261 0018 00000000 		.4byte	.LFB10
 2262 001c 86000000 		.4byte	.LFE10
 2263 0020 00000000 		.4byte	.LFB11
 2264 0024 40000000 		.4byte	.LFE11
 2265 0028 00000000 		.4byte	0
 2266 002c 00000000 		.4byte	0
 2267              		.section	.debug_line,"",%progbits
 2268              	.Ldebug_line0:
 2269 0000 A1020000 		.section	.debug_str,"MS",%progbits,1
 2269      0200BA01 
 2269      00000201 
ARM GAS  C:\Users\roob\AppData\Local\Temp\ccsFXI6k.s 			page 41


 2269      FB0E0D00 
 2269      01010101 
 2270              	.LASF38:
 2271 0000 705F6D73 		.ascii	"p_msg\000"
 2271      6700
 2272              	.LASF2:
 2273 0006 73697A65 		.ascii	"size_t\000"
 2273      5F7400
 2274              	.LASF64:
 2275 000d 7264796D 		.ascii	"rdymsg\000"
 2275      736700
 2276              	.LASF12:
 2277 0014 75696E74 		.ascii	"uint64_t\000"
 2277      36345F74 
 2277      00
 2278              	.LASF54:
 2279 001d 6D656D67 		.ascii	"memgetfunc_t\000"
 2279      65746675 
 2279      6E635F74 
 2279      00
 2280              	.LASF13:
 2281 002a 6C6F6E67 		.ascii	"long long unsigned int\000"
 2281      206C6F6E 
 2281      6720756E 
 2281      7369676E 
 2281      65642069 
 2282              	.LASF65:
 2283 0041 65786974 		.ascii	"exitcode\000"
 2283      636F6465 
 2283      00
 2284              	.LASF58:
 2285 004a 685F6672 		.ascii	"h_free\000"
 2285      656500
 2286              	.LASF71:
 2287 0051 68656170 		.ascii	"heapp\000"
 2287      7000
 2288              	.LASF83:
 2289 0057 63684D74 		.ascii	"chMtxUnlock\000"
 2289      78556E6C 
 2289      6F636B00 
 2290              	.LASF70:
 2291 0063 63684865 		.ascii	"chHeapInit\000"
 2291      6170496E 
 2291      697400
 2292              	.LASF60:
 2293 006e 6E657874 		.ascii	"next\000"
 2293      00
 2294              	.LASF26:
 2295 0073 705F7072 		.ascii	"p_prio\000"
 2295      696F00
 2296              	.LASF11:
 2297 007a 6C6F6E67 		.ascii	"long long int\000"
 2297      206C6F6E 
 2297      6720696E 
 2297      7400
 2298              	.LASF1:
 2299 0088 7369676E 		.ascii	"signed char\000"
ARM GAS  C:\Users\roob\AppData\Local\Temp\ccsFXI6k.s 			page 42


 2299      65642063 
 2299      68617200 
 2300              	.LASF59:
 2301 0094 685F6D74 		.ascii	"h_mtx\000"
 2301      7800
 2302              	.LASF42:
 2303 009a 705F6D70 		.ascii	"p_mpool\000"
 2303      6F6F6C00 
 2304              	.LASF51:
 2305 00a2 6D5F7175 		.ascii	"m_queue\000"
 2305      65756500 
 2306              	.LASF72:
 2307 00aa 63684865 		.ascii	"chHeapFree\000"
 2307      61704672 
 2307      656500
 2308              	.LASF18:
 2309 00b5 74736C69 		.ascii	"tslices_t\000"
 2309      6365735F 
 2309      7400
 2310              	.LASF8:
 2311 00bf 6C6F6E67 		.ascii	"long int\000"
 2311      20696E74 
 2311      00
 2312              	.LASF80:
 2313 00c8 2E2E2F2E 		.ascii	"../../os/kernel/src/chheap.c\000"
 2313      2E2F6F73 
 2313      2F6B6572 
 2313      6E656C2F 
 2313      7372632F 
 2314              	.LASF16:
 2315 00e5 74737461 		.ascii	"tstate_t\000"
 2315      74655F74 
 2315      00
 2316              	.LASF28:
 2317 00ee 705F6E65 		.ascii	"p_newer\000"
 2317      77657200 
 2318              	.LASF45:
 2319 00f6 72656761 		.ascii	"regarm_t\000"
 2319      726D5F74 
 2319      00
 2320              	.LASF62:
 2321 00ff 616C6967 		.ascii	"align\000"
 2321      6E00
 2322              	.LASF0:
 2323 0105 756E7369 		.ascii	"unsigned int\000"
 2323      676E6564 
 2323      20696E74 
 2323      00
 2324              	.LASF10:
 2325 0112 6C6F6E67 		.ascii	"long unsigned int\000"
 2325      20756E73 
 2325      69676E65 
 2325      6420696E 
 2325      7400
 2326              	.LASF48:
 2327 0124 636F6E74 		.ascii	"context\000"
 2327      65787400 
ARM GAS  C:\Users\roob\AppData\Local\Temp\ccsFXI6k.s 			page 43


 2328              	.LASF63:
 2329 012c 73697A65 		.ascii	"size\000"
 2329      00
 2330              	.LASF6:
 2331 0131 73686F72 		.ascii	"short unsigned int\000"
 2331      7420756E 
 2331      7369676E 
 2331      65642069 
 2331      6E7400
 2332              	.LASF20:
 2333 0144 6D73675F 		.ascii	"msg_t\000"
 2333      7400
 2334              	.LASF15:
 2335 014a 746D6F64 		.ascii	"tmode_t\000"
 2335      655F7400 
 2336              	.LASF44:
 2337 0152 54687265 		.ascii	"ThreadsList\000"
 2337      6164734C 
 2337      69737400 
 2338              	.LASF21:
 2339 015e 6576656E 		.ascii	"eventmask_t\000"
 2339      746D6173 
 2339      6B5F7400 
 2340              	.LASF50:
 2341 016a 4D757465 		.ascii	"Mutex\000"
 2341      7800
 2342              	.LASF46:
 2343 0170 73746B61 		.ascii	"stkalign_t\000"
 2343      6C69676E 
 2343      5F7400
 2344              	.LASF49:
 2345 017b 73697A65 		.ascii	"sizetype\000"
 2345      74797065 
 2345      00
 2346              	.LASF78:
 2347 0184 63684D74 		.ascii	"chMtxLock\000"
 2347      784C6F63 
 2347      6B00
 2348              	.LASF29:
 2349 018e 705F6F6C 		.ascii	"p_older\000"
 2349      64657200 
 2350              	.LASF43:
 2351 0196 54687265 		.ascii	"ThreadsQueue\000"
 2351      61647351 
 2351      75657565 
 2351      00
 2352              	.LASF55:
 2353 01a3 4D656D6F 		.ascii	"MemoryHeap\000"
 2353      72794865 
 2353      617000
 2354              	.LASF17:
 2355 01ae 74726566 		.ascii	"trefs_t\000"
 2355      735F7400 
 2356              	.LASF25:
 2357 01b6 705F7072 		.ascii	"p_prev\000"
 2357      657600
 2358              	.LASF19:
ARM GAS  C:\Users\roob\AppData\Local\Temp\ccsFXI6k.s 			page 44


 2359 01bd 74707269 		.ascii	"tprio_t\000"
 2359      6F5F7400 
 2360              	.LASF79:
 2361 01c5 474E5520 		.ascii	"GNU C 4.7.3 20130312 (release) [ARM/embedded-4_7-br"
 2361      4320342E 
 2361      372E3320 
 2361      32303133 
 2361      30333132 
 2362 01f8 616E6368 		.ascii	"anch revision 196615]\000"
 2362      20726576 
 2362      6973696F 
 2362      6E203139 
 2362      36363135 
 2363              	.LASF14:
 2364 020e 5F426F6F 		.ascii	"_Bool\000"
 2364      6C00
 2365              	.LASF7:
 2366 0214 696E7433 		.ascii	"int32_t\000"
 2366      325F7400 
 2367              	.LASF4:
 2368 021c 756E7369 		.ascii	"unsigned char\000"
 2368      676E6564 
 2368      20636861 
 2368      7200
 2369              	.LASF57:
 2370 022a 685F7072 		.ascii	"h_provider\000"
 2370      6F766964 
 2370      657200
 2371              	.LASF40:
 2372 0235 705F6D74 		.ascii	"p_mtxlist\000"
 2372      786C6973 
 2372      7400
 2373              	.LASF5:
 2374 023f 73686F72 		.ascii	"short int\000"
 2374      7420696E 
 2374      7400
 2375              	.LASF31:
 2376 0249 705F7374 		.ascii	"p_state\000"
 2376      61746500 
 2377              	.LASF34:
 2378 0251 705F7072 		.ascii	"p_preempt\000"
 2378      65656D70 
 2378      7400
 2379              	.LASF82:
 2380 025b 68656170 		.ascii	"heap_header\000"
 2380      5F686561 
 2380      64657200 
 2381              	.LASF81:
 2382 0267 433A5C43 		.ascii	"C:\\ChibiStudio\\chibios\\demos\\ARMCM4-STM32F407-L"
 2382      68696269 
 2382      53747564 
 2382      696F5C63 
 2382      68696269 
 2383 0296 5749502D 		.ascii	"WIP-FATFS-USB\000"
 2383      46415446 
 2383      532D5553 
 2383      4200
ARM GAS  C:\Users\roob\AppData\Local\Temp\ccsFXI6k.s 			page 45


 2384              	.LASF67:
 2385 02a4 65776D61 		.ascii	"ewmask\000"
 2385      736B00
 2386              	.LASF24:
 2387 02ab 705F6E65 		.ascii	"p_next\000"
 2387      787400
 2388              	.LASF32:
 2389 02b2 705F666C 		.ascii	"p_flags\000"
 2389      61677300 
 2390              	.LASF23:
 2391 02ba 54687265 		.ascii	"Thread\000"
 2391      616400
 2392              	.LASF73:
 2393 02c1 63684865 		.ascii	"chHeapAlloc\000"
 2393      6170416C 
 2393      6C6F6300 
 2394              	.LASF39:
 2395 02cd 705F6570 		.ascii	"p_epending\000"
 2395      656E6469 
 2395      6E6700
 2396              	.LASF9:
 2397 02d8 75696E74 		.ascii	"uint32_t\000"
 2397      33325F74 
 2397      00
 2398              	.LASF61:
 2399 02e1 68656170 		.ascii	"heap\000"
 2399      00
 2400              	.LASF76:
 2401 02e6 64656661 		.ascii	"default_heap\000"
 2401      756C745F 
 2401      68656170 
 2401      00
 2402              	.LASF68:
 2403 02f3 63686172 		.ascii	"char\000"
 2403      00
 2404              	.LASF74:
 2405 02f8 63684865 		.ascii	"chHeapStatus\000"
 2405      61705374 
 2405      61747573 
 2405      00
 2406              	.LASF53:
 2407 0305 6D5F6E65 		.ascii	"m_next\000"
 2407      787400
 2408              	.LASF22:
 2409 030c 73797374 		.ascii	"systime_t\000"
 2409      696D655F 
 2409      7400
 2410              	.LASF41:
 2411 0316 705F7265 		.ascii	"p_realprio\000"
 2411      616C7072 
 2411      696F00
 2412              	.LASF35:
 2413 0321 705F7469 		.ascii	"p_time\000"
 2413      6D6500
 2414              	.LASF47:
 2415 0328 696E7463 		.ascii	"intctx\000"
 2415      747800
ARM GAS  C:\Users\roob\AppData\Local\Temp\ccsFXI6k.s 			page 46


 2416              	.LASF37:
 2417 032f 705F6D73 		.ascii	"p_msgqueue\000"
 2417      67717565 
 2417      756500
 2418              	.LASF77:
 2419 033a 63684D74 		.ascii	"chMtxInit\000"
 2419      78496E69 
 2419      7400
 2420              	.LASF33:
 2421 0344 705F7265 		.ascii	"p_refs\000"
 2421      667300
 2422              	.LASF3:
 2423 034b 75696E74 		.ascii	"uint8_t\000"
 2423      385F7400 
 2424              	.LASF66:
 2425 0353 77746F62 		.ascii	"wtobjp\000"
 2425      6A7000
 2426              	.LASF75:
 2427 035a 73697A65 		.ascii	"sizep\000"
 2427      7000
 2428              	.LASF30:
 2429 0360 705F6E61 		.ascii	"p_name\000"
 2429      6D6500
 2430              	.LASF69:
 2431 0367 5F686561 		.ascii	"_heap_init\000"
 2431      705F696E 
 2431      697400
 2432              	.LASF52:
 2433 0372 6D5F6F77 		.ascii	"m_owner\000"
 2433      6E657200 
 2434              	.LASF27:
 2435 037a 705F6374 		.ascii	"p_ctx\000"
 2435      7800
 2436              	.LASF36:
 2437 0380 705F7761 		.ascii	"p_waiting\000"
 2437      6974696E 
 2437      6700
 2438              	.LASF56:
 2439 038a 6D656D6F 		.ascii	"memory_heap\000"
 2439      72795F68 
 2439      65617000 
 2440              		.ident	"GCC: (GNU Tools for ARM Embedded Processors) 4.7.3 20130312 (release) [ARM/embedded-4_7-br
ARM GAS  C:\Users\roob\AppData\Local\Temp\ccsFXI6k.s 			page 47


DEFINED SYMBOLS
                            *ABS*:00000000 chheap.c
C:\Users\roob\AppData\Local\Temp\ccsFXI6k.s:19     .text._heap_init:00000000 $t
C:\Users\roob\AppData\Local\Temp\ccsFXI6k.s:25     .text._heap_init:00000000 _heap_init
C:\Users\roob\AppData\Local\Temp\ccsFXI6k.s:436    .bss.default_heap:00000000 .LANCHOR0
C:\Users\roob\AppData\Local\Temp\ccsFXI6k.s:57     .text.chHeapInit:00000000 $t
C:\Users\roob\AppData\Local\Temp\ccsFXI6k.s:63     .text.chHeapInit:00000000 chHeapInit
C:\Users\roob\AppData\Local\Temp\ccsFXI6k.s:97     .text.chHeapAlloc:00000000 $t
C:\Users\roob\AppData\Local\Temp\ccsFXI6k.s:103    .text.chHeapAlloc:00000000 chHeapAlloc
C:\Users\roob\AppData\Local\Temp\ccsFXI6k.s:230    .text.chHeapAlloc:00000084 $d
C:\Users\roob\AppData\Local\Temp\ccsFXI6k.s:235    .text.chHeapFree:00000000 $t
C:\Users\roob\AppData\Local\Temp\ccsFXI6k.s:241    .text.chHeapFree:00000000 chHeapFree
C:\Users\roob\AppData\Local\Temp\ccsFXI6k.s:355    .text.chHeapStatus:00000000 $t
C:\Users\roob\AppData\Local\Temp\ccsFXI6k.s:361    .text.chHeapStatus:00000000 chHeapStatus
C:\Users\roob\AppData\Local\Temp\ccsFXI6k.s:430    .text.chHeapStatus:0000003c $d
C:\Users\roob\AppData\Local\Temp\ccsFXI6k.s:435    .bss.default_heap:00000000 $d
C:\Users\roob\AppData\Local\Temp\ccsFXI6k.s:439    .bss.default_heap:00000000 default_heap
                     .debug_frame:00000010 $d
C:\Users\roob\AppData\Local\Temp\ccsFXI6k.s:234    .text.chHeapAlloc:00000088 $t

UNDEFINED SYMBOLS
chCoreAlloc
chMtxInit
chMtxLock
chMtxUnlock
