ARM GAS  C:\Users\roob\AppData\Local\Temp\ccdZJICl.s 			page 1


   1              		.syntax unified
   2              		.cpu cortex-m4
   3              		.fpu softvfp
   4              		.eabi_attribute 20, 1
   5              		.eabi_attribute 21, 1
   6              		.eabi_attribute 23, 3
   7              		.eabi_attribute 24, 1
   8              		.eabi_attribute 25, 1
   9              		.eabi_attribute 26, 1
  10              		.eabi_attribute 30, 2
  11              		.eabi_attribute 34, 1
  12              		.eabi_attribute 18, 4
  13              		.thumb
  14              		.file	"testmsg.c"
  15              		.text
  16              	.Ltext0:
  17              		.cfi_sections	.debug_frame
  18              		.section	.text.msg1_execute,"ax",%progbits
  19              		.align	2
  20              		.p2align 4,,15
  21              		.thumb
  22              		.thumb_func
  23              		.type	msg1_execute, %function
  24              	msg1_execute:
  25              	.LFB8:
  26              		.file 1 "../../test/testmsg.c"
  27              		.loc 1 67 0
  28              		.cfi_startproc
  29              		@ args = 0, pretend = 0, frame = 0
  30              		@ frame_needed = 0, uses_anonymous_args = 0
  31 0000 10B5     		push	{r4, lr}
  32              	.LCFI0:
  33              		.cfi_def_cfa_offset 8
  34              		.cfi_offset 4, -8
  35              		.cfi_offset 14, -4
  36              		.loc 1 74 0
  37 0002 40F20002 		movw	r2, #:lower16:rlist
  38 0006 C0F20002 		movt	r2, #:upper16:rlist
  39 000a 40F20003 		movw	r3, #:lower16:wa
  40 000e 9169     		ldr	r1, [r2, #24]
  41 0010 C0F20003 		movt	r3, #:upper16:wa
  42              		.loc 1 67 0
  43 0014 82B0     		sub	sp, sp, #8
  44              	.LCFI1:
  45              		.cfi_def_cfa_offset 16
  46              		.loc 1 74 0
  47 0016 8C68     		ldr	r4, [r1, #8]
  48 0018 1868     		ldr	r0, [r3, #0]
  49 001a 0091     		str	r1, [sp, #0]
  50 001c 40F20003 		movw	r3, #:lower16:thread
  51 0020 C0F20003 		movt	r3, #:upper16:thread
  52 0024 621C     		adds	r2, r4, #1
  53 0026 4FF49871 		mov	r1, #304
  54 002a FFF7FEFF 		bl	chThdCreateStatic
  55              	.LVL0:
  56 002e 40F20002 		movw	r2, #:lower16:threads
  57 0032 C0F20002 		movt	r2, #:upper16:threads
ARM GAS  C:\Users\roob\AppData\Local\Temp\ccdZJICl.s 			page 2


  58 0036 1060     		str	r0, [r2, #0]
  59              		.loc 1 76 0
  60 0038 FFF7FEFF 		bl	chMsgWait
  61              	.LVL1:
  62              		.loc 1 77 0
  63 003c 446B     		ldr	r4, [r0, #52]
  64              	.LVL2:
  65              		.loc 1 78 0
  66 003e 2146     		mov	r1, r4
  67 0040 FFF7FEFF 		bl	chMsgRelease
  68              	.LVL3:
  69              		.loc 1 79 0
  70 0044 E0B2     		uxtb	r0, r4
  71 0046 FFF7FEFF 		bl	test_emit_token
  72              	.LVL4:
  73              		.loc 1 80 0
  74 004a FFF7FEFF 		bl	chMsgWait
  75              	.LVL5:
  76              		.loc 1 81 0
  77 004e 446B     		ldr	r4, [r0, #52]
  78              	.LVL6:
  79              		.loc 1 82 0
  80 0050 2146     		mov	r1, r4
  81 0052 FFF7FEFF 		bl	chMsgRelease
  82              	.LVL7:
  83              		.loc 1 83 0
  84 0056 E0B2     		uxtb	r0, r4
  85 0058 FFF7FEFF 		bl	test_emit_token
  86              	.LVL8:
  87              		.loc 1 84 0
  88 005c FFF7FEFF 		bl	chMsgWait
  89              	.LVL9:
  90              		.loc 1 85 0
  91 0060 446B     		ldr	r4, [r0, #52]
  92              	.LVL10:
  93              		.loc 1 86 0
  94 0062 2146     		mov	r1, r4
  95 0064 FFF7FEFF 		bl	chMsgRelease
  96              	.LVL11:
  97              		.loc 1 87 0
  98 0068 E0B2     		uxtb	r0, r4
  99 006a FFF7FEFF 		bl	test_emit_token
 100              	.LVL12:
 101              		.loc 1 88 0
 102 006e 40F20001 		movw	r1, #:lower16:.LC0
 103 0072 0120     		movs	r0, #1
 104 0074 C0F20001 		movt	r1, #:upper16:.LC0
 105              		.loc 1 89 0
 106 0078 02B0     		add	sp, sp, #8
 107 007a BDE81040 		pop	{r4, lr}
 108              		.loc 1 88 0
 109 007e FFF7FEBF 		b	_test_assert_sequence
 110              	.LVL13:
 111              		.cfi_endproc
 112              	.LFE8:
 113              		.size	msg1_execute, .-msg1_execute
 114 0082 00BFAFF3 		.section	.text.thread,"ax",%progbits
ARM GAS  C:\Users\roob\AppData\Local\Temp\ccdZJICl.s 			page 3


 114      0080AFF3 
 114      0080AFF3 
 114      0080
 115              		.align	2
 116              		.p2align 4,,15
 117              		.thumb
 118              		.thumb_func
 119              		.type	thread, %function
 120              	thread:
 121              	.LFB7:
 122              		.loc 1 59 0
 123              		.cfi_startproc
 124              		@ args = 0, pretend = 0, frame = 0
 125              		@ frame_needed = 0, uses_anonymous_args = 0
 126              	.LVL14:
 127 0000 10B5     		push	{r4, lr}
 128              	.LCFI2:
 129              		.cfi_def_cfa_offset 8
 130              		.cfi_offset 4, -8
 131              		.cfi_offset 14, -4
 132              		.loc 1 61 0
 133 0002 4121     		movs	r1, #65
 134              		.loc 1 59 0
 135 0004 0446     		mov	r4, r0
 136              		.loc 1 61 0
 137 0006 FFF7FEFF 		bl	chMsgSend
 138              	.LVL15:
 139              		.loc 1 62 0
 140 000a 4221     		movs	r1, #66
 141 000c 2046     		mov	r0, r4
 142 000e FFF7FEFF 		bl	chMsgSend
 143              	.LVL16:
 144              		.loc 1 63 0
 145 0012 2046     		mov	r0, r4
 146 0014 4321     		movs	r1, #67
 147 0016 FFF7FEFF 		bl	chMsgSend
 148              	.LVL17:
 149              		.loc 1 65 0
 150 001a 0020     		movs	r0, #0
 151 001c 10BD     		pop	{r4, pc}
 152              		.cfi_endproc
 153              	.LFE7:
 154              		.size	thread, .-thread
 155              		.global	patternmsg
 156              		.global	testmsg1
 157 001e 00BF     		.section	.rodata.testmsg1,"a",%progbits
 158              		.align	2
 159              		.type	testmsg1, %object
 160              		.size	testmsg1, 16
 161              	testmsg1:
 162 0000 04000000 		.word	.LC1
 163 0004 00000000 		.word	0
 164 0008 00000000 		.word	0
 165 000c 00000000 		.word	msg1_execute
 166              		.section	.rodata.str1.4,"aMS",%progbits,1
 167              		.align	2
 168              	.LC0:
ARM GAS  C:\Users\roob\AppData\Local\Temp\ccdZJICl.s 			page 4


 169 0000 41424300 		.ascii	"ABC\000"
 170              	.LC1:
 171 0004 4D657373 		.ascii	"Messages, loop\000"
 171      61676573 
 171      2C206C6F 
 171      6F7000
 172 0013 00       		.section	.rodata.patternmsg,"a",%progbits
 173              		.align	2
 174              		.type	patternmsg, %object
 175              		.size	patternmsg, 8
 176              	patternmsg:
 177 0000 00000000 		.word	testmsg1
 178 0004 00000000 		.word	0
 179              		.text
 180              	.Letext0:
 181              		.file 2 "c:\\chibistudio\\tools\\gnu tools arm embedded\\4.7 2013q1\\bin\\../lib/gcc/arm-none-eabi
 182              		.file 3 "c:\\chibistudio\\tools\\gnu tools arm embedded\\4.7 2013q1\\bin\\../lib/gcc/arm-none-eabi
 183              		.file 4 "../../os/ports/GCC/ARMCMx/chtypes.h"
 184              		.file 5 "../../os/kernel/include/chlists.h"
 185              		.file 6 "../../os/kernel/include/chthreads.h"
 186              		.file 7 "../../os/ports/GCC/ARMCMx/chcore_v7m.h"
 187              		.file 8 "../../os/kernel/include/chschd.h"
 188              		.file 9 "../../os/kernel/include/chmtx.h"
 189              		.file 10 "../../test/test.h"
 190              		.file 11 "../../os/kernel/include/chmsg.h"
 191              		.section	.debug_info,"",%progbits
 192              	.Ldebug_info0:
 193 0000 67070000 		.4byte	0x767
 194 0004 0200     		.2byte	0x2
 195 0006 00000000 		.4byte	.Ldebug_abbrev0
 196 000a 04       		.byte	0x4
 197 000b 01       		.uleb128 0x1
 198 000c DA010000 		.4byte	.LASF80
 199 0010 01       		.byte	0x1
 200 0011 19010000 		.4byte	.LASF81
 201 0015 84020000 		.4byte	.LASF82
 202 0019 00000000 		.4byte	.Ldebug_ranges0+0
 203 001d 00000000 		.4byte	0
 204 0021 00000000 		.4byte	0
 205 0025 00000000 		.4byte	.Ldebug_line0
 206 0029 02       		.uleb128 0x2
 207 002a 04       		.byte	0x4
 208 002b 05       		.byte	0x5
 209 002c 696E7400 		.ascii	"int\000"
 210 0030 03       		.uleb128 0x3
 211 0031 0E000000 		.4byte	.LASF2
 212 0035 02       		.byte	0x2
 213 0036 D5       		.byte	0xd5
 214 0037 3B000000 		.4byte	0x3b
 215 003b 04       		.uleb128 0x4
 216 003c 04       		.byte	0x4
 217 003d 07       		.byte	0x7
 218 003e C3000000 		.4byte	.LASF0
 219 0042 04       		.uleb128 0x4
 220 0043 01       		.byte	0x1
 221 0044 06       		.byte	0x6
 222 0045 51000000 		.4byte	.LASF1
ARM GAS  C:\Users\roob\AppData\Local\Temp\ccdZJICl.s 			page 5


 223 0049 03       		.uleb128 0x3
 224 004a 6B030000 		.4byte	.LASF3
 225 004e 03       		.byte	0x3
 226 004f 2A       		.byte	0x2a
 227 0050 54000000 		.4byte	0x54
 228 0054 04       		.uleb128 0x4
 229 0055 01       		.byte	0x1
 230 0056 08       		.byte	0x8
 231 0057 38020000 		.4byte	.LASF4
 232 005b 04       		.uleb128 0x4
 233 005c 02       		.byte	0x2
 234 005d 05       		.byte	0x5
 235 005e 59020000 		.4byte	.LASF5
 236 0062 04       		.uleb128 0x4
 237 0063 02       		.byte	0x2
 238 0064 07       		.byte	0x7
 239 0065 F8000000 		.4byte	.LASF6
 240 0069 03       		.uleb128 0x3
 241 006a 30020000 		.4byte	.LASF7
 242 006e 03       		.byte	0x3
 243 006f 4F       		.byte	0x4f
 244 0070 74000000 		.4byte	0x74
 245 0074 04       		.uleb128 0x4
 246 0075 04       		.byte	0x4
 247 0076 05       		.byte	0x5
 248 0077 8E000000 		.4byte	.LASF8
 249 007b 03       		.uleb128 0x3
 250 007c FF020000 		.4byte	.LASF9
 251 0080 03       		.byte	0x3
 252 0081 50       		.byte	0x50
 253 0082 86000000 		.4byte	0x86
 254 0086 04       		.uleb128 0x4
 255 0087 04       		.byte	0x4
 256 0088 07       		.byte	0x7
 257 0089 D0000000 		.4byte	.LASF10
 258 008d 04       		.uleb128 0x4
 259 008e 08       		.byte	0x8
 260 008f 05       		.byte	0x5
 261 0090 43000000 		.4byte	.LASF11
 262 0094 04       		.uleb128 0x4
 263 0095 08       		.byte	0x8
 264 0096 07       		.byte	0x7
 265 0097 1C000000 		.4byte	.LASF12
 266 009b 03       		.uleb128 0x3
 267 009c 65000000 		.4byte	.LASF13
 268 00a0 04       		.byte	0x4
 269 00a1 2B       		.byte	0x2b
 270 00a2 A6000000 		.4byte	0xa6
 271 00a6 04       		.uleb128 0x4
 272 00a7 01       		.byte	0x1
 273 00a8 02       		.byte	0x2
 274 00a9 2A020000 		.4byte	.LASF14
 275 00ad 03       		.uleb128 0x3
 276 00ae 11010000 		.4byte	.LASF15
 277 00b2 04       		.byte	0x4
 278 00b3 2C       		.byte	0x2c
 279 00b4 49000000 		.4byte	0x49
ARM GAS  C:\Users\roob\AppData\Local\Temp\ccdZJICl.s 			page 6


 280 00b8 03       		.uleb128 0x3
 281 00b9 A1000000 		.4byte	.LASF16
 282 00bd 04       		.byte	0x4
 283 00be 2D       		.byte	0x2d
 284 00bf 49000000 		.4byte	0x49
 285 00c3 03       		.uleb128 0x3
 286 00c4 BB010000 		.4byte	.LASF17
 287 00c8 04       		.byte	0x4
 288 00c9 2E       		.byte	0x2e
 289 00ca 49000000 		.4byte	0x49
 290 00ce 03       		.uleb128 0x3
 291 00cf 84000000 		.4byte	.LASF18
 292 00d3 04       		.byte	0x4
 293 00d4 2F       		.byte	0x2f
 294 00d5 49000000 		.4byte	0x49
 295 00d9 03       		.uleb128 0x3
 296 00da D2010000 		.4byte	.LASF19
 297 00de 04       		.byte	0x4
 298 00df 30       		.byte	0x30
 299 00e0 7B000000 		.4byte	0x7b
 300 00e4 03       		.uleb128 0x3
 301 00e5 0B010000 		.4byte	.LASF20
 302 00e9 04       		.byte	0x4
 303 00ea 31       		.byte	0x31
 304 00eb 69000000 		.4byte	0x69
 305 00ef 03       		.uleb128 0x3
 306 00f0 3A010000 		.4byte	.LASF21
 307 00f4 04       		.byte	0x4
 308 00f5 33       		.byte	0x33
 309 00f6 7B000000 		.4byte	0x7b
 310 00fa 03       		.uleb128 0x3
 311 00fb 1C030000 		.4byte	.LASF22
 312 00ff 04       		.byte	0x4
 313 0100 35       		.byte	0x35
 314 0101 7B000000 		.4byte	0x7b
 315 0105 03       		.uleb128 0x3
 316 0106 D7020000 		.4byte	.LASF23
 317 010a 05       		.byte	0x5
 318 010b 2A       		.byte	0x2a
 319 010c 10010000 		.4byte	0x110
 320 0110 05       		.uleb128 0x5
 321 0111 D7020000 		.4byte	.LASF23
 322 0115 48       		.byte	0x48
 323 0116 06       		.byte	0x6
 324 0117 5E       		.byte	0x5e
 325 0118 35020000 		.4byte	0x235
 326 011c 06       		.uleb128 0x6
 327 011d C8020000 		.4byte	.LASF24
 328 0121 06       		.byte	0x6
 329 0122 5F       		.byte	0x5f
 330 0123 5A020000 		.4byte	0x25a
 331 0127 02       		.byte	0x2
 332 0128 23       		.byte	0x23
 333 0129 00       		.uleb128 0
 334 012a 06       		.uleb128 0x6
 335 012b C3010000 		.4byte	.LASF25
 336 012f 06       		.byte	0x6
ARM GAS  C:\Users\roob\AppData\Local\Temp\ccdZJICl.s 			page 7


 337 0130 61       		.byte	0x61
 338 0131 5A020000 		.4byte	0x25a
 339 0135 02       		.byte	0x2
 340 0136 23       		.byte	0x23
 341 0137 04       		.uleb128 0x4
 342 0138 06       		.uleb128 0x6
 343 0139 3C000000 		.4byte	.LASF26
 344 013d 06       		.byte	0x6
 345 013e 63       		.byte	0x63
 346 013f D9000000 		.4byte	0xd9
 347 0143 02       		.byte	0x2
 348 0144 23       		.byte	0x23
 349 0145 08       		.uleb128 0x8
 350 0146 06       		.uleb128 0x6
 351 0147 96030000 		.4byte	.LASF27
 352 014b 06       		.byte	0x6
 353 014c 64       		.byte	0x64
 354 014d 28030000 		.4byte	0x328
 355 0151 02       		.byte	0x2
 356 0152 23       		.byte	0x23
 357 0153 0C       		.uleb128 0xc
 358 0154 06       		.uleb128 0x6
 359 0155 AA000000 		.4byte	.LASF28
 360 0159 06       		.byte	0x6
 361 015a 66       		.byte	0x66
 362 015b 5A020000 		.4byte	0x25a
 363 015f 02       		.byte	0x2
 364 0160 23       		.byte	0x23
 365 0161 10       		.uleb128 0x10
 366 0162 06       		.uleb128 0x6
 367 0163 72010000 		.4byte	.LASF29
 368 0167 06       		.byte	0x6
 369 0168 67       		.byte	0x67
 370 0169 5A020000 		.4byte	0x25a
 371 016d 02       		.byte	0x2
 372 016e 23       		.byte	0x23
 373 016f 14       		.uleb128 0x14
 374 0170 06       		.uleb128 0x6
 375 0171 87030000 		.4byte	.LASF30
 376 0175 06       		.byte	0x6
 377 0176 6E       		.byte	0x6e
 378 0177 3C040000 		.4byte	0x43c
 379 017b 02       		.byte	0x2
 380 017c 23       		.byte	0x23
 381 017d 18       		.uleb128 0x18
 382 017e 06       		.uleb128 0x6
 383 017f 63020000 		.4byte	.LASF31
 384 0183 06       		.byte	0x6
 385 0184 79       		.byte	0x79
 386 0185 B8000000 		.4byte	0xb8
 387 0189 02       		.byte	0x2
 388 018a 23       		.byte	0x23
 389 018b 1C       		.uleb128 0x1c
 390 018c 06       		.uleb128 0x6
 391 018d CF020000 		.4byte	.LASF32
 392 0191 06       		.byte	0x6
 393 0192 7D       		.byte	0x7d
ARM GAS  C:\Users\roob\AppData\Local\Temp\ccdZJICl.s 			page 8


 394 0193 AD000000 		.4byte	0xad
 395 0197 02       		.byte	0x2
 396 0198 23       		.byte	0x23
 397 0199 1D       		.uleb128 0x1d
 398 019a 06       		.uleb128 0x6
 399 019b 54030000 		.4byte	.LASF33
 400 019f 06       		.byte	0x6
 401 01a0 82       		.byte	0x82
 402 01a1 C3000000 		.4byte	0xc3
 403 01a5 02       		.byte	0x2
 404 01a6 23       		.byte	0x23
 405 01a7 1E       		.uleb128 0x1e
 406 01a8 06       		.uleb128 0x6
 407 01a9 6B020000 		.4byte	.LASF34
 408 01ad 06       		.byte	0x6
 409 01ae 88       		.byte	0x88
 410 01af CE000000 		.4byte	0xce
 411 01b3 02       		.byte	0x2
 412 01b4 23       		.byte	0x23
 413 01b5 1F       		.uleb128 0x1f
 414 01b6 06       		.uleb128 0x6
 415 01b7 31030000 		.4byte	.LASF35
 416 01bb 06       		.byte	0x6
 417 01bc 8F       		.byte	0x8f
 418 01bd 52030000 		.4byte	0x352
 419 01c1 02       		.byte	0x2
 420 01c2 23       		.byte	0x23
 421 01c3 20       		.uleb128 0x20
 422 01c4 07       		.uleb128 0x7
 423 01c5 705F7500 		.ascii	"p_u\000"
 424 01c9 06       		.byte	0x6
 425 01ca B4       		.byte	0xb4
 426 01cb 07040000 		.4byte	0x407
 427 01cf 02       		.byte	0x2
 428 01d0 23       		.byte	0x23
 429 01d1 24       		.uleb128 0x24
 430 01d2 06       		.uleb128 0x6
 431 01d3 9C030000 		.4byte	.LASF36
 432 01d7 06       		.byte	0x6
 433 01d8 B9       		.byte	0xb9
 434 01d9 82020000 		.4byte	0x282
 435 01dd 02       		.byte	0x2
 436 01de 23       		.byte	0x23
 437 01df 28       		.uleb128 0x28
 438 01e0 06       		.uleb128 0x6
 439 01e1 3F030000 		.4byte	.LASF37
 440 01e5 06       		.byte	0x6
 441 01e6 BF       		.byte	0xbf
 442 01e7 60020000 		.4byte	0x260
 443 01eb 02       		.byte	0x2
 444 01ec 23       		.byte	0x23
 445 01ed 2C       		.uleb128 0x2c
 446 01ee 06       		.uleb128 0x6
 447 01ef 08000000 		.4byte	.LASF38
 448 01f3 06       		.byte	0x6
 449 01f4 C3       		.byte	0xc3
 450 01f5 E4000000 		.4byte	0xe4
ARM GAS  C:\Users\roob\AppData\Local\Temp\ccdZJICl.s 			page 9


 451 01f9 02       		.byte	0x2
 452 01fa 23       		.byte	0x23
 453 01fb 34       		.uleb128 0x34
 454 01fc 06       		.uleb128 0x6
 455 01fd F4020000 		.4byte	.LASF39
 456 0201 06       		.byte	0x6
 457 0202 C9       		.byte	0xc9
 458 0203 EF000000 		.4byte	0xef
 459 0207 02       		.byte	0x2
 460 0208 23       		.byte	0x23
 461 0209 38       		.uleb128 0x38
 462 020a 06       		.uleb128 0x6
 463 020b 4F020000 		.4byte	.LASF40
 464 020f 06       		.byte	0x6
 465 0210 D0       		.byte	0xd0
 466 0211 4E040000 		.4byte	0x44e
 467 0215 02       		.byte	0x2
 468 0216 23       		.byte	0x23
 469 0217 3C       		.uleb128 0x3c
 470 0218 06       		.uleb128 0x6
 471 0219 26030000 		.4byte	.LASF41
 472 021d 06       		.byte	0x6
 473 021e D4       		.byte	0xd4
 474 021f D9000000 		.4byte	0xd9
 475 0223 02       		.byte	0x2
 476 0224 23       		.byte	0x23
 477 0225 40       		.uleb128 0x40
 478 0226 06       		.uleb128 0x6
 479 0227 5D000000 		.4byte	.LASF42
 480 022b 06       		.byte	0x6
 481 022c DA       		.byte	0xda
 482 022d 98020000 		.4byte	0x298
 483 0231 02       		.byte	0x2
 484 0232 23       		.byte	0x23
 485 0233 44       		.uleb128 0x44
 486 0234 00       		.byte	0
 487 0235 08       		.uleb128 0x8
 488 0236 08       		.byte	0x8
 489 0237 05       		.byte	0x5
 490 0238 61       		.byte	0x61
 491 0239 5A020000 		.4byte	0x25a
 492 023d 06       		.uleb128 0x6
 493 023e C8020000 		.4byte	.LASF24
 494 0242 05       		.byte	0x5
 495 0243 62       		.byte	0x62
 496 0244 5A020000 		.4byte	0x25a
 497 0248 02       		.byte	0x2
 498 0249 23       		.byte	0x23
 499 024a 00       		.uleb128 0
 500 024b 06       		.uleb128 0x6
 501 024c C3010000 		.4byte	.LASF25
 502 0250 05       		.byte	0x5
 503 0251 64       		.byte	0x64
 504 0252 5A020000 		.4byte	0x25a
 505 0256 02       		.byte	0x2
 506 0257 23       		.byte	0x23
 507 0258 04       		.uleb128 0x4
ARM GAS  C:\Users\roob\AppData\Local\Temp\ccdZJICl.s 			page 10


 508 0259 00       		.byte	0
 509 025a 09       		.uleb128 0x9
 510 025b 04       		.byte	0x4
 511 025c 05010000 		.4byte	0x105
 512 0260 03       		.uleb128 0x3
 513 0261 80010000 		.4byte	.LASF43
 514 0265 05       		.byte	0x5
 515 0266 66       		.byte	0x66
 516 0267 35020000 		.4byte	0x235
 517 026b 08       		.uleb128 0x8
 518 026c 04       		.byte	0x4
 519 026d 05       		.byte	0x5
 520 026e 6B       		.byte	0x6b
 521 026f 82020000 		.4byte	0x282
 522 0273 06       		.uleb128 0x6
 523 0274 C8020000 		.4byte	.LASF24
 524 0278 05       		.byte	0x5
 525 0279 6D       		.byte	0x6d
 526 027a 5A020000 		.4byte	0x25a
 527 027e 02       		.byte	0x2
 528 027f 23       		.byte	0x23
 529 0280 00       		.uleb128 0
 530 0281 00       		.byte	0
 531 0282 03       		.uleb128 0x3
 532 0283 2E010000 		.4byte	.LASF44
 533 0287 05       		.byte	0x5
 534 0288 70       		.byte	0x70
 535 0289 6B020000 		.4byte	0x26b
 536 028d 03       		.uleb128 0x3
 537 028e BA000000 		.4byte	.LASF45
 538 0292 07       		.byte	0x7
 539 0293 E5       		.byte	0xe5
 540 0294 98020000 		.4byte	0x298
 541 0298 0A       		.uleb128 0xa
 542 0299 04       		.byte	0x4
 543 029a 0B       		.uleb128 0xb
 544 029b 38030000 		.4byte	.LASF46
 545 029f 24       		.byte	0x24
 546 02a0 07       		.byte	0x7
 547 02a1 0C01     		.2byte	0x10c
 548 02a3 28030000 		.4byte	0x328
 549 02a7 0C       		.uleb128 0xc
 550 02a8 723400   		.ascii	"r4\000"
 551 02ab 07       		.byte	0x7
 552 02ac 1F01     		.2byte	0x11f
 553 02ae 8D020000 		.4byte	0x28d
 554 02b2 02       		.byte	0x2
 555 02b3 23       		.byte	0x23
 556 02b4 00       		.uleb128 0
 557 02b5 0C       		.uleb128 0xc
 558 02b6 723500   		.ascii	"r5\000"
 559 02b9 07       		.byte	0x7
 560 02ba 2001     		.2byte	0x120
 561 02bc 8D020000 		.4byte	0x28d
 562 02c0 02       		.byte	0x2
 563 02c1 23       		.byte	0x23
 564 02c2 04       		.uleb128 0x4
ARM GAS  C:\Users\roob\AppData\Local\Temp\ccdZJICl.s 			page 11


 565 02c3 0C       		.uleb128 0xc
 566 02c4 723600   		.ascii	"r6\000"
 567 02c7 07       		.byte	0x7
 568 02c8 2101     		.2byte	0x121
 569 02ca 8D020000 		.4byte	0x28d
 570 02ce 02       		.byte	0x2
 571 02cf 23       		.byte	0x23
 572 02d0 08       		.uleb128 0x8
 573 02d1 0C       		.uleb128 0xc
 574 02d2 723700   		.ascii	"r7\000"
 575 02d5 07       		.byte	0x7
 576 02d6 2201     		.2byte	0x122
 577 02d8 8D020000 		.4byte	0x28d
 578 02dc 02       		.byte	0x2
 579 02dd 23       		.byte	0x23
 580 02de 0C       		.uleb128 0xc
 581 02df 0C       		.uleb128 0xc
 582 02e0 723800   		.ascii	"r8\000"
 583 02e3 07       		.byte	0x7
 584 02e4 2301     		.2byte	0x123
 585 02e6 8D020000 		.4byte	0x28d
 586 02ea 02       		.byte	0x2
 587 02eb 23       		.byte	0x23
 588 02ec 10       		.uleb128 0x10
 589 02ed 0C       		.uleb128 0xc
 590 02ee 723900   		.ascii	"r9\000"
 591 02f1 07       		.byte	0x7
 592 02f2 2401     		.2byte	0x124
 593 02f4 8D020000 		.4byte	0x28d
 594 02f8 02       		.byte	0x2
 595 02f9 23       		.byte	0x23
 596 02fa 14       		.uleb128 0x14
 597 02fb 0C       		.uleb128 0xc
 598 02fc 72313000 		.ascii	"r10\000"
 599 0300 07       		.byte	0x7
 600 0301 2501     		.2byte	0x125
 601 0303 8D020000 		.4byte	0x28d
 602 0307 02       		.byte	0x2
 603 0308 23       		.byte	0x23
 604 0309 18       		.uleb128 0x18
 605 030a 0C       		.uleb128 0xc
 606 030b 72313100 		.ascii	"r11\000"
 607 030f 07       		.byte	0x7
 608 0310 2601     		.2byte	0x126
 609 0312 8D020000 		.4byte	0x28d
 610 0316 02       		.byte	0x2
 611 0317 23       		.byte	0x23
 612 0318 1C       		.uleb128 0x1c
 613 0319 0C       		.uleb128 0xc
 614 031a 6C7200   		.ascii	"lr\000"
 615 031d 07       		.byte	0x7
 616 031e 2701     		.2byte	0x127
 617 0320 8D020000 		.4byte	0x28d
 618 0324 02       		.byte	0x2
 619 0325 23       		.byte	0x23
 620 0326 20       		.uleb128 0x20
 621 0327 00       		.byte	0
ARM GAS  C:\Users\roob\AppData\Local\Temp\ccdZJICl.s 			page 12


 622 0328 0B       		.uleb128 0xb
 623 0329 F0000000 		.4byte	.LASF47
 624 032d 04       		.byte	0x4
 625 032e 07       		.byte	0x7
 626 032f 3101     		.2byte	0x131
 627 0331 45030000 		.4byte	0x345
 628 0335 0C       		.uleb128 0xc
 629 0336 72313300 		.ascii	"r13\000"
 630 033a 07       		.byte	0x7
 631 033b 3201     		.2byte	0x132
 632 033d 45030000 		.4byte	0x345
 633 0341 02       		.byte	0x2
 634 0342 23       		.byte	0x23
 635 0343 00       		.uleb128 0
 636 0344 00       		.byte	0
 637 0345 09       		.uleb128 0x9
 638 0346 04       		.byte	0x4
 639 0347 9A020000 		.4byte	0x29a
 640 034b 04       		.uleb128 0x4
 641 034c 04       		.byte	0x4
 642 034d 07       		.byte	0x7
 643 034e 69010000 		.4byte	.LASF48
 644 0352 0D       		.uleb128 0xd
 645 0353 FA000000 		.4byte	0xfa
 646 0357 08       		.uleb128 0x8
 647 0358 1C       		.byte	0x1c
 648 0359 08       		.byte	0x8
 649 035a 5E       		.byte	0x5e
 650 035b B4030000 		.4byte	0x3b4
 651 035f 06       		.uleb128 0x6
 652 0360 08030000 		.4byte	.LASF49
 653 0364 08       		.byte	0x8
 654 0365 5F       		.byte	0x5f
 655 0366 60020000 		.4byte	0x260
 656 036a 02       		.byte	0x2
 657 036b 23       		.byte	0x23
 658 036c 00       		.uleb128 0
 659 036d 06       		.uleb128 0x6
 660 036e 7D020000 		.4byte	.LASF50
 661 0372 08       		.byte	0x8
 662 0373 60       		.byte	0x60
 663 0374 D9000000 		.4byte	0xd9
 664 0378 02       		.byte	0x2
 665 0379 23       		.byte	0x23
 666 037a 08       		.uleb128 0x8
 667 037b 06       		.uleb128 0x6
 668 037c 7A010000 		.4byte	.LASF51
 669 0380 08       		.byte	0x8
 670 0381 62       		.byte	0x62
 671 0382 28030000 		.4byte	0x328
 672 0386 02       		.byte	0x2
 673 0387 23       		.byte	0x23
 674 0388 0C       		.uleb128 0xc
 675 0389 06       		.uleb128 0x6
 676 038a B2000000 		.4byte	.LASF52
 677 038e 08       		.byte	0x8
 678 038f 65       		.byte	0x65
ARM GAS  C:\Users\roob\AppData\Local\Temp\ccdZJICl.s 			page 13


 679 0390 5A020000 		.4byte	0x25a
 680 0394 02       		.byte	0x2
 681 0395 23       		.byte	0x23
 682 0396 10       		.uleb128 0x10
 683 0397 06       		.uleb128 0x6
 684 0398 B3010000 		.4byte	.LASF53
 685 039c 08       		.byte	0x8
 686 039d 66       		.byte	0x66
 687 039e 5A020000 		.4byte	0x25a
 688 03a2 02       		.byte	0x2
 689 03a3 23       		.byte	0x23
 690 03a4 14       		.uleb128 0x14
 691 03a5 06       		.uleb128 0x6
 692 03a6 A9010000 		.4byte	.LASF54
 693 03aa 08       		.byte	0x8
 694 03ab 69       		.byte	0x69
 695 03ac 5A020000 		.4byte	0x25a
 696 03b0 02       		.byte	0x2
 697 03b1 23       		.byte	0x23
 698 03b2 18       		.uleb128 0x18
 699 03b3 00       		.byte	0
 700 03b4 03       		.uleb128 0x3
 701 03b5 5B030000 		.4byte	.LASF55
 702 03b9 08       		.byte	0x8
 703 03ba 6B       		.byte	0x6b
 704 03bb 57030000 		.4byte	0x357
 705 03bf 05       		.uleb128 0x5
 706 03c0 46010000 		.4byte	.LASF56
 707 03c4 10       		.byte	0x10
 708 03c5 09       		.byte	0x9
 709 03c6 2C       		.byte	0x2c
 710 03c7 F6030000 		.4byte	0x3f6
 711 03cb 06       		.uleb128 0x6
 712 03cc 6C000000 		.4byte	.LASF57
 713 03d0 09       		.byte	0x9
 714 03d1 2D       		.byte	0x2d
 715 03d2 60020000 		.4byte	0x260
 716 03d6 02       		.byte	0x2
 717 03d7 23       		.byte	0x23
 718 03d8 00       		.uleb128 0
 719 03d9 06       		.uleb128 0x6
 720 03da 8E030000 		.4byte	.LASF58
 721 03de 09       		.byte	0x9
 722 03df 2F       		.byte	0x2f
 723 03e0 5A020000 		.4byte	0x25a
 724 03e4 02       		.byte	0x2
 725 03e5 23       		.byte	0x23
 726 03e6 08       		.uleb128 0x8
 727 03e7 06       		.uleb128 0x6
 728 03e8 15030000 		.4byte	.LASF59
 729 03ec 09       		.byte	0x9
 730 03ed 31       		.byte	0x31
 731 03ee F6030000 		.4byte	0x3f6
 732 03f2 02       		.byte	0x2
 733 03f3 23       		.byte	0x23
 734 03f4 0C       		.uleb128 0xc
 735 03f5 00       		.byte	0
ARM GAS  C:\Users\roob\AppData\Local\Temp\ccdZJICl.s 			page 14


 736 03f6 09       		.uleb128 0x9
 737 03f7 04       		.byte	0x4
 738 03f8 BF030000 		.4byte	0x3bf
 739 03fc 03       		.uleb128 0x3
 740 03fd 46010000 		.4byte	.LASF56
 741 0401 09       		.byte	0x9
 742 0402 33       		.byte	0x33
 743 0403 BF030000 		.4byte	0x3bf
 744 0407 0E       		.uleb128 0xe
 745 0408 04       		.byte	0x4
 746 0409 06       		.byte	0x6
 747 040a 96       		.byte	0x96
 748 040b 3C040000 		.4byte	0x43c
 749 040f 0F       		.uleb128 0xf
 750 0410 15000000 		.4byte	.LASF60
 751 0414 06       		.byte	0x6
 752 0415 9D       		.byte	0x9d
 753 0416 E4000000 		.4byte	0xe4
 754 041a 0F       		.uleb128 0xf
 755 041b 33000000 		.4byte	.LASF61
 756 041f 06       		.byte	0x6
 757 0420 A4       		.byte	0xa4
 758 0421 E4000000 		.4byte	0xe4
 759 0425 0F       		.uleb128 0xf
 760 0426 80030000 		.4byte	.LASF62
 761 042a 06       		.byte	0x6
 762 042b AB       		.byte	0xab
 763 042c 98020000 		.4byte	0x298
 764 0430 0F       		.uleb128 0xf
 765 0431 C1020000 		.4byte	.LASF63
 766 0435 06       		.byte	0x6
 767 0436 B2       		.byte	0xb2
 768 0437 EF000000 		.4byte	0xef
 769 043b 00       		.byte	0
 770 043c 09       		.uleb128 0x9
 771 043d 04       		.byte	0x4
 772 043e 42040000 		.4byte	0x442
 773 0442 10       		.uleb128 0x10
 774 0443 47040000 		.4byte	0x447
 775 0447 04       		.uleb128 0x4
 776 0448 01       		.byte	0x1
 777 0449 08       		.byte	0x8
 778 044a 10030000 		.4byte	.LASF64
 779 044e 09       		.uleb128 0x9
 780 044f 04       		.byte	0x4
 781 0450 FC030000 		.4byte	0x3fc
 782 0454 03       		.uleb128 0x3
 783 0455 00000000 		.4byte	.LASF65
 784 0459 06       		.byte	0x6
 785 045a E5       		.byte	0xe5
 786 045b 5F040000 		.4byte	0x45f
 787 045f 09       		.uleb128 0x9
 788 0460 04       		.byte	0x4
 789 0461 65040000 		.4byte	0x465
 790 0465 11       		.uleb128 0x11
 791 0466 01       		.byte	0x1
 792 0467 E4000000 		.4byte	0xe4
ARM GAS  C:\Users\roob\AppData\Local\Temp\ccdZJICl.s 			page 15


 793 046b 75040000 		.4byte	0x475
 794 046f 12       		.uleb128 0x12
 795 0470 98020000 		.4byte	0x298
 796 0474 00       		.byte	0
 797 0475 05       		.uleb128 0x5
 798 0476 EB020000 		.4byte	.LASF66
 799 047a 10       		.byte	0x10
 800 047b 0A       		.byte	0xa
 801 047c 3B       		.byte	0x3b
 802 047d BA040000 		.4byte	0x4ba
 803 0481 06       		.uleb128 0x6
 804 0482 EB000000 		.4byte	.LASF67
 805 0486 0A       		.byte	0xa
 806 0487 3C       		.byte	0x3c
 807 0488 3C040000 		.4byte	0x43c
 808 048c 02       		.byte	0x2
 809 048d 23       		.byte	0x23
 810 048e 00       		.uleb128 0
 811 048f 06       		.uleb128 0x6
 812 0490 8D010000 		.4byte	.LASF68
 813 0494 0A       		.byte	0xa
 814 0495 3D       		.byte	0x3d
 815 0496 BC040000 		.4byte	0x4bc
 816 049a 02       		.byte	0x2
 817 049b 23       		.byte	0x23
 818 049c 04       		.uleb128 0x4
 819 049d 06       		.uleb128 0x6
 820 049e E2000000 		.4byte	.LASF69
 821 04a2 0A       		.byte	0xa
 822 04a3 3E       		.byte	0x3e
 823 04a4 BC040000 		.4byte	0x4bc
 824 04a8 02       		.byte	0x2
 825 04a9 23       		.byte	0x23
 826 04aa 08       		.uleb128 0x8
 827 04ab 06       		.uleb128 0x6
 828 04ac CA010000 		.4byte	.LASF70
 829 04b0 0A       		.byte	0xa
 830 04b1 3F       		.byte	0x3f
 831 04b2 BC040000 		.4byte	0x4bc
 832 04b6 02       		.byte	0x2
 833 04b7 23       		.byte	0x23
 834 04b8 0C       		.uleb128 0xc
 835 04b9 00       		.byte	0
 836 04ba 13       		.uleb128 0x13
 837 04bb 01       		.byte	0x1
 838 04bc 09       		.uleb128 0x9
 839 04bd 04       		.byte	0x4
 840 04be BA040000 		.4byte	0x4ba
 841 04c2 14       		.uleb128 0x14
 842 04c3 73030000 		.4byte	.LASF83
 843 04c7 01       		.byte	0x1
 844 04c8 43       		.byte	0x43
 845 04c9 01       		.byte	0x1
 846 04ca 00000000 		.4byte	.LFB8
 847 04ce 82000000 		.4byte	.LFE8
 848 04d2 00000000 		.4byte	.LLST0
 849 04d6 01       		.byte	0x1
ARM GAS  C:\Users\roob\AppData\Local\Temp\ccdZJICl.s 			page 16


 850 04d7 C7050000 		.4byte	0x5c7
 851 04db 15       		.uleb128 0x15
 852 04dc 747000   		.ascii	"tp\000"
 853 04df 01       		.byte	0x1
 854 04e0 44       		.byte	0x44
 855 04e1 5A020000 		.4byte	0x25a
 856 04e5 2C000000 		.4byte	.LLST1
 857 04e9 16       		.uleb128 0x16
 858 04ea 6D736700 		.ascii	"msg\000"
 859 04ee 01       		.byte	0x1
 860 04ef 45       		.byte	0x45
 861 04f0 E4000000 		.4byte	0xe4
 862 04f4 01       		.byte	0x1
 863 04f5 54       		.byte	0x54
 864 04f6 17       		.uleb128 0x17
 865 04f7 2E000000 		.4byte	.LVL0
 866 04fb C6060000 		.4byte	0x6c6
 867 04ff 1A050000 		.4byte	0x51a
 868 0503 18       		.uleb128 0x18
 869 0504 01       		.byte	0x1
 870 0505 53       		.byte	0x53
 871 0506 05       		.byte	0x5
 872 0507 03       		.byte	0x3
 873 0508 00000000 		.4byte	thread
 874 050c 18       		.uleb128 0x18
 875 050d 01       		.byte	0x1
 876 050e 52       		.byte	0x52
 877 050f 02       		.byte	0x2
 878 0510 74       		.byte	0x74
 879 0511 01       		.sleb128 1
 880 0512 18       		.uleb128 0x18
 881 0513 01       		.byte	0x1
 882 0514 51       		.byte	0x51
 883 0515 03       		.byte	0x3
 884 0516 0A       		.byte	0xa
 885 0517 3001     		.2byte	0x130
 886 0519 00       		.byte	0
 887 051a 19       		.uleb128 0x19
 888 051b 3C000000 		.4byte	.LVL1
 889 051f F3060000 		.4byte	0x6f3
 890 0523 17       		.uleb128 0x17
 891 0524 44000000 		.4byte	.LVL3
 892 0528 01070000 		.4byte	0x701
 893 052c 37050000 		.4byte	0x537
 894 0530 18       		.uleb128 0x18
 895 0531 01       		.byte	0x1
 896 0532 51       		.byte	0x51
 897 0533 02       		.byte	0x2
 898 0534 74       		.byte	0x74
 899 0535 00       		.sleb128 0
 900 0536 00       		.byte	0
 901 0537 17       		.uleb128 0x17
 902 0538 4A000000 		.4byte	.LVL4
 903 053c 1A070000 		.4byte	0x71a
 904 0540 4B050000 		.4byte	0x54b
 905 0544 18       		.uleb128 0x18
 906 0545 01       		.byte	0x1
ARM GAS  C:\Users\roob\AppData\Local\Temp\ccdZJICl.s 			page 17


 907 0546 50       		.byte	0x50
 908 0547 02       		.byte	0x2
 909 0548 74       		.byte	0x74
 910 0549 00       		.sleb128 0
 911 054a 00       		.byte	0
 912 054b 19       		.uleb128 0x19
 913 054c 4E000000 		.4byte	.LVL5
 914 0550 F3060000 		.4byte	0x6f3
 915 0554 17       		.uleb128 0x17
 916 0555 56000000 		.4byte	.LVL7
 917 0559 01070000 		.4byte	0x701
 918 055d 68050000 		.4byte	0x568
 919 0561 18       		.uleb128 0x18
 920 0562 01       		.byte	0x1
 921 0563 51       		.byte	0x51
 922 0564 02       		.byte	0x2
 923 0565 74       		.byte	0x74
 924 0566 00       		.sleb128 0
 925 0567 00       		.byte	0
 926 0568 17       		.uleb128 0x17
 927 0569 5C000000 		.4byte	.LVL8
 928 056d 1A070000 		.4byte	0x71a
 929 0571 7C050000 		.4byte	0x57c
 930 0575 18       		.uleb128 0x18
 931 0576 01       		.byte	0x1
 932 0577 50       		.byte	0x50
 933 0578 02       		.byte	0x2
 934 0579 74       		.byte	0x74
 935 057a 00       		.sleb128 0
 936 057b 00       		.byte	0
 937 057c 19       		.uleb128 0x19
 938 057d 60000000 		.4byte	.LVL9
 939 0581 F3060000 		.4byte	0x6f3
 940 0585 17       		.uleb128 0x17
 941 0586 68000000 		.4byte	.LVL11
 942 058a 01070000 		.4byte	0x701
 943 058e 99050000 		.4byte	0x599
 944 0592 18       		.uleb128 0x18
 945 0593 01       		.byte	0x1
 946 0594 51       		.byte	0x51
 947 0595 02       		.byte	0x2
 948 0596 74       		.byte	0x74
 949 0597 00       		.sleb128 0
 950 0598 00       		.byte	0
 951 0599 17       		.uleb128 0x17
 952 059a 6E000000 		.4byte	.LVL12
 953 059e 1A070000 		.4byte	0x71a
 954 05a2 AD050000 		.4byte	0x5ad
 955 05a6 18       		.uleb128 0x18
 956 05a7 01       		.byte	0x1
 957 05a8 50       		.byte	0x50
 958 05a9 02       		.byte	0x2
 959 05aa 74       		.byte	0x74
 960 05ab 00       		.sleb128 0
 961 05ac 00       		.byte	0
 962 05ad 1A       		.uleb128 0x1a
 963 05ae 82000000 		.4byte	.LVL13
ARM GAS  C:\Users\roob\AppData\Local\Temp\ccdZJICl.s 			page 18


 964 05b2 01       		.byte	0x1
 965 05b3 2E070000 		.4byte	0x72e
 966 05b7 18       		.uleb128 0x18
 967 05b8 01       		.byte	0x1
 968 05b9 51       		.byte	0x51
 969 05ba 05       		.byte	0x5
 970 05bb 03       		.byte	0x3
 971 05bc 00000000 		.4byte	.LC0
 972 05c0 18       		.uleb128 0x18
 973 05c1 01       		.byte	0x1
 974 05c2 50       		.byte	0x50
 975 05c3 01       		.byte	0x1
 976 05c4 31       		.byte	0x31
 977 05c5 00       		.byte	0
 978 05c6 00       		.byte	0
 979 05c7 1B       		.uleb128 0x1b
 980 05c8 23020000 		.4byte	.LASF84
 981 05cc 01       		.byte	0x1
 982 05cd 3B       		.byte	0x3b
 983 05ce 01       		.byte	0x1
 984 05cf E4000000 		.4byte	0xe4
 985 05d3 00000000 		.4byte	.LFB7
 986 05d7 1E000000 		.4byte	.LFE7
 987 05db 55000000 		.4byte	.LLST2
 988 05df 01       		.byte	0x1
 989 05e0 3C060000 		.4byte	0x63c
 990 05e4 1C       		.uleb128 0x1c
 991 05e5 7000     		.ascii	"p\000"
 992 05e7 01       		.byte	0x1
 993 05e8 3B       		.byte	0x3b
 994 05e9 98020000 		.4byte	0x298
 995 05ed 75000000 		.4byte	.LLST3
 996 05f1 17       		.uleb128 0x17
 997 05f2 0A000000 		.4byte	.LVL15
 998 05f6 51070000 		.4byte	0x751
 999 05fa 0B060000 		.4byte	0x60b
 1000 05fe 18       		.uleb128 0x18
 1001 05ff 01       		.byte	0x1
 1002 0600 51       		.byte	0x51
 1003 0601 02       		.byte	0x2
 1004 0602 08       		.byte	0x8
 1005 0603 41       		.byte	0x41
 1006 0604 18       		.uleb128 0x18
 1007 0605 01       		.byte	0x1
 1008 0606 50       		.byte	0x50
 1009 0607 02       		.byte	0x2
 1010 0608 74       		.byte	0x74
 1011 0609 00       		.sleb128 0
 1012 060a 00       		.byte	0
 1013 060b 17       		.uleb128 0x17
 1014 060c 12000000 		.4byte	.LVL16
 1015 0610 51070000 		.4byte	0x751
 1016 0614 25060000 		.4byte	0x625
 1017 0618 18       		.uleb128 0x18
 1018 0619 01       		.byte	0x1
 1019 061a 51       		.byte	0x51
 1020 061b 02       		.byte	0x2
ARM GAS  C:\Users\roob\AppData\Local\Temp\ccdZJICl.s 			page 19


 1021 061c 08       		.byte	0x8
 1022 061d 42       		.byte	0x42
 1023 061e 18       		.uleb128 0x18
 1024 061f 01       		.byte	0x1
 1025 0620 50       		.byte	0x50
 1026 0621 02       		.byte	0x2
 1027 0622 74       		.byte	0x74
 1028 0623 00       		.sleb128 0
 1029 0624 00       		.byte	0
 1030 0625 1D       		.uleb128 0x1d
 1031 0626 1A000000 		.4byte	.LVL17
 1032 062a 51070000 		.4byte	0x751
 1033 062e 18       		.uleb128 0x18
 1034 062f 01       		.byte	0x1
 1035 0630 51       		.byte	0x51
 1036 0631 02       		.byte	0x2
 1037 0632 08       		.byte	0x8
 1038 0633 43       		.byte	0x43
 1039 0634 18       		.uleb128 0x18
 1040 0635 01       		.byte	0x1
 1041 0636 50       		.byte	0x50
 1042 0637 02       		.byte	0x2
 1043 0638 74       		.byte	0x74
 1044 0639 00       		.sleb128 0
 1045 063a 00       		.byte	0
 1046 063b 00       		.byte	0
 1047 063c 1E       		.uleb128 0x1e
 1048 063d 65030000 		.4byte	.LASF71
 1049 0641 08       		.byte	0x8
 1050 0642 6F       		.byte	0x6f
 1051 0643 B4030000 		.4byte	0x3b4
 1052 0647 01       		.byte	0x1
 1053 0648 01       		.byte	0x1
 1054 0649 1F       		.uleb128 0x1f
 1055 064a 5A020000 		.4byte	0x25a
 1056 064e 59060000 		.4byte	0x659
 1057 0652 20       		.uleb128 0x20
 1058 0653 4B030000 		.4byte	0x34b
 1059 0657 04       		.byte	0x4
 1060 0658 00       		.byte	0
 1061 0659 1E       		.uleb128 0x1e
 1062 065a 75020000 		.4byte	.LASF72
 1063 065e 0A       		.byte	0xa
 1064 065f A5       		.byte	0xa5
 1065 0660 49060000 		.4byte	0x649
 1066 0664 01       		.byte	0x1
 1067 0665 01       		.byte	0x1
 1068 0666 1F       		.uleb128 0x1f
 1069 0667 98020000 		.4byte	0x298
 1070 066b 71060000 		.4byte	0x671
 1071 066f 21       		.uleb128 0x21
 1072 0670 00       		.byte	0
 1073 0671 22       		.uleb128 0x22
 1074 0672 776100   		.ascii	"wa\000"
 1075 0675 0A       		.byte	0xa
 1076 0676 A7       		.byte	0xa7
 1077 0677 7D060000 		.4byte	0x67d
ARM GAS  C:\Users\roob\AppData\Local\Temp\ccdZJICl.s 			page 20


 1078 067b 01       		.byte	0x1
 1079 067c 01       		.byte	0x1
 1080 067d 10       		.uleb128 0x10
 1081 067e 66060000 		.4byte	0x666
 1082 0682 23       		.uleb128 0x23
 1083 0683 46020000 		.4byte	.LASF73
 1084 0687 01       		.byte	0x1
 1085 0688 5B       		.byte	0x5b
 1086 0689 94060000 		.4byte	0x694
 1087 068d 01       		.byte	0x1
 1088 068e 05       		.byte	0x5
 1089 068f 03       		.byte	0x3
 1090 0690 00000000 		.4byte	testmsg1
 1091 0694 10       		.uleb128 0x10
 1092 0695 75040000 		.4byte	0x475
 1093 0699 1F       		.uleb128 0x1f
 1094 069a A9060000 		.4byte	0x6a9
 1095 069e A9060000 		.4byte	0x6a9
 1096 06a2 20       		.uleb128 0x20
 1097 06a3 4B030000 		.4byte	0x34b
 1098 06a7 01       		.byte	0x1
 1099 06a8 00       		.byte	0
 1100 06a9 09       		.uleb128 0x9
 1101 06aa 04       		.byte	0x4
 1102 06ab 94060000 		.4byte	0x694
 1103 06af 23       		.uleb128 0x23
 1104 06b0 5E010000 		.4byte	.LASF74
 1105 06b4 01       		.byte	0x1
 1106 06b5 67       		.byte	0x67
 1107 06b6 C1060000 		.4byte	0x6c1
 1108 06ba 01       		.byte	0x1
 1109 06bb 05       		.byte	0x5
 1110 06bc 03       		.byte	0x3
 1111 06bd 00000000 		.4byte	patternmsg
 1112 06c1 10       		.uleb128 0x10
 1113 06c2 99060000 		.4byte	0x699
 1114 06c6 24       		.uleb128 0x24
 1115 06c7 01       		.byte	0x1
 1116 06c8 4C010000 		.4byte	.LASF77
 1117 06cc 06       		.byte	0x6
 1118 06cd 7001     		.2byte	0x170
 1119 06cf 01       		.byte	0x1
 1120 06d0 5A020000 		.4byte	0x25a
 1121 06d4 01       		.byte	0x1
 1122 06d5 F3060000 		.4byte	0x6f3
 1123 06d9 12       		.uleb128 0x12
 1124 06da 98020000 		.4byte	0x298
 1125 06de 12       		.uleb128 0x12
 1126 06df 30000000 		.4byte	0x30
 1127 06e3 12       		.uleb128 0x12
 1128 06e4 D9000000 		.4byte	0xd9
 1129 06e8 12       		.uleb128 0x12
 1130 06e9 54040000 		.4byte	0x454
 1131 06ed 12       		.uleb128 0x12
 1132 06ee 98020000 		.4byte	0x298
 1133 06f2 00       		.byte	0
 1134 06f3 25       		.uleb128 0x25
ARM GAS  C:\Users\roob\AppData\Local\Temp\ccdZJICl.s 			page 21


 1135 06f4 01       		.byte	0x1
 1136 06f5 4A030000 		.4byte	.LASF85
 1137 06f9 0B       		.byte	0xb
 1138 06fa 52       		.byte	0x52
 1139 06fb 01       		.byte	0x1
 1140 06fc 5A020000 		.4byte	0x25a
 1141 0700 01       		.byte	0x1
 1142 0701 26       		.uleb128 0x26
 1143 0702 01       		.byte	0x1
 1144 0703 DE020000 		.4byte	.LASF75
 1145 0707 0B       		.byte	0xb
 1146 0708 53       		.byte	0x53
 1147 0709 01       		.byte	0x1
 1148 070a 01       		.byte	0x1
 1149 070b 1A070000 		.4byte	0x71a
 1150 070f 12       		.uleb128 0x12
 1151 0710 5A020000 		.4byte	0x25a
 1152 0714 12       		.uleb128 0x12
 1153 0715 E4000000 		.4byte	0xe4
 1154 0719 00       		.byte	0
 1155 071a 26       		.uleb128 0x26
 1156 071b 01       		.byte	0x1
 1157 071c 74000000 		.4byte	.LASF76
 1158 0720 0A       		.byte	0xa
 1159 0721 56       		.byte	0x56
 1160 0722 01       		.byte	0x1
 1161 0723 01       		.byte	0x1
 1162 0724 2E070000 		.4byte	0x72e
 1163 0728 12       		.uleb128 0x12
 1164 0729 47040000 		.4byte	0x447
 1165 072d 00       		.byte	0
 1166 072e 27       		.uleb128 0x27
 1167 072f 01       		.byte	0x1
 1168 0730 93010000 		.4byte	.LASF78
 1169 0734 0A       		.byte	0xa
 1170 0735 59       		.byte	0x59
 1171 0736 01       		.byte	0x1
 1172 0737 9B000000 		.4byte	0x9b
 1173 073b 01       		.byte	0x1
 1174 073c 4B070000 		.4byte	0x74b
 1175 0740 12       		.uleb128 0x12
 1176 0741 3B000000 		.4byte	0x3b
 1177 0745 12       		.uleb128 0x12
 1178 0746 4B070000 		.4byte	0x74b
 1179 074a 00       		.byte	0
 1180 074b 09       		.uleb128 0x9
 1181 074c 04       		.byte	0x4
 1182 074d 47040000 		.4byte	0x447
 1183 0751 28       		.uleb128 0x28
 1184 0752 01       		.byte	0x1
 1185 0753 97000000 		.4byte	.LASF79
 1186 0757 0B       		.byte	0xb
 1187 0758 51       		.byte	0x51
 1188 0759 01       		.byte	0x1
 1189 075a E4000000 		.4byte	0xe4
 1190 075e 01       		.byte	0x1
 1191 075f 12       		.uleb128 0x12
ARM GAS  C:\Users\roob\AppData\Local\Temp\ccdZJICl.s 			page 22


 1192 0760 5A020000 		.4byte	0x25a
 1193 0764 12       		.uleb128 0x12
 1194 0765 E4000000 		.4byte	0xe4
 1195 0769 00       		.byte	0
 1196 076a 00       		.byte	0
 1197              		.section	.debug_abbrev,"",%progbits
 1198              	.Ldebug_abbrev0:
 1199 0000 01       		.uleb128 0x1
 1200 0001 11       		.uleb128 0x11
 1201 0002 01       		.byte	0x1
 1202 0003 25       		.uleb128 0x25
 1203 0004 0E       		.uleb128 0xe
 1204 0005 13       		.uleb128 0x13
 1205 0006 0B       		.uleb128 0xb
 1206 0007 03       		.uleb128 0x3
 1207 0008 0E       		.uleb128 0xe
 1208 0009 1B       		.uleb128 0x1b
 1209 000a 0E       		.uleb128 0xe
 1210 000b 55       		.uleb128 0x55
 1211 000c 06       		.uleb128 0x6
 1212 000d 11       		.uleb128 0x11
 1213 000e 01       		.uleb128 0x1
 1214 000f 52       		.uleb128 0x52
 1215 0010 01       		.uleb128 0x1
 1216 0011 10       		.uleb128 0x10
 1217 0012 06       		.uleb128 0x6
 1218 0013 00       		.byte	0
 1219 0014 00       		.byte	0
 1220 0015 02       		.uleb128 0x2
 1221 0016 24       		.uleb128 0x24
 1222 0017 00       		.byte	0
 1223 0018 0B       		.uleb128 0xb
 1224 0019 0B       		.uleb128 0xb
 1225 001a 3E       		.uleb128 0x3e
 1226 001b 0B       		.uleb128 0xb
 1227 001c 03       		.uleb128 0x3
 1228 001d 08       		.uleb128 0x8
 1229 001e 00       		.byte	0
 1230 001f 00       		.byte	0
 1231 0020 03       		.uleb128 0x3
 1232 0021 16       		.uleb128 0x16
 1233 0022 00       		.byte	0
 1234 0023 03       		.uleb128 0x3
 1235 0024 0E       		.uleb128 0xe
 1236 0025 3A       		.uleb128 0x3a
 1237 0026 0B       		.uleb128 0xb
 1238 0027 3B       		.uleb128 0x3b
 1239 0028 0B       		.uleb128 0xb
 1240 0029 49       		.uleb128 0x49
 1241 002a 13       		.uleb128 0x13
 1242 002b 00       		.byte	0
 1243 002c 00       		.byte	0
 1244 002d 04       		.uleb128 0x4
 1245 002e 24       		.uleb128 0x24
 1246 002f 00       		.byte	0
 1247 0030 0B       		.uleb128 0xb
 1248 0031 0B       		.uleb128 0xb
ARM GAS  C:\Users\roob\AppData\Local\Temp\ccdZJICl.s 			page 23


 1249 0032 3E       		.uleb128 0x3e
 1250 0033 0B       		.uleb128 0xb
 1251 0034 03       		.uleb128 0x3
 1252 0035 0E       		.uleb128 0xe
 1253 0036 00       		.byte	0
 1254 0037 00       		.byte	0
 1255 0038 05       		.uleb128 0x5
 1256 0039 13       		.uleb128 0x13
 1257 003a 01       		.byte	0x1
 1258 003b 03       		.uleb128 0x3
 1259 003c 0E       		.uleb128 0xe
 1260 003d 0B       		.uleb128 0xb
 1261 003e 0B       		.uleb128 0xb
 1262 003f 3A       		.uleb128 0x3a
 1263 0040 0B       		.uleb128 0xb
 1264 0041 3B       		.uleb128 0x3b
 1265 0042 0B       		.uleb128 0xb
 1266 0043 01       		.uleb128 0x1
 1267 0044 13       		.uleb128 0x13
 1268 0045 00       		.byte	0
 1269 0046 00       		.byte	0
 1270 0047 06       		.uleb128 0x6
 1271 0048 0D       		.uleb128 0xd
 1272 0049 00       		.byte	0
 1273 004a 03       		.uleb128 0x3
 1274 004b 0E       		.uleb128 0xe
 1275 004c 3A       		.uleb128 0x3a
 1276 004d 0B       		.uleb128 0xb
 1277 004e 3B       		.uleb128 0x3b
 1278 004f 0B       		.uleb128 0xb
 1279 0050 49       		.uleb128 0x49
 1280 0051 13       		.uleb128 0x13
 1281 0052 38       		.uleb128 0x38
 1282 0053 0A       		.uleb128 0xa
 1283 0054 00       		.byte	0
 1284 0055 00       		.byte	0
 1285 0056 07       		.uleb128 0x7
 1286 0057 0D       		.uleb128 0xd
 1287 0058 00       		.byte	0
 1288 0059 03       		.uleb128 0x3
 1289 005a 08       		.uleb128 0x8
 1290 005b 3A       		.uleb128 0x3a
 1291 005c 0B       		.uleb128 0xb
 1292 005d 3B       		.uleb128 0x3b
 1293 005e 0B       		.uleb128 0xb
 1294 005f 49       		.uleb128 0x49
 1295 0060 13       		.uleb128 0x13
 1296 0061 38       		.uleb128 0x38
 1297 0062 0A       		.uleb128 0xa
 1298 0063 00       		.byte	0
 1299 0064 00       		.byte	0
 1300 0065 08       		.uleb128 0x8
 1301 0066 13       		.uleb128 0x13
 1302 0067 01       		.byte	0x1
 1303 0068 0B       		.uleb128 0xb
 1304 0069 0B       		.uleb128 0xb
 1305 006a 3A       		.uleb128 0x3a
ARM GAS  C:\Users\roob\AppData\Local\Temp\ccdZJICl.s 			page 24


 1306 006b 0B       		.uleb128 0xb
 1307 006c 3B       		.uleb128 0x3b
 1308 006d 0B       		.uleb128 0xb
 1309 006e 01       		.uleb128 0x1
 1310 006f 13       		.uleb128 0x13
 1311 0070 00       		.byte	0
 1312 0071 00       		.byte	0
 1313 0072 09       		.uleb128 0x9
 1314 0073 0F       		.uleb128 0xf
 1315 0074 00       		.byte	0
 1316 0075 0B       		.uleb128 0xb
 1317 0076 0B       		.uleb128 0xb
 1318 0077 49       		.uleb128 0x49
 1319 0078 13       		.uleb128 0x13
 1320 0079 00       		.byte	0
 1321 007a 00       		.byte	0
 1322 007b 0A       		.uleb128 0xa
 1323 007c 0F       		.uleb128 0xf
 1324 007d 00       		.byte	0
 1325 007e 0B       		.uleb128 0xb
 1326 007f 0B       		.uleb128 0xb
 1327 0080 00       		.byte	0
 1328 0081 00       		.byte	0
 1329 0082 0B       		.uleb128 0xb
 1330 0083 13       		.uleb128 0x13
 1331 0084 01       		.byte	0x1
 1332 0085 03       		.uleb128 0x3
 1333 0086 0E       		.uleb128 0xe
 1334 0087 0B       		.uleb128 0xb
 1335 0088 0B       		.uleb128 0xb
 1336 0089 3A       		.uleb128 0x3a
 1337 008a 0B       		.uleb128 0xb
 1338 008b 3B       		.uleb128 0x3b
 1339 008c 05       		.uleb128 0x5
 1340 008d 01       		.uleb128 0x1
 1341 008e 13       		.uleb128 0x13
 1342 008f 00       		.byte	0
 1343 0090 00       		.byte	0
 1344 0091 0C       		.uleb128 0xc
 1345 0092 0D       		.uleb128 0xd
 1346 0093 00       		.byte	0
 1347 0094 03       		.uleb128 0x3
 1348 0095 08       		.uleb128 0x8
 1349 0096 3A       		.uleb128 0x3a
 1350 0097 0B       		.uleb128 0xb
 1351 0098 3B       		.uleb128 0x3b
 1352 0099 05       		.uleb128 0x5
 1353 009a 49       		.uleb128 0x49
 1354 009b 13       		.uleb128 0x13
 1355 009c 38       		.uleb128 0x38
 1356 009d 0A       		.uleb128 0xa
 1357 009e 00       		.byte	0
 1358 009f 00       		.byte	0
 1359 00a0 0D       		.uleb128 0xd
 1360 00a1 35       		.uleb128 0x35
 1361 00a2 00       		.byte	0
 1362 00a3 49       		.uleb128 0x49
ARM GAS  C:\Users\roob\AppData\Local\Temp\ccdZJICl.s 			page 25


 1363 00a4 13       		.uleb128 0x13
 1364 00a5 00       		.byte	0
 1365 00a6 00       		.byte	0
 1366 00a7 0E       		.uleb128 0xe
 1367 00a8 17       		.uleb128 0x17
 1368 00a9 01       		.byte	0x1
 1369 00aa 0B       		.uleb128 0xb
 1370 00ab 0B       		.uleb128 0xb
 1371 00ac 3A       		.uleb128 0x3a
 1372 00ad 0B       		.uleb128 0xb
 1373 00ae 3B       		.uleb128 0x3b
 1374 00af 0B       		.uleb128 0xb
 1375 00b0 01       		.uleb128 0x1
 1376 00b1 13       		.uleb128 0x13
 1377 00b2 00       		.byte	0
 1378 00b3 00       		.byte	0
 1379 00b4 0F       		.uleb128 0xf
 1380 00b5 0D       		.uleb128 0xd
 1381 00b6 00       		.byte	0
 1382 00b7 03       		.uleb128 0x3
 1383 00b8 0E       		.uleb128 0xe
 1384 00b9 3A       		.uleb128 0x3a
 1385 00ba 0B       		.uleb128 0xb
 1386 00bb 3B       		.uleb128 0x3b
 1387 00bc 0B       		.uleb128 0xb
 1388 00bd 49       		.uleb128 0x49
 1389 00be 13       		.uleb128 0x13
 1390 00bf 00       		.byte	0
 1391 00c0 00       		.byte	0
 1392 00c1 10       		.uleb128 0x10
 1393 00c2 26       		.uleb128 0x26
 1394 00c3 00       		.byte	0
 1395 00c4 49       		.uleb128 0x49
 1396 00c5 13       		.uleb128 0x13
 1397 00c6 00       		.byte	0
 1398 00c7 00       		.byte	0
 1399 00c8 11       		.uleb128 0x11
 1400 00c9 15       		.uleb128 0x15
 1401 00ca 01       		.byte	0x1
 1402 00cb 27       		.uleb128 0x27
 1403 00cc 0C       		.uleb128 0xc
 1404 00cd 49       		.uleb128 0x49
 1405 00ce 13       		.uleb128 0x13
 1406 00cf 01       		.uleb128 0x1
 1407 00d0 13       		.uleb128 0x13
 1408 00d1 00       		.byte	0
 1409 00d2 00       		.byte	0
 1410 00d3 12       		.uleb128 0x12
 1411 00d4 05       		.uleb128 0x5
 1412 00d5 00       		.byte	0
 1413 00d6 49       		.uleb128 0x49
 1414 00d7 13       		.uleb128 0x13
 1415 00d8 00       		.byte	0
 1416 00d9 00       		.byte	0
 1417 00da 13       		.uleb128 0x13
 1418 00db 15       		.uleb128 0x15
 1419 00dc 00       		.byte	0
ARM GAS  C:\Users\roob\AppData\Local\Temp\ccdZJICl.s 			page 26


 1420 00dd 27       		.uleb128 0x27
 1421 00de 0C       		.uleb128 0xc
 1422 00df 00       		.byte	0
 1423 00e0 00       		.byte	0
 1424 00e1 14       		.uleb128 0x14
 1425 00e2 2E       		.uleb128 0x2e
 1426 00e3 01       		.byte	0x1
 1427 00e4 03       		.uleb128 0x3
 1428 00e5 0E       		.uleb128 0xe
 1429 00e6 3A       		.uleb128 0x3a
 1430 00e7 0B       		.uleb128 0xb
 1431 00e8 3B       		.uleb128 0x3b
 1432 00e9 0B       		.uleb128 0xb
 1433 00ea 27       		.uleb128 0x27
 1434 00eb 0C       		.uleb128 0xc
 1435 00ec 11       		.uleb128 0x11
 1436 00ed 01       		.uleb128 0x1
 1437 00ee 12       		.uleb128 0x12
 1438 00ef 01       		.uleb128 0x1
 1439 00f0 40       		.uleb128 0x40
 1440 00f1 06       		.uleb128 0x6
 1441 00f2 9742     		.uleb128 0x2117
 1442 00f4 0C       		.uleb128 0xc
 1443 00f5 01       		.uleb128 0x1
 1444 00f6 13       		.uleb128 0x13
 1445 00f7 00       		.byte	0
 1446 00f8 00       		.byte	0
 1447 00f9 15       		.uleb128 0x15
 1448 00fa 34       		.uleb128 0x34
 1449 00fb 00       		.byte	0
 1450 00fc 03       		.uleb128 0x3
 1451 00fd 08       		.uleb128 0x8
 1452 00fe 3A       		.uleb128 0x3a
 1453 00ff 0B       		.uleb128 0xb
 1454 0100 3B       		.uleb128 0x3b
 1455 0101 0B       		.uleb128 0xb
 1456 0102 49       		.uleb128 0x49
 1457 0103 13       		.uleb128 0x13
 1458 0104 02       		.uleb128 0x2
 1459 0105 06       		.uleb128 0x6
 1460 0106 00       		.byte	0
 1461 0107 00       		.byte	0
 1462 0108 16       		.uleb128 0x16
 1463 0109 34       		.uleb128 0x34
 1464 010a 00       		.byte	0
 1465 010b 03       		.uleb128 0x3
 1466 010c 08       		.uleb128 0x8
 1467 010d 3A       		.uleb128 0x3a
 1468 010e 0B       		.uleb128 0xb
 1469 010f 3B       		.uleb128 0x3b
 1470 0110 0B       		.uleb128 0xb
 1471 0111 49       		.uleb128 0x49
 1472 0112 13       		.uleb128 0x13
 1473 0113 02       		.uleb128 0x2
 1474 0114 0A       		.uleb128 0xa
 1475 0115 00       		.byte	0
 1476 0116 00       		.byte	0
ARM GAS  C:\Users\roob\AppData\Local\Temp\ccdZJICl.s 			page 27


 1477 0117 17       		.uleb128 0x17
 1478 0118 898201   		.uleb128 0x4109
 1479 011b 01       		.byte	0x1
 1480 011c 11       		.uleb128 0x11
 1481 011d 01       		.uleb128 0x1
 1482 011e 31       		.uleb128 0x31
 1483 011f 13       		.uleb128 0x13
 1484 0120 01       		.uleb128 0x1
 1485 0121 13       		.uleb128 0x13
 1486 0122 00       		.byte	0
 1487 0123 00       		.byte	0
 1488 0124 18       		.uleb128 0x18
 1489 0125 8A8201   		.uleb128 0x410a
 1490 0128 00       		.byte	0
 1491 0129 02       		.uleb128 0x2
 1492 012a 0A       		.uleb128 0xa
 1493 012b 9142     		.uleb128 0x2111
 1494 012d 0A       		.uleb128 0xa
 1495 012e 00       		.byte	0
 1496 012f 00       		.byte	0
 1497 0130 19       		.uleb128 0x19
 1498 0131 898201   		.uleb128 0x4109
 1499 0134 00       		.byte	0
 1500 0135 11       		.uleb128 0x11
 1501 0136 01       		.uleb128 0x1
 1502 0137 31       		.uleb128 0x31
 1503 0138 13       		.uleb128 0x13
 1504 0139 00       		.byte	0
 1505 013a 00       		.byte	0
 1506 013b 1A       		.uleb128 0x1a
 1507 013c 898201   		.uleb128 0x4109
 1508 013f 01       		.byte	0x1
 1509 0140 11       		.uleb128 0x11
 1510 0141 01       		.uleb128 0x1
 1511 0142 9542     		.uleb128 0x2115
 1512 0144 0C       		.uleb128 0xc
 1513 0145 31       		.uleb128 0x31
 1514 0146 13       		.uleb128 0x13
 1515 0147 00       		.byte	0
 1516 0148 00       		.byte	0
 1517 0149 1B       		.uleb128 0x1b
 1518 014a 2E       		.uleb128 0x2e
 1519 014b 01       		.byte	0x1
 1520 014c 03       		.uleb128 0x3
 1521 014d 0E       		.uleb128 0xe
 1522 014e 3A       		.uleb128 0x3a
 1523 014f 0B       		.uleb128 0xb
 1524 0150 3B       		.uleb128 0x3b
 1525 0151 0B       		.uleb128 0xb
 1526 0152 27       		.uleb128 0x27
 1527 0153 0C       		.uleb128 0xc
 1528 0154 49       		.uleb128 0x49
 1529 0155 13       		.uleb128 0x13
 1530 0156 11       		.uleb128 0x11
 1531 0157 01       		.uleb128 0x1
 1532 0158 12       		.uleb128 0x12
 1533 0159 01       		.uleb128 0x1
ARM GAS  C:\Users\roob\AppData\Local\Temp\ccdZJICl.s 			page 28


 1534 015a 40       		.uleb128 0x40
 1535 015b 06       		.uleb128 0x6
 1536 015c 9742     		.uleb128 0x2117
 1537 015e 0C       		.uleb128 0xc
 1538 015f 01       		.uleb128 0x1
 1539 0160 13       		.uleb128 0x13
 1540 0161 00       		.byte	0
 1541 0162 00       		.byte	0
 1542 0163 1C       		.uleb128 0x1c
 1543 0164 05       		.uleb128 0x5
 1544 0165 00       		.byte	0
 1545 0166 03       		.uleb128 0x3
 1546 0167 08       		.uleb128 0x8
 1547 0168 3A       		.uleb128 0x3a
 1548 0169 0B       		.uleb128 0xb
 1549 016a 3B       		.uleb128 0x3b
 1550 016b 0B       		.uleb128 0xb
 1551 016c 49       		.uleb128 0x49
 1552 016d 13       		.uleb128 0x13
 1553 016e 02       		.uleb128 0x2
 1554 016f 06       		.uleb128 0x6
 1555 0170 00       		.byte	0
 1556 0171 00       		.byte	0
 1557 0172 1D       		.uleb128 0x1d
 1558 0173 898201   		.uleb128 0x4109
 1559 0176 01       		.byte	0x1
 1560 0177 11       		.uleb128 0x11
 1561 0178 01       		.uleb128 0x1
 1562 0179 31       		.uleb128 0x31
 1563 017a 13       		.uleb128 0x13
 1564 017b 00       		.byte	0
 1565 017c 00       		.byte	0
 1566 017d 1E       		.uleb128 0x1e
 1567 017e 34       		.uleb128 0x34
 1568 017f 00       		.byte	0
 1569 0180 03       		.uleb128 0x3
 1570 0181 0E       		.uleb128 0xe
 1571 0182 3A       		.uleb128 0x3a
 1572 0183 0B       		.uleb128 0xb
 1573 0184 3B       		.uleb128 0x3b
 1574 0185 0B       		.uleb128 0xb
 1575 0186 49       		.uleb128 0x49
 1576 0187 13       		.uleb128 0x13
 1577 0188 3F       		.uleb128 0x3f
 1578 0189 0C       		.uleb128 0xc
 1579 018a 3C       		.uleb128 0x3c
 1580 018b 0C       		.uleb128 0xc
 1581 018c 00       		.byte	0
 1582 018d 00       		.byte	0
 1583 018e 1F       		.uleb128 0x1f
 1584 018f 01       		.uleb128 0x1
 1585 0190 01       		.byte	0x1
 1586 0191 49       		.uleb128 0x49
 1587 0192 13       		.uleb128 0x13
 1588 0193 01       		.uleb128 0x1
 1589 0194 13       		.uleb128 0x13
 1590 0195 00       		.byte	0
ARM GAS  C:\Users\roob\AppData\Local\Temp\ccdZJICl.s 			page 29


 1591 0196 00       		.byte	0
 1592 0197 20       		.uleb128 0x20
 1593 0198 21       		.uleb128 0x21
 1594 0199 00       		.byte	0
 1595 019a 49       		.uleb128 0x49
 1596 019b 13       		.uleb128 0x13
 1597 019c 2F       		.uleb128 0x2f
 1598 019d 0B       		.uleb128 0xb
 1599 019e 00       		.byte	0
 1600 019f 00       		.byte	0
 1601 01a0 21       		.uleb128 0x21
 1602 01a1 21       		.uleb128 0x21
 1603 01a2 00       		.byte	0
 1604 01a3 00       		.byte	0
 1605 01a4 00       		.byte	0
 1606 01a5 22       		.uleb128 0x22
 1607 01a6 34       		.uleb128 0x34
 1608 01a7 00       		.byte	0
 1609 01a8 03       		.uleb128 0x3
 1610 01a9 08       		.uleb128 0x8
 1611 01aa 3A       		.uleb128 0x3a
 1612 01ab 0B       		.uleb128 0xb
 1613 01ac 3B       		.uleb128 0x3b
 1614 01ad 0B       		.uleb128 0xb
 1615 01ae 49       		.uleb128 0x49
 1616 01af 13       		.uleb128 0x13
 1617 01b0 3F       		.uleb128 0x3f
 1618 01b1 0C       		.uleb128 0xc
 1619 01b2 3C       		.uleb128 0x3c
 1620 01b3 0C       		.uleb128 0xc
 1621 01b4 00       		.byte	0
 1622 01b5 00       		.byte	0
 1623 01b6 23       		.uleb128 0x23
 1624 01b7 34       		.uleb128 0x34
 1625 01b8 00       		.byte	0
 1626 01b9 03       		.uleb128 0x3
 1627 01ba 0E       		.uleb128 0xe
 1628 01bb 3A       		.uleb128 0x3a
 1629 01bc 0B       		.uleb128 0xb
 1630 01bd 3B       		.uleb128 0x3b
 1631 01be 0B       		.uleb128 0xb
 1632 01bf 49       		.uleb128 0x49
 1633 01c0 13       		.uleb128 0x13
 1634 01c1 3F       		.uleb128 0x3f
 1635 01c2 0C       		.uleb128 0xc
 1636 01c3 02       		.uleb128 0x2
 1637 01c4 0A       		.uleb128 0xa
 1638 01c5 00       		.byte	0
 1639 01c6 00       		.byte	0
 1640 01c7 24       		.uleb128 0x24
 1641 01c8 2E       		.uleb128 0x2e
 1642 01c9 01       		.byte	0x1
 1643 01ca 3F       		.uleb128 0x3f
 1644 01cb 0C       		.uleb128 0xc
 1645 01cc 03       		.uleb128 0x3
 1646 01cd 0E       		.uleb128 0xe
 1647 01ce 3A       		.uleb128 0x3a
ARM GAS  C:\Users\roob\AppData\Local\Temp\ccdZJICl.s 			page 30


 1648 01cf 0B       		.uleb128 0xb
 1649 01d0 3B       		.uleb128 0x3b
 1650 01d1 05       		.uleb128 0x5
 1651 01d2 27       		.uleb128 0x27
 1652 01d3 0C       		.uleb128 0xc
 1653 01d4 49       		.uleb128 0x49
 1654 01d5 13       		.uleb128 0x13
 1655 01d6 3C       		.uleb128 0x3c
 1656 01d7 0C       		.uleb128 0xc
 1657 01d8 01       		.uleb128 0x1
 1658 01d9 13       		.uleb128 0x13
 1659 01da 00       		.byte	0
 1660 01db 00       		.byte	0
 1661 01dc 25       		.uleb128 0x25
 1662 01dd 2E       		.uleb128 0x2e
 1663 01de 00       		.byte	0
 1664 01df 3F       		.uleb128 0x3f
 1665 01e0 0C       		.uleb128 0xc
 1666 01e1 03       		.uleb128 0x3
 1667 01e2 0E       		.uleb128 0xe
 1668 01e3 3A       		.uleb128 0x3a
 1669 01e4 0B       		.uleb128 0xb
 1670 01e5 3B       		.uleb128 0x3b
 1671 01e6 0B       		.uleb128 0xb
 1672 01e7 27       		.uleb128 0x27
 1673 01e8 0C       		.uleb128 0xc
 1674 01e9 49       		.uleb128 0x49
 1675 01ea 13       		.uleb128 0x13
 1676 01eb 3C       		.uleb128 0x3c
 1677 01ec 0C       		.uleb128 0xc
 1678 01ed 00       		.byte	0
 1679 01ee 00       		.byte	0
 1680 01ef 26       		.uleb128 0x26
 1681 01f0 2E       		.uleb128 0x2e
 1682 01f1 01       		.byte	0x1
 1683 01f2 3F       		.uleb128 0x3f
 1684 01f3 0C       		.uleb128 0xc
 1685 01f4 03       		.uleb128 0x3
 1686 01f5 0E       		.uleb128 0xe
 1687 01f6 3A       		.uleb128 0x3a
 1688 01f7 0B       		.uleb128 0xb
 1689 01f8 3B       		.uleb128 0x3b
 1690 01f9 0B       		.uleb128 0xb
 1691 01fa 27       		.uleb128 0x27
 1692 01fb 0C       		.uleb128 0xc
 1693 01fc 3C       		.uleb128 0x3c
 1694 01fd 0C       		.uleb128 0xc
 1695 01fe 01       		.uleb128 0x1
 1696 01ff 13       		.uleb128 0x13
 1697 0200 00       		.byte	0
 1698 0201 00       		.byte	0
 1699 0202 27       		.uleb128 0x27
 1700 0203 2E       		.uleb128 0x2e
 1701 0204 01       		.byte	0x1
 1702 0205 3F       		.uleb128 0x3f
 1703 0206 0C       		.uleb128 0xc
 1704 0207 03       		.uleb128 0x3
ARM GAS  C:\Users\roob\AppData\Local\Temp\ccdZJICl.s 			page 31


 1705 0208 0E       		.uleb128 0xe
 1706 0209 3A       		.uleb128 0x3a
 1707 020a 0B       		.uleb128 0xb
 1708 020b 3B       		.uleb128 0x3b
 1709 020c 0B       		.uleb128 0xb
 1710 020d 27       		.uleb128 0x27
 1711 020e 0C       		.uleb128 0xc
 1712 020f 49       		.uleb128 0x49
 1713 0210 13       		.uleb128 0x13
 1714 0211 3C       		.uleb128 0x3c
 1715 0212 0C       		.uleb128 0xc
 1716 0213 01       		.uleb128 0x1
 1717 0214 13       		.uleb128 0x13
 1718 0215 00       		.byte	0
 1719 0216 00       		.byte	0
 1720 0217 28       		.uleb128 0x28
 1721 0218 2E       		.uleb128 0x2e
 1722 0219 01       		.byte	0x1
 1723 021a 3F       		.uleb128 0x3f
 1724 021b 0C       		.uleb128 0xc
 1725 021c 03       		.uleb128 0x3
 1726 021d 0E       		.uleb128 0xe
 1727 021e 3A       		.uleb128 0x3a
 1728 021f 0B       		.uleb128 0xb
 1729 0220 3B       		.uleb128 0x3b
 1730 0221 0B       		.uleb128 0xb
 1731 0222 27       		.uleb128 0x27
 1732 0223 0C       		.uleb128 0xc
 1733 0224 49       		.uleb128 0x49
 1734 0225 13       		.uleb128 0x13
 1735 0226 3C       		.uleb128 0x3c
 1736 0227 0C       		.uleb128 0xc
 1737 0228 00       		.byte	0
 1738 0229 00       		.byte	0
 1739 022a 00       		.byte	0
 1740              		.section	.debug_loc,"",%progbits
 1741              	.Ldebug_loc0:
 1742              	.LLST0:
 1743 0000 00000000 		.4byte	.LFB8
 1744 0004 02000000 		.4byte	.LCFI0
 1745 0008 0200     		.2byte	0x2
 1746 000a 7D       		.byte	0x7d
 1747 000b 00       		.sleb128 0
 1748 000c 02000000 		.4byte	.LCFI0
 1749 0010 16000000 		.4byte	.LCFI1
 1750 0014 0200     		.2byte	0x2
 1751 0016 7D       		.byte	0x7d
 1752 0017 08       		.sleb128 8
 1753 0018 16000000 		.4byte	.LCFI1
 1754 001c 82000000 		.4byte	.LFE8
 1755 0020 0200     		.2byte	0x2
 1756 0022 7D       		.byte	0x7d
 1757 0023 10       		.sleb128 16
 1758 0024 00000000 		.4byte	0
 1759 0028 00000000 		.4byte	0
 1760              	.LLST1:
 1761 002c 3C000000 		.4byte	.LVL1
ARM GAS  C:\Users\roob\AppData\Local\Temp\ccdZJICl.s 			page 32


 1762 0030 43000000 		.4byte	.LVL3-1
 1763 0034 0100     		.2byte	0x1
 1764 0036 50       		.byte	0x50
 1765 0037 4E000000 		.4byte	.LVL5
 1766 003b 55000000 		.4byte	.LVL7-1
 1767 003f 0100     		.2byte	0x1
 1768 0041 50       		.byte	0x50
 1769 0042 60000000 		.4byte	.LVL9
 1770 0046 67000000 		.4byte	.LVL11-1
 1771 004a 0100     		.2byte	0x1
 1772 004c 50       		.byte	0x50
 1773 004d 00000000 		.4byte	0
 1774 0051 00000000 		.4byte	0
 1775              	.LLST2:
 1776 0055 00000000 		.4byte	.LFB7
 1777 0059 02000000 		.4byte	.LCFI2
 1778 005d 0200     		.2byte	0x2
 1779 005f 7D       		.byte	0x7d
 1780 0060 00       		.sleb128 0
 1781 0061 02000000 		.4byte	.LCFI2
 1782 0065 1E000000 		.4byte	.LFE7
 1783 0069 0200     		.2byte	0x2
 1784 006b 7D       		.byte	0x7d
 1785 006c 08       		.sleb128 8
 1786 006d 00000000 		.4byte	0
 1787 0071 00000000 		.4byte	0
 1788              	.LLST3:
 1789 0075 00000000 		.4byte	.LVL14
 1790 0079 09000000 		.4byte	.LVL15-1
 1791 007d 0100     		.2byte	0x1
 1792 007f 50       		.byte	0x50
 1793 0080 09000000 		.4byte	.LVL15-1
 1794 0084 1E000000 		.4byte	.LFE7
 1795 0088 0100     		.2byte	0x1
 1796 008a 54       		.byte	0x54
 1797 008b 00000000 		.4byte	0
 1798 008f 00000000 		.4byte	0
 1799              		.section	.debug_aranges,"",%progbits
 1800 0000 24000000 		.4byte	0x24
 1801 0004 0200     		.2byte	0x2
 1802 0006 00000000 		.4byte	.Ldebug_info0
 1803 000a 04       		.byte	0x4
 1804 000b 00       		.byte	0
 1805 000c 0000     		.2byte	0
 1806 000e 0000     		.2byte	0
 1807 0010 00000000 		.4byte	.LFB8
 1808 0014 82000000 		.4byte	.LFE8-.LFB8
 1809 0018 00000000 		.4byte	.LFB7
 1810 001c 1E000000 		.4byte	.LFE7-.LFB7
 1811 0020 00000000 		.4byte	0
 1812 0024 00000000 		.4byte	0
 1813              		.section	.debug_ranges,"",%progbits
 1814              	.Ldebug_ranges0:
 1815 0000 00000000 		.4byte	.LFB8
 1816 0004 82000000 		.4byte	.LFE8
 1817 0008 00000000 		.4byte	.LFB7
 1818 000c 1E000000 		.4byte	.LFE7
ARM GAS  C:\Users\roob\AppData\Local\Temp\ccdZJICl.s 			page 33


 1819 0010 00000000 		.4byte	0
 1820 0014 00000000 		.4byte	0
 1821              		.section	.debug_line,"",%progbits
 1822              	.Ldebug_line0:
 1823 0000 F8010000 		.section	.debug_str,"MS",%progbits,1
 1823      0200B801 
 1823      00000201 
 1823      FB0E0D00 
 1823      01010101 
 1824              	.LASF65:
 1825 0000 7466756E 		.ascii	"tfunc_t\000"
 1825      635F7400 
 1826              	.LASF38:
 1827 0008 705F6D73 		.ascii	"p_msg\000"
 1827      6700
 1828              	.LASF2:
 1829 000e 73697A65 		.ascii	"size_t\000"
 1829      5F7400
 1830              	.LASF60:
 1831 0015 7264796D 		.ascii	"rdymsg\000"
 1831      736700
 1832              	.LASF12:
 1833 001c 6C6F6E67 		.ascii	"long long unsigned int\000"
 1833      206C6F6E 
 1833      6720756E 
 1833      7369676E 
 1833      65642069 
 1834              	.LASF61:
 1835 0033 65786974 		.ascii	"exitcode\000"
 1835      636F6465 
 1835      00
 1836              	.LASF26:
 1837 003c 705F7072 		.ascii	"p_prio\000"
 1837      696F00
 1838              	.LASF11:
 1839 0043 6C6F6E67 		.ascii	"long long int\000"
 1839      206C6F6E 
 1839      6720696E 
 1839      7400
 1840              	.LASF1:
 1841 0051 7369676E 		.ascii	"signed char\000"
 1841      65642063 
 1841      68617200 
 1842              	.LASF42:
 1843 005d 705F6D70 		.ascii	"p_mpool\000"
 1843      6F6F6C00 
 1844              	.LASF13:
 1845 0065 626F6F6C 		.ascii	"bool_t\000"
 1845      5F7400
 1846              	.LASF57:
 1847 006c 6D5F7175 		.ascii	"m_queue\000"
 1847      65756500 
 1848              	.LASF76:
 1849 0074 74657374 		.ascii	"test_emit_token\000"
 1849      5F656D69 
 1849      745F746F 
 1849      6B656E00 
ARM GAS  C:\Users\roob\AppData\Local\Temp\ccdZJICl.s 			page 34


 1850              	.LASF18:
 1851 0084 74736C69 		.ascii	"tslices_t\000"
 1851      6365735F 
 1851      7400
 1852              	.LASF8:
 1853 008e 6C6F6E67 		.ascii	"long int\000"
 1853      20696E74 
 1853      00
 1854              	.LASF79:
 1855 0097 63684D73 		.ascii	"chMsgSend\000"
 1855      6753656E 
 1855      6400
 1856              	.LASF16:
 1857 00a1 74737461 		.ascii	"tstate_t\000"
 1857      74655F74 
 1857      00
 1858              	.LASF28:
 1859 00aa 705F6E65 		.ascii	"p_newer\000"
 1859      77657200 
 1860              	.LASF52:
 1861 00b2 725F6E65 		.ascii	"r_newer\000"
 1861      77657200 
 1862              	.LASF45:
 1863 00ba 72656761 		.ascii	"regarm_t\000"
 1863      726D5F74 
 1863      00
 1864              	.LASF0:
 1865 00c3 756E7369 		.ascii	"unsigned int\000"
 1865      676E6564 
 1865      20696E74 
 1865      00
 1866              	.LASF10:
 1867 00d0 6C6F6E67 		.ascii	"long unsigned int\000"
 1867      20756E73 
 1867      69676E65 
 1867      6420696E 
 1867      7400
 1868              	.LASF69:
 1869 00e2 74656172 		.ascii	"teardown\000"
 1869      646F776E 
 1869      00
 1870              	.LASF67:
 1871 00eb 6E616D65 		.ascii	"name\000"
 1871      00
 1872              	.LASF47:
 1873 00f0 636F6E74 		.ascii	"context\000"
 1873      65787400 
 1874              	.LASF6:
 1875 00f8 73686F72 		.ascii	"short unsigned int\000"
 1875      7420756E 
 1875      7369676E 
 1875      65642069 
 1875      6E7400
 1876              	.LASF20:
 1877 010b 6D73675F 		.ascii	"msg_t\000"
 1877      7400
 1878              	.LASF15:
ARM GAS  C:\Users\roob\AppData\Local\Temp\ccdZJICl.s 			page 35


 1879 0111 746D6F64 		.ascii	"tmode_t\000"
 1879      655F7400 
 1880              	.LASF81:
 1881 0119 2E2E2F2E 		.ascii	"../../test/testmsg.c\000"
 1881      2E2F7465 
 1881      73742F74 
 1881      6573746D 
 1881      73672E63 
 1882              	.LASF44:
 1883 012e 54687265 		.ascii	"ThreadsList\000"
 1883      6164734C 
 1883      69737400 
 1884              	.LASF21:
 1885 013a 6576656E 		.ascii	"eventmask_t\000"
 1885      746D6173 
 1885      6B5F7400 
 1886              	.LASF56:
 1887 0146 4D757465 		.ascii	"Mutex\000"
 1887      7800
 1888              	.LASF77:
 1889 014c 63685468 		.ascii	"chThdCreateStatic\000"
 1889      64437265 
 1889      61746553 
 1889      74617469 
 1889      6300
 1890              	.LASF74:
 1891 015e 70617474 		.ascii	"patternmsg\000"
 1891      65726E6D 
 1891      736700
 1892              	.LASF48:
 1893 0169 73697A65 		.ascii	"sizetype\000"
 1893      74797065 
 1893      00
 1894              	.LASF29:
 1895 0172 705F6F6C 		.ascii	"p_older\000"
 1895      64657200 
 1896              	.LASF51:
 1897 017a 725F6374 		.ascii	"r_ctx\000"
 1897      7800
 1898              	.LASF43:
 1899 0180 54687265 		.ascii	"ThreadsQueue\000"
 1899      61647351 
 1899      75657565 
 1899      00
 1900              	.LASF68:
 1901 018d 73657475 		.ascii	"setup\000"
 1901      7000
 1902              	.LASF78:
 1903 0193 5F746573 		.ascii	"_test_assert_sequence\000"
 1903      745F6173 
 1903      73657274 
 1903      5F736571 
 1903      75656E63 
 1904              	.LASF54:
 1905 01a9 725F6375 		.ascii	"r_current\000"
 1905      7272656E 
 1905      7400
ARM GAS  C:\Users\roob\AppData\Local\Temp\ccdZJICl.s 			page 36


 1906              	.LASF53:
 1907 01b3 725F6F6C 		.ascii	"r_older\000"
 1907      64657200 
 1908              	.LASF17:
 1909 01bb 74726566 		.ascii	"trefs_t\000"
 1909      735F7400 
 1910              	.LASF25:
 1911 01c3 705F7072 		.ascii	"p_prev\000"
 1911      657600
 1912              	.LASF70:
 1913 01ca 65786563 		.ascii	"execute\000"
 1913      75746500 
 1914              	.LASF19:
 1915 01d2 74707269 		.ascii	"tprio_t\000"
 1915      6F5F7400 
 1916              	.LASF80:
 1917 01da 474E5520 		.ascii	"GNU C 4.7.3 20130312 (release) [ARM/embedded-4_7-br"
 1917      4320342E 
 1917      372E3320 
 1917      32303133 
 1917      30333132 
 1918 020d 616E6368 		.ascii	"anch revision 196615]\000"
 1918      20726576 
 1918      6973696F 
 1918      6E203139 
 1918      36363135 
 1919              	.LASF84:
 1920 0223 74687265 		.ascii	"thread\000"
 1920      616400
 1921              	.LASF14:
 1922 022a 5F426F6F 		.ascii	"_Bool\000"
 1922      6C00
 1923              	.LASF7:
 1924 0230 696E7433 		.ascii	"int32_t\000"
 1924      325F7400 
 1925              	.LASF4:
 1926 0238 756E7369 		.ascii	"unsigned char\000"
 1926      676E6564 
 1926      20636861 
 1926      7200
 1927              	.LASF73:
 1928 0246 74657374 		.ascii	"testmsg1\000"
 1928      6D736731 
 1928      00
 1929              	.LASF40:
 1930 024f 705F6D74 		.ascii	"p_mtxlist\000"
 1930      786C6973 
 1930      7400
 1931              	.LASF5:
 1932 0259 73686F72 		.ascii	"short int\000"
 1932      7420696E 
 1932      7400
 1933              	.LASF31:
 1934 0263 705F7374 		.ascii	"p_state\000"
 1934      61746500 
 1935              	.LASF34:
 1936 026b 705F7072 		.ascii	"p_preempt\000"
ARM GAS  C:\Users\roob\AppData\Local\Temp\ccdZJICl.s 			page 37


 1936      65656D70 
 1936      7400
 1937              	.LASF72:
 1938 0275 74687265 		.ascii	"threads\000"
 1938      61647300 
 1939              	.LASF50:
 1940 027d 725F7072 		.ascii	"r_prio\000"
 1940      696F00
 1941              	.LASF82:
 1942 0284 433A5C43 		.ascii	"C:\\ChibiStudio\\chibios\\demos\\ARMCM4-STM32F407-L"
 1942      68696269 
 1942      53747564 
 1942      696F5C63 
 1942      68696269 
 1943 02b3 5749502D 		.ascii	"WIP-FATFS-USB\000"
 1943      46415446 
 1943      532D5553 
 1943      4200
 1944              	.LASF63:
 1945 02c1 65776D61 		.ascii	"ewmask\000"
 1945      736B00
 1946              	.LASF24:
 1947 02c8 705F6E65 		.ascii	"p_next\000"
 1947      787400
 1948              	.LASF32:
 1949 02cf 705F666C 		.ascii	"p_flags\000"
 1949      61677300 
 1950              	.LASF23:
 1951 02d7 54687265 		.ascii	"Thread\000"
 1951      616400
 1952              	.LASF75:
 1953 02de 63684D73 		.ascii	"chMsgRelease\000"
 1953      6752656C 
 1953      65617365 
 1953      00
 1954              	.LASF66:
 1955 02eb 74657374 		.ascii	"testcase\000"
 1955      63617365 
 1955      00
 1956              	.LASF39:
 1957 02f4 705F6570 		.ascii	"p_epending\000"
 1957      656E6469 
 1957      6E6700
 1958              	.LASF9:
 1959 02ff 75696E74 		.ascii	"uint32_t\000"
 1959      33325F74 
 1959      00
 1960              	.LASF49:
 1961 0308 725F7175 		.ascii	"r_queue\000"
 1961      65756500 
 1962              	.LASF64:
 1963 0310 63686172 		.ascii	"char\000"
 1963      00
 1964              	.LASF59:
 1965 0315 6D5F6E65 		.ascii	"m_next\000"
 1965      787400
 1966              	.LASF22:
ARM GAS  C:\Users\roob\AppData\Local\Temp\ccdZJICl.s 			page 38


 1967 031c 73797374 		.ascii	"systime_t\000"
 1967      696D655F 
 1967      7400
 1968              	.LASF41:
 1969 0326 705F7265 		.ascii	"p_realprio\000"
 1969      616C7072 
 1969      696F00
 1970              	.LASF35:
 1971 0331 705F7469 		.ascii	"p_time\000"
 1971      6D6500
 1972              	.LASF46:
 1973 0338 696E7463 		.ascii	"intctx\000"
 1973      747800
 1974              	.LASF37:
 1975 033f 705F6D73 		.ascii	"p_msgqueue\000"
 1975      67717565 
 1975      756500
 1976              	.LASF85:
 1977 034a 63684D73 		.ascii	"chMsgWait\000"
 1977      67576169 
 1977      7400
 1978              	.LASF33:
 1979 0354 705F7265 		.ascii	"p_refs\000"
 1979      667300
 1980              	.LASF55:
 1981 035b 52656164 		.ascii	"ReadyList\000"
 1981      794C6973 
 1981      7400
 1982              	.LASF71:
 1983 0365 726C6973 		.ascii	"rlist\000"
 1983      7400
 1984              	.LASF3:
 1985 036b 75696E74 		.ascii	"uint8_t\000"
 1985      385F7400 
 1986              	.LASF83:
 1987 0373 6D736731 		.ascii	"msg1_execute\000"
 1987      5F657865 
 1987      63757465 
 1987      00
 1988              	.LASF62:
 1989 0380 77746F62 		.ascii	"wtobjp\000"
 1989      6A7000
 1990              	.LASF30:
 1991 0387 705F6E61 		.ascii	"p_name\000"
 1991      6D6500
 1992              	.LASF58:
 1993 038e 6D5F6F77 		.ascii	"m_owner\000"
 1993      6E657200 
 1994              	.LASF27:
 1995 0396 705F6374 		.ascii	"p_ctx\000"
 1995      7800
 1996              	.LASF36:
 1997 039c 705F7761 		.ascii	"p_waiting\000"
 1997      6974696E 
 1997      6700
 1998              		.ident	"GCC: (GNU Tools for ARM Embedded Processors) 4.7.3 20130312 (release) [ARM/embedded-4_7-br
ARM GAS  C:\Users\roob\AppData\Local\Temp\ccdZJICl.s 			page 39


DEFINED SYMBOLS
                            *ABS*:00000000 testmsg.c
C:\Users\roob\AppData\Local\Temp\ccdZJICl.s:19     .text.msg1_execute:00000000 $t
C:\Users\roob\AppData\Local\Temp\ccdZJICl.s:24     .text.msg1_execute:00000000 msg1_execute
C:\Users\roob\AppData\Local\Temp\ccdZJICl.s:120    .text.thread:00000000 thread
C:\Users\roob\AppData\Local\Temp\ccdZJICl.s:168    .rodata.str1.4:00000000 .LC0
C:\Users\roob\AppData\Local\Temp\ccdZJICl.s:115    .text.thread:00000000 $t
C:\Users\roob\AppData\Local\Temp\ccdZJICl.s:176    .rodata.patternmsg:00000000 patternmsg
C:\Users\roob\AppData\Local\Temp\ccdZJICl.s:161    .rodata.testmsg1:00000000 testmsg1
C:\Users\roob\AppData\Local\Temp\ccdZJICl.s:158    .rodata.testmsg1:00000000 $d
C:\Users\roob\AppData\Local\Temp\ccdZJICl.s:167    .rodata.str1.4:00000000 $d
C:\Users\roob\AppData\Local\Temp\ccdZJICl.s:173    .rodata.patternmsg:00000000 $d
                     .debug_frame:00000010 $d

UNDEFINED SYMBOLS
rlist
wa
chThdCreateStatic
threads
chMsgWait
chMsgRelease
test_emit_token
_test_assert_sequence
chMsgSend
